:020000040800F2
:10000000000400206F00000885000008850000083B
:10001000A70B090100000000020221510040000866
:10002000040C0000750D00083512000820060008B9
:10003000810700087B080008CD080008B107000808
:10004000AB070008B5090008B30700085E00000010
:10005000FFFFFFFF09480068202100EA010028B1E6
:100060000748016842685FEA010D10477047FFF7D3
:10007000F1FF00F013F800F045F800002C000040FC
:100080000040000806E000005FEA000D70474448A9
:10009000008870474FF4017000F09CB838B54FF2FB
:1000A0000F04404D00F0C2F828B140F2052028802E
:1000B0006C80012032BD3C480068C00613D56888BA
:1000C000A0421CD1288840F2022188421CBF40F285
:1000D0000621884213D040F2011188421CBF40F231
:1000E000111188420BD0314C208A40F6A72188425A
:1000F00005D12068FFF7C8FF6068804700BF002077
:1001000032BD000038B5044672B629480168490876
:100110004900016000F0D0F8234800680009C107D9
:1001200054BF2449244902E0CD2201F8012B234A7F
:100130009142F9D32249234A234B03E011F8015B92
:1001400002F8015B9A42F9D32049214A002301E0D9
:1001500001F8013B9142FBD340F20521114A53883B
:100160004FF20F05AB420BD113888B4206D0C0076C
:1001700006D5180A012818BF022801D1194601E046
:1001800004B90021064801804CF23C30508000F058
:1001900019FA4FF40170BDE8324000F01BB80000BE
:1001A000B80C0020000000202C0000400040000897
:1001B000FCED00E00000002098000020000400207A
:1001C000E4170008000400200804002008040020B0
:1001D000BD0C00200D4930220A600D490A600D490E
:1001E0000A600D4910220A60010A08BF00020B498B
:1001F00008804FF20F004880BFF35F8F084800214E
:1002000001604160074808490160704730200040A4
:1002100030C8004030C0004010E000400000002026
:100220001C4000400CED00E00400FA05002070477F
:1002300080B500F0F9F90121062000F000FA06204F
:1002400000F02DFA0121072000F0F9F9072000F055
:1002500019FA1748016821F01001016001BD000082
:10026000052800D9704710B5DFE800F01721030F0B
:100270001C17104C2088411E2180C0B9072000F0B7
:100280001BFA42F21070208010BD072000F007FA20
:100290000620BDE8104000F00FBA0620BDE810406F
:1002A00000F0F0B90620BDE8104000F0F8B910BD2C
:1002B00000BC0040BA0C002006E05248016841F042
:1002C00001010160012141605348512101607047E3
:1002D000F8B5504C4C4D4FF6FF774D4EB088B842B4
:1002E00027D102237F224D480188301D00F0FAF902
:1002F000B088B84204BF0220B080A069800703D450
:10030000A06940F00200A06101207070B0882060F8
:100310000720286000206860A8603C484FF000710A
:100320000160A069C00732D5E06980B348F69F40FC
:100330003CE0A0698007E3D52868C00348BF00F00F
:1003400051F8707898BBA06810F00100A168B288DD
:1003500003D10F2A08D2521C06E0890704D5F17890
:1003600011B1032A28BF521EF07092B2022A38BF80
:100370000222B2802068B1888842C5D1A06900F00D
:100380000300032818BFFFF798FF0120F2BDA06902
:10039000C00701D5E06920B1A069C00704D4E069B5
:1003A00010B144F24F6001E042F227306860002053
:1003B000F2BD80B51A48017829B9C07807281CBF5A
:1003C0000928032809D01748016841F480710160A9
:1003D00003E040F2DC5000F0B9F9FFF779FF0028A4
:1003E000F7D001BD0848002141608160016821F01B
:1003F0000201016005484FF00071016004480021CE
:10040000417070471C40004010E000E004ED00E047
:10041000000400200440004000800040E017000875
:1004200096070808384000400078704700210160B6
:100430008180C18001817047F8B504460D4616469B
:10044000002710E02068803020600020E0808020BD
:100450002081A088401CA080E088411CE180001918
:10046000807A78557F1CBFB2B7420CD2E0882189D0
:100470008842F1D3802204F10A01206800F0FDF9DE
:100480000028DFD0F2BD0020F2BD0020704710B57B
:10049000044600F0D0F82046BDE8104000F0B1BAA4
:1004A0002DE9F043A5B000F093FA00F0C4F800F095
:1004B000E7FA012100A800F0EBFA404C04F18005B6
:1004C00000206860A86000F070F900280FBFE860A5
:1004D0008168E9604088A4F8800000A800F09CFBD7
:1004E000070046D1BDF80420BDF8060000A9401859
:1004F00000F20A065FFA82F894F8800080070FD5B0
:10050000E96869B1686808EB00024B1E22EA03073C
:1005100010B1A868B84203D2384600F04BFAAF6079
:1005200042463146686800F0D1F907000FD14246D3
:100530002146686800F0A1F9002000E0401C404519
:1005400005DA015D825D9142F8D0832706E0686894
:1005500040446860002FC0D01B2FBED00420FFF79E
:100560007FFE0121384600F0DFFA384625B0BDE8AD
:10057000F083172FF0D10020F8E770B5DAB0044609
:1005800036A8FFF753FF012000904FF402630C4A96
:1005900036A901A800F0EEFB0FF284050FF27406F5
:1005A00000F049F8002C14BF3246002201A9284669
:1005B00000F040FE5028F3D05AB070BD280C002047
:1005C0000804002080B5FFF7F4FEFFF731FE00F0CD
:1005D000D7F818B14FF40170FFF7FCFD00F02BF8CD
:1005E000FFF755FD40F2011188421CBF40F2111186
:1005F000884207D040F2052188421CBF40F2032107
:10060000884201D1012000E0002000F041FE0020DE
:1006100002BD00004D1700088917000829040008D2
:10062000390400088B0400080E48012181604EF651
:10063000BE21416000E00C4801210160704710B507
:1006400082080FF2280353F82220136800F00300F9
:1006500080000F248440A34301FA00F01843106087
:1006600010BD0000006000400860004000B0004085
:1006700004B0004000B2004004B2004000B40040AA
:1006800004B40040C108032908D2C1104902124A2B
:10069000012300F0070003FA00F050507047C10832
:1006A000032908D2C11049020C4A012300F00700B7
:1006B00003FA00F050507047C10803290BD2C11053
:1006C000074A02EB41210A68012300F0070003FA00
:1006D00000F050400860704714B0004010B0004077
:1006E0000CB0004030B583B0044610467F2808BFE8
:1006F0000020B1F5004F1AD108237F2240F61201E5
:1007000000A8FFF7EFFF08220FF2380100A800F061
:1007100023FE30B908237F2240F2A27100A8FFF720
:10072000E1FF082200A9204600F0F6FD37BD1A4679
:10073000034D294300FB0311204600F0EDFD37BDBA
:1007400000000808FFFFFFFFFFFFFFFF0A490A68DC
:100750000A4B1B68DB0758BF4008032809D34B6DC1
:1007600043F001034B650B689B1A1B031B0B834271
:10077000F9D3704700000000382000401C400040C2
:1007800080B50D210120FFF75AFF0D210220FFF750
:1007900056FF85480E2141610121816100210160E0
:1007A000416003218160002002BD0FF20C207047E0
:1007B000704700207047F8B50C461546010CC9007B
:1007C00041F0A001C9B2794E326942F004023261AF
:1007D000B2681207FCD53160326942F00202326120
:1007E000B2689207FCD5B268D207EDD40204120EAB
:1007F0003260326942F002023261B2689207FCD57F
:10080000C0B23060306940F002003061B0688007EB
:10081000FCD5306940F004003061B0680007FCD5B9
:1008200041F001003060306940F002003061B06892
:100830008007FCD500270AE07061306940F00100B4
:100840003061B0684007FCD5306838557F1CAF4236
:100850000ADAFFF7F0FE681E87427069B2BF40F007
:10086000010040084000E7E7306940F008003061CF
:10087000B0680007FCD50020F2BDF8B504460D466F
:1008800016464B4884423EBF37463919814201D350
:100890008520F2BD20040ED0200C000400F580302D
:1008A000814208D320464742BFB204E0F61B3C1900
:1008B0007D19B6B237463EB13A4629462046FFF783
:1008C0007AFF0028F2D0F2BD0020F2BD2DE9F843F6
:1008D000044688461646364884423ABF311981425A
:1008E00085200ED214F07F0F06D0E009C0018030C1
:1008F000814203D3071B02E0812E04D237461EB982
:100900000020BDE8F2838027200CC00040F0A0004A
:10091000C0B2264D296941F004012961A96809077F
:10092000FCD52860296941F002012961A96889077D
:10093000FCD5A968C907EDD42004000E28602869F9
:1009400040F002002861A8688007FCD5E0B228606A
:10095000286940F002002861A8688007FCD54FF0A4
:1009600000090DE0FFF767FE19F808002860286904
:1009700040F002002861A8688007FCD509F1010950
:100980001FFA89F9BFB2B945ECD3286940F00800D5
:100990002861A8680007FCD5F61B3C19B844B6B21C
:1009A000812EB0D2AAE700004CC000403CC00040FD
:1009B00001000200882070470201000000000000D2
:1009C0008000000000000200D417000801000000B1
:1009D00080B5284868214161002181610221816040
:1009E0000121016009210920FFF729FE04210A20C5
:1009F000BDE80440FFF723BE1F4800684006FBD552
:100A000070471E49CA685207FCD50860704710B588
:100A1000044603E014F8010BFFF7F3FF20780028E9
:100A2000F8D110BD10B5044620090A282CBF373074
:100A30003030C0B2FFF7E5FF04F00F000A282CBFEA
:100A400037303030C0B2BDE81040DAE70A480068FD
:100A500010F0020018BF0120704710B50446FFF7E0
:100A6000F5FF20B1054800682070002010BD01206E
:100A700010BD000054C8004048C800403CC80040B9
:100A800080B500A8FFF7E9FF0028FAD001BD0000FB
:100A9000017001224270827001290CBF8021402127
:100AA00081800021C18001811D4801600E21816289
:100AB000016821F01001016000214163416270472B
:100AC000F8B504460D46164616484FF0FF31016052
:100AD000134FFE6200207862386840F001003860F1
:100AE000FFF7A9FD012C19D16DB9FFF7AFFF78B958
:100AF000786AB042F4D3002EF2D038684008400043
:100B000038601620F2BD2846FFF7A7FF0028EFD176
:100B100038684008400038600020F2BD0120F2BD76
:100B200000F0004000A8004038B504460D4600F033
:100B300009F800F007F82A4621461820BDE8384099
:100B4000FFF7A5BC2A4621461820FFF7A0BC30B508
:100B500083B00446002020814AF6B43200A92078F0
:100B6000FFF7AEFF08B11C203EBD9DF80000032832
:100B700018BF182801D118203EBD042801D1172024
:100B80003EBD012801D021203EBD002500E06D1CA6
:100B9000EDB2A188091D8D420BDA40F2DD22281941
:100BA00000F10A012078FFF78BFF0028EFD0262004
:100BB0003EBD0025002006E00146EDB22819007B6D
:100BC00000F0DCFB6D1CA188EAB28A42F4D3A27A61
:100BD000E37A9B18FF2B01D022203EBD0B191D7B11
:100BE000B5EB102F01D023203EBD5B7BC0B283420A
:100BF00001D024203EBDA078824207D0401EC0B262
:100C0000824201D127203EBD25203EBD881C208187
:100C10000220E08000203EBD38B5044660780128FF
:100C200004D023D3032855D018D31FE020780128FF
:100C300011D13B254320FFF7E4FE40F2DD220021E5
:100C40002078FFF73DFF30B12846451EC0B200288E
:100C5000F0D11B2032BD0220607010E0FFF710FFC2
:100C600000F03AF8A078401CA07008E0182032BDCF
:100C70002278A078411EC9B20620FFF708FC204662
:100C8000FFF765FF050018BFFFF7FAFE272DEFD02D
:100C9000A8060BD52278A1781520FFF7F8FB002DC8
:100CA000EDD10320FFF7DCFA002032BD680603D443
:100CB000182D18BF1C2D07D121782846FFF734FFC7
:100CC00004206070284632BD172DE8D100F004F8EA
:100CD00003206070172032BD2278A1780620FFF72C
:100CE000D6BB0000F8B504460D4616461F4607E081
:100CF0003046A047294600F053FB05467F1E761C70
:100D0000BFB2002FF4D12846F2BD38B50C461546C7
:100D100005E0014614F8010B00F042FB6D1EADB278
:100D2000002DF6D132BDF8B507460E4614461D46D5
:100D30002A46214630683B689847070005D12A4675
:100D40002146F068FFF7E1FFF060D6F8A800281808
:100D5000C6F8A80096F8A70050B1AC362A4621463E
:100D6000304600F0F1FB2A462146304600F06CFB8D
:100D70003846F2BD10B5029C847203814260016066
:100D80004FF0FF31C16000210174A0F8A410802150
:100D900080F8A610002180F8A710C0F8A81028221B
:100DA000AC30BDE8104000F0D0BA2DE9F84F044651
:100DB0008B461E469BF81B70802F28BF8027D0686B
:100DC0009B49884250D1002E4CD0B06800904FF023
:100DD000FF384FF000090BEB490A9AF848500FE032
:100DE000FF2D16D0FFF727FC4FF40063E80240F018
:100DF000006241460098FFF775FF8046681CC5B247
:100E00009AF84900A842EBDA09F10109B9F1060F95
:100E1000E1DBDBF844006FEA0801884224D1A068D6
:100E200000BA7A08594673689847C8B9E06805BAA5
:100E3000A06802BA3B464FF0FF31B068FFF752FF9F
:100E4000C04385420CD140F6A720ABF81000A06843
:100E500000BA01220BF1100110307368984708B1F5
:100E6000422002E0172000E04320BDE8F28F2DE988
:100E7000F44F82B081460D46D5F804B02889ADF80C
:100E8000000005F1140606F1100704235A4600F08D
:100E9000CFF9002825D1BBF8000040BA1FFA80F82E
:100EA000BBF8020040BA84B2E00748BF462076D4BF
:100EB000B4F5026FC8BF4E2071DC002C6ED0DFF895
:100EC00074A15FEA080009D04FF60441B8EB0100B5
:100ED00064D0FF3865D0FE3863D0A7E0287C08B125
:100EE00051205CE08D2C28BF4F2058D22346321D64
:100EF00000F09DF9002852D1FA7E802A28BF802276
:100F000002F10C00844201BFB08840BA00F47F4077
:100F1000B0F5007F3ED1F08840BA4EF250318842A1
:100F200002BF388A40F6A721884233D1788A00F47C
:100F30007F40B0F5807F01BFB06800BADAF81C10BE
:100F4000884227D1BAF8180040F2032188420BD119
:100F5000788AB0F5847F1DD3F86D41051AD13649E2
:100F6000081AB0F5F02F15D84FF6FF70388206F149
:100F700010014FF0FF30FFF7C8FEF16809BAC9430E
:100F8000884204BF387E042804D1787E0C2818BF1C
:100F9000062801D0452002E0012028740020BDE889
:100FA000FE8F287C08B94120F9E7042300F03EF9C0
:100FB0000028F4D1DBF8000006BA201F84B2DAF86A
:100FC0001C00864238BF4820E9D3A019796D8842B9
:100FD00028BF4920E3D24FF6035080450CD1029838
:100FE00050B131460220029A1268904720B14A203F
:100FF000D5E7E01B84B2BE19002CCFD0BDF80000AD
:101000008442B4BF274607463B4600F00FF900284C
:10101000C5D102980028ECD07A0859463046029B88
:101020005B6898470028E4D04B20B8E74420B6E737
:10103000E320BBDE0000000800E007082DE9F843CC
:1010400004468846154605F1AC062F89102C38BF9A
:101050004E202CD30423324600F02BF838BB0C234F
:10106000321D00F026F810BBA4F11001306800BA60
:1010700030608CB22146304600F0AEF906E04A46B8
:101080006968304600F0E0F9A4EB0904A4B254B159
:10109000A146BC4288BFB9464B466A6800F009F8D1
:1010A0000028ECD003E0304600F0F1F90020BDE864
:1010B000F2832946404636E62DE9FE4F81460C462E
:1010C0009046666804F1140A0AF1100B04F1A405B5
:1010D000A878832805D14FF60710AF888221A97020
:1010E0000AE00423324600F0A3F8002866D13088D5
:1010F00040BA718849BA8FB2F90748BF46205DD41B
:10110000A97880B24FF20972801A58D04FF4FF725A
:10111000801A3AD0FF382FD0FF3802D0FF386BD07A
:1011200081E080296AD1062F23D3062301AA214614
:101130004846FFF7F8FDE8B9BDF8040040BA00F4EE
:101140007F40B0F5007F01BFBDF8080040BA4EF205
:10115000503188420DD1BDF8060040BA012818BFB1
:10116000522007D1BDF8060040BAA4F8A400002020
:1011700000E04520812154E081293FD122464946A3
:101180003846FFF75BFF82214BE0822936D1042FDE
:101190002DD30120E8700020686042462146484671
:1011A000FFF765FE18BB0021E97069688F421ED306
:1011B000B94239D28322AA70791A696034E082294F
:1011C0001CD104F1AC08404600F061F92089B84216
:1011D000B8BF4F2028DB3B463246214600F028F8B6
:1011E00010BBFAB23146404600F077F908B95420F6
:1011F0001AE00020842114E0842901D0512013E05A
:10120000042F18BF4C200FD104233246214600F092
:101210000FF848B94346224659465046FFF7C5FDE8
:101220008521A97000E04420BDE8FE8F5A4629467A
:10123000484678E570B505460C4616462089C10734
:1012400001D4802801DA4F2070BD00F0B9F808B948
:10125000532070BD324621462846FFF72DFF002857
:1012600018BF172803D08F2184F8A61070BD94F8FA
:10127000A600852806D1206869688847172805D107
:10128000002070BDA07A0028E4D0502070BD00007E
:1012900010B504460020FEF7E3FF24BB0020FFF753
:1012A0006CF950B90120FFF768F930B90520FEF755
:1012B000D7FF40F20120FEF78DFF0420FEF7D0FF9C
:1012C0000120FEF7CDFF40F20320BDE81040FEF7FD
:1012D00081BF0FF23400FFF79AFBFFF78DFB40F25E
:1012E0000220FEF777FFFFF7DBF80400F1D00FF2E2
:1012F0002000FFF78CFB2046FFF794FB01A0FFF7CF
:1013000086FBF0E70D0A00000D0A4F6B0D0A000086
:101310000D0A455252200000814212D21018401E80
:101320005118491E92B2002A1EBF11F8013900F867
:101330000139521EF6D1704711F8013B00F8013B0C
:10134000521E92B2002AF7D17047130003D00A460A
:10135000194600F025B9704710B500E0521E92B250
:1013600032B110F8013B11F8014BA342F6D001E075
:10137000002010BD181B40B210BD00000A0242EA56
:1013800011214840C0F30311484080EA0030410178
:10139000C9B20206D20E41EA0221484080B270472B
:1013A0000A0A4840C0B208214308C00746BF0348A4
:1013B00058401846491EF7D1504070472083B8ED79
:1013C00000206049415CFF2901D001207047401C8A
:1013D0001028F6DB0020704712B583B00446206861
:1013E00000BA00903A20039901B17A2020740C22AF
:1013F000211D04F11100FFF78FFF03220DF1010100
:1014000004F11D00FFF788FF00F03CF80398D0B10D
:10141000B0F57F4F05D200BA039002220DF10E0104
:101420000EE00FF278100088ADF80400039800BABF
:101430000390022201A9204600F006F8042203A925
:10144000204600F001F81FBDF8B504460D461646CB
:10145000002714E094F825000019017C7A5D5140C2
:10146000017494F82500401C84F82500C0B21028AF
:1014700004D300F007F8002084F825007F1CB74251
:10148000E8D3F1BD2F4904F1100000F003B91FB5F6
:10149000044600A8102100F007F994F82500C0F1D7
:1014A0001000C11000EB11710911A0EB011200A98D
:1014B0002046FFF7C9FF1FBD1FB50C4600AA011D3E
:1014C000002000F027F80020015D00AA825C514056
:1014D0000155401C1028F7DB1FBD38B504460D46EA
:1014E000102A07D12068216A94F8242002EB011108
:1014F000884201D0002032BD29462046FFF7DCFF9C
:10150000102204F110012846FFF726FF401E8041FB
:10151000C00F32BD11B581B0144600BA019002204F
:1015200020700C22601CFFF7F7FE03220DF105016D
:1015300004F10D00FFF7F0FE0249204600F0AAF882
:1015400013BD0000F8080808F0B585B004460D4644
:101550001646002100271DE031B900AA211D206A8E
:10156000401CFFF7D7FF012104F120007A5D0379C9
:101570000DF1000C13F80C305A407A550279521CC8
:10158000D2B2102A04D30022216A491C2162002110
:1015900002717F1CB742DFD305B0F0BDFFFE000033
:1015A00062F30F2262F31F42401810F0030308D0C9
:1015B000C91A1FD3DB0748BF00F8012D28BF20F848
:1015C000022D130030B414461546103928BF20E907
:1015D0003C00FAD8490728BF20E90C0048BF40F872
:1015E000042D890028BF20F8022D48BF00F8012DE6
:1015F00030BC7047C91818BF00F8012DCB0728BFB1
:1016000000F8012D7047000038B504461B4D2146F7
:1016100000F03DF8E860211D00F039F8A86004F101
:10162000080100F034F8686004F10C0100F02FF8B4
:10163000286031BDF8B50446114D80202860114E58
:10164000062030600720286030688007FCD500271E
:1016500004EB870100F01BF8A8627F1C042FF7D36E
:1016600030684007FCD500262A6B04EB860100F0A9
:101670000BF8761C042EF7D3F1BD00003830004083
:101680000030004010A00040002000F010B8002002
:1016900000F01BB810B504460846FFF7B5FF20461A
:1016A000BDE81040C6E70000002200F023B810B5E6
:1016B0000023002814BF1C46C3F10304E4B26254A3
:1016C000120A5B1C042BF4D310BD30B54A788B781A
:1016D000CC78097818B120461D460C4602E0084631
:1016E00015461A4655EA002054EA022141EA004014
:1016F00030BD000000B500BF130096469446103977
:1017000028BFA0E80C50FAD85FEA417C28BF0CC083
:1017100048BF40F8042BC90728BF20F8022B48BF58
:1017200000F8012B00BD00002748018A40F6A7728F
:10173000914202BF418A4FF47F40014204D1022905
:101740008041C043C00F704700207047F8B5044681
:101750000D461C4E01203070FFF7E6FF18B94FF41C
:101760000170FEF737FD1848876A294644F48070F7
:10177000B847002131700FF2540618B9294644F4D5
:101780000070B847805DF2BD2DE9F04104468846FF
:101790005600FFF7C9FF18B94FF40170FEF71AFDA4
:1017A0000948476A0023324641462046B8470FF2AF
:1017B0001C0520B93346002241462046B847405D0B
:1017C000BDE8F081BC0C0020000008080002020205
:1017D0004B4B46474D4332344141313032350000A6
:1017E000EE08000000000001FFFF0000FFFFFFFF08
:1017F000FFFFFFFFFFFFFFFFFFFFFFFFFFFFFFFFF9
:020000040801F1
:020000040802F0
:020000040803EF
:020000040804EE
:020000040805ED
:020000040806EC
:020000040807EB
:020000040808EA
:020000040808EA
:00000001FF
