:020000040800F2
:10000000000400206F00000885000008850000083B
:10001000A70B090100000000020221510040000866
:10002000040C00007D0D00083D12000820060008A9
:10003000810700087B080008CD080008B107000808
:10004000AB070008BD090008B30700085E00000008
:10005000FFFFFFFF09480068202100EA010028B1E6
:100060000748016842685FEA010D10477047FFF7D3
:10007000F1FF00F013F800F045F800002C000040FC
:100080000040000806E000005FEA000D70474448A9
:10009000008870474FF4017000F09CB838B54FF2FB
:1000A0000F04404D00F0C2F828B140F2052028802E
:1000B0006C80012032BD3C480068C00613D56888BA
:1000C000A0421CD1288840F2022188421CBF40F285
:1000D0000621884213D040F2011188421CBF40F231
:1000E000111188420BD0314C208A40F6A72188425A
:1000F00005D12068FFF7C8FF6068804700BF002077
:1001000032BD000038B5044672B629480168490876
:100110004900016000F0D0F8234800680009C107D9
:1001200054BF2449244902E0CD2201F8012B234A7F
:100130009142F9D32249234A234B03E011F8015B92
:1001400002F8015B9A42F9D32049214A002301E0D9
:1001500001F8013B9142FBD340F20521114A53883B
:100160004FF20F05AB420BD113888B4206D0C0076C
:1001700006D5180A012818BF022801D1194601E046
:1001800004B90021064801804CF23C30508000F058
:1001900019FA4FF40170BDE8324000F01BB80000BE
:1001A000B80C0020000000202C0000400040000897
:1001B000FCED00E00000002098000020000400207A
:1001C000EC170008000400200804002008040020A8
:1001D000BD0C00200D4930220A600D490A600D490E
:1001E0000A600D4910220A60010A08BF00020B498B
:1001F00008804FF20F004880BFF35F8F084800214E
:1002000001604160074808490160704730200040A4
:1002100030C8004030C0004010E000400000002026
:100220001C4000400CED00E00400FA05002070477F
:1002300080B500F0F9F90121062000F000FA06204F
:1002400000F02DFA0121072000F0F9F9072000F055
:1002500019FA1748016821F01001016001BD000082
:10026000052800D9704710B5DFE800F01721030F0B
:100270001C17104C2088411E2180C0B9072000F0B7
:100280001BFA42F21070208010BD072000F007FA20
:100290000620BDE8104000F00FBA0620BDE810406F
:1002A00000F0F0B90620BDE8104000F0F8B910BD2C
:1002B00000BC0040BA0C002006E05248016841F042
:1002C00001010160012141605348512101607047E3
:1002D000F8B5504C4C4D4FF6FF774D4EB088B842B4
:1002E00027D102237F224D480188301D00F0FAF902
:1002F000B088B84204BF0220B080A069800703D450
:10030000A06940F00200A06101207070B0882060F8
:100310000720286000206860A8603C484FF000710A
:100320000160A069C00732D5E06980B348F69F40FC
:100330003CE0A0698007E3D52868C00348BF00F00F
:1003400051F8707898BBA06810F00100A168B288DD
:1003500003D10F2A08D2521C06E0890704D5F17890
:1003600011B1032A28BF521EF07092B2022A38BF80
:100370000222B2802068B1888842C5D1A06900F00D
:100380000300032818BFFFF798FF0120F2BDA06902
:10039000C00701D5E06920B1A069C00704D4E069B5
:1003A00010B144F24F6001E042F227306860002053
:1003B000F2BD80B51A48017829B9C07807281CBF5A
:1003C0000928032809D01748016841F480710160A9
:1003D00003E040F2DC5000F0B9F9FFF779FF0028A4
:1003E000F7D001BD0848002141608160016821F01B
:1003F0000201016005484FF00071016004480021CE
:10040000417070471C40004010E000E004ED00E047
:10041000000400200440004000800040E81700086D
:1004200096070808384000400078704700210160B6
:100430008180C18001817047F8B504460D4616469B
:10044000002710E02068803020600020E0808020BD
:100450002081A088401CA080E088411CE180001918
:10046000807A78557F1CBFB2B7420CD2E0882189D0
:100470008842F1D3802204F10A01206800F0FDF9DE
:100480000028DFD0F2BD0020F2BD0020704710B57B
:10049000044600F0D0F82046BDE8104000F0B5BAA0
:1004A0002DE9F043A5B000F097FA00F0C4F800F091
:1004B000EBFA012100A800F0EFFA404C04F18005AE
:1004C00000206860A86000F070F900280FBFE860A5
:1004D0008168E9604088A4F8800000A800F0A0FBD3
:1004E000070046D1BDF80420BDF8060000A9401859
:1004F00000F20A065FFA82F894F8800080070FD5B0
:10050000E96869B1686808EB00024B1E22EA03073C
:1005100010B1A868B84203D2384600F04FFAAF6075
:1005200042463146686800F0D1F907000FD14246D3
:100530002146686800F0A1F9002000E0401C404519
:1005400005DA015D825D9142F8D0832706E0686894
:1005500040446860002FC0D01B2FBED00420FFF79E
:100560007FFE0121384600F0E3FA384625B0BDE8A9
:10057000F083172FF0D10020F8E770B5DAB0044609
:1005800036A8FFF753FF012000904FF402630C4A96
:1005900036A901A800F0F2FB0FF284050FF27406F1
:1005A00000F049F8002C14BF3246002201A9284669
:1005B00000F044FE5028F3D05AB070BD280C002043
:1005C0000804002080B5FFF7F4FEFFF731FE00F0CD
:1005D000D7F818B14FF40170FFF7FCFD00F02BF8CD
:1005E000FFF755FD40F2011188421CBF40F2111186
:1005F000884207D040F2052188421CBF40F2032107
:10060000884201D1012000E0002000F045FE0020DA
:1006100002BD0000551700089117000829040008C2
:10062000390400088B0400080E48012181604EF651
:10063000BE21416000E00C4801210160704710B507
:1006400082080FF2280353F82220136800F00300F9
:1006500080000F248440A34301FA00F01843106087
:1006600010BD0000006000400860004000B0004085
:1006700004B0004000B2004004B2004000B40040AA
:1006800004B40040C108032908D2C1104902124A2B
:10069000012300F0070003FA00F050507047C10832
:1006A000032908D2C11049020C4A012300F00700B7
:1006B00003FA00F050507047C10803290BD2C11053
:1006C000074A02EB41210A68012300F0070003FA00
:1006D00000F050400860704714B0004010B0004077
:1006E0000CB0004030B583B0044610467F2808BFE8
:1006F0000020B1F5004F1AD108237F2240F61201E5
:1007000000A8FFF7EFFF08220FF2380100A800F061
:1007100027FE30B908237F2240F2A27100A8FFF71C
:10072000E1FF082200A9204600F0FAFD37BD1A4675
:10073000034D294300FB0311204600F0F1FD37BDB6
:1007400000000808FFFFFFFFFFFFFFFF0A490A68DC
:100750000A4B1B68DB0758BF4008032809D34B6DC1
:1007600043F001034B650B689B1A1B031B0B834271
:10077000F9D3704700000000382000401C400040C2
:1007800080B50D210120FFF75AFF0D210220FFF750
:1007900056FF87480E2141610121816100210160DE
:1007A000416003218160002002BD0FF214207047D8
:1007B000704700207047F8B50C461546010C4900FB
:1007C00041F0A801C9B27B4E326942F004023261A5
:1007D000B2681207FCD53160326942F00202326120
:1007E000B2689207FCD5B268D207EDD40204120EAB
:1007F0003260326942F002023261B2689207FCD57F
:10080000C0B23060306940F002003061B0688007EB
:10081000FCD5306940F004003061B0680007FCD5B9
:1008200041F001003060306940F002003061B06892
:100830008007FCD500270AE07061306940F00100B4
:100840003061B0684007FCD5306838557F1CAF4236
:100850000ADAFFF7F0FE681E87427069B2BF40F007
:10086000010040084000E7E7306940F008003061CF
:10087000B0680007FCD50020F2BDF8B504460D466F
:1008800016464D4884423EBF37463919814201D34E
:100890008520F2BD20040ED0200C000400F580302D
:1008A000814208D320464742BFB204E0F61B3C1900
:1008B0007D19B6B237463EB13A4629462046FFF783
:1008C0007AFF0028F2D0F2BD0020F2BD2DE9F84FEA
:1008D000044689461646384884423ABF3119814257
:1008E000852012D240F2011A4FF48078200607D0FA
:1008F000200A000200F58070814203D3051B02E04C
:10090000564504D235461EB90020BDE8F28F454653
:10091000200C400040F0A800C0B2264F396941F0D9
:1009200004013961B9680907FCD53860396941F0BB
:1009300002013961B9688907FCD5B968C907EDD4E6
:100940002004000E3860386940F002003861B86851
:100950008007FCD5E0B23860386940F002003861A9
:10096000B8688007FCD54FF0000B0DE0FFF763FE81
:100970001BF809003860386940F002003861B86837
:100980008007FCD50BF1010B1FFA8BFBADB2AB4519
:10099000ECD3386940F008003861B8680007FCD52E
:1009A000761B2C19A944B6B25645B0D2AAE700006E
:1009B0004CC000403CC0004001000400882070474B
:1009C000020100000000000000010000000004001F
:1009D000DC1700080100000080B52848682141614B
:1009E000002181610221816001210160092109202A
:1009F000FFF725FE04210A20BDE80440FFF71FBED3
:100A00001F4800684006FBD570471E49CA68520758
:100A1000FCD50860704710B5044603E014F8010BDC
:100A2000FFF7F3FF20780028F8D110BD10B5044679
:100A300020090A282CBF37303030C0B2FFF7E5FF5D
:100A400004F00F000A282CBF37303030C0B2BDE8A8
:100A50001040DAE70A48006810F0020018BF0120D1
:100A6000704710B50446FFF7F5FF20B10548006850
:100A70002070002010BD012010BD000054C80040AF
:100A800048C800403CC8004080B500A8FFF7E9FF17
:100A90000028FAD001BD000001700122427082706E
:100AA00001290CBF8021402181800021C18001816A
:100AB0001D4801600E218162016821F01001016072
:100AC0000021416341627047F8B504460D46164661
:100AD00016484FF0FF310160134FFE62002078622C
:100AE000386840F001003860FFF7A5FD012C19D1EE
:100AF0006DB9FFF7AFFF78B9786AB042F4D3002E32
:100B0000F2D038684008400038601620F2BD284610
:100B1000FFF7A7FF0028EFD1386840084000386091
:100B20000020F2BD0120F2BD00F0004000A800400E
:100B300038B504460D4600F009F800F007F82A46DB
:100B400021461820BDE83840FFF7A1BC2A462146BF
:100B50001820FFF79CBC30B583B0044600202081EC
:100B60004AF6B43200A92078FFF7AEFF08B11C2086
:100B70003EBD9DF80000032818BF182801D1182099
:100B80003EBD042801D117203EBD012801D02120FF
:100B90003EBD002500E06D1CEDB2A188091D8D420F
:100BA0000BDA40F2DD22281900F10A012078FFF764
:100BB0008BFF0028EFD026203EBD0025002006E058
:100BC0000146EDB22819007B00F0DCFB6D1CA1880A
:100BD000EAB28A42F4D3A27AE37A9B18FF2B01D0BF
:100BE00022203EBD0B191D7BB5EB102F01D0232019
:100BF0003EBD5B7BC0B2834201D024203EBDA078C5
:100C0000824207D0401EC0B2824201D127203EBDA1
:100C100025203EBD881C20810220E08000203EBDB2
:100C200038B504466078012804D023D3032855D072
:100C300018D31FE02078012811D13B254320FFF76E
:100C4000E4FE40F2DD2200212078FFF73DFF30B1C5
:100C50002846451EC0B20028F0D11B2032BD02201C
:100C6000607010E0FFF710FF00F03AF8A078401C29
:100C7000A07008E0182032BD2278A078411EC9B2C9
:100C80000620FFF704FC2046FFF765FF050018BFAC
:100C9000FFF7FAFE272DEFD0A8060BD52278A17812
:100CA0001520FFF7F4FB002DEDD10320FFF7D8FA54
:100CB000002032BD680603D4182D18BF1C2D07D1A3
:100CC00021782846FFF734FF04206070284632BDA3
:100CD000172DE8D100F004F803206070172032BD12
:100CE0002278A1780620FFF7D2BB0000F8B50446B1
:100CF0000D4616461F4607E03046A047294600F03D
:100D000053FB05467F1E761CBFB2002FF4D1284648
:100D1000F2BD38B50C46154605E0014614F8010B46
:100D200000F042FB6D1EADB2002DF6D132BDF8B51C
:100D300007460E4614461D462A46214630683B6843
:100D40009847070005D12A462146F068FFF7E1FFE2
:100D5000F060D6F8A8002818C6F8A80096F8A700F2
:100D600050B1AC362A462146304600F0F1FB2A4607
:100D70002146304600F06CFB3846F2BD10B5029CAF
:100D800084720381426001604FF0FF31C160002135
:100D90000174A0F8A410802180F8A610002180F82A
:100DA000A710C0F8A8102822AC30BDE8104000F011
:100DB000D0BA2DE9F84F04468B461E469BF81B70AF
:100DC000802F28BF8027D0689B49884250D1002EB1
:100DD0004CD0B06800904FF0FF384FF000090BEB9B
:100DE000490A9AF848500FE0FF2D16D0FFF723FC70
:100DF0004FF40063E80240F0006241460098FFF7BC
:100E000075FF8046681CC5B29AF84900A842EBDA23
:100E100009F10109B9F1060FE1DBDBF844006FEAE3
:100E20000801884224D1A06800BA7A08594673683C
:100E30009847C8B9E06805BAA06802BA3B464FF0C7
:100E4000FF31B068FFF752FFC04385420CD140F636
:100E5000A720ABF81000A06800BA01220BF1100126
:100E600010307368984708B1422002E0172000E074
:100E70004320BDE8F28F2DE9F44F82B081460D4644
:100E8000D5F804B02889ADF8000005F1140606F184
:100E9000100704235A4600F0CFF9002825D1BBF8EB
:100EA000000040BA1FFA80F8BBF8020040BA84B2D2
:100EB000E00748BF462076D4B4F5026FC8BF4E2085
:100EC00071DC002C6ED0DFF874A15FEA080009D055
:100ED0004FF60441B8EB010064D0FF3865D0FE380E
:100EE00063D0A7E0287C08B151205CE08D2C28BF9E
:100EF0004F2058D22346321D00F09DF9002852D1D0
:100F0000FA7E802A28BF802202F10C00844201BFB1
:100F1000B08840BA00F47F40B0F5007F3ED1F08841
:100F200040BA4EF25031884202BF388A40F6A721BB
:100F3000884233D1788A00F47F40B0F5807F01BFCA
:100F4000B06800BADAF81C10884227D1BAF8180045
:100F500040F2032188420BD1788AB0F5847F1DD3FB
:100F6000F86D41051AD13649081AB0F5F02F15D899
:100F70004FF6FF70388206F110014FF0FF30FFF797
:100F8000C8FEF16809BAC943884204BF387E042804
:100F900004D1787E0C2818BF062801D0452002E035
:100FA000012028740020BDE8FE8F287C08B941206C
:100FB000F9E7042300F03EF90028F4D1DBF8000043
:100FC00006BA201F84B2DAF81C00864238BF4820D7
:100FD000E9D3A019796D884228BF4920E3D24FF6A2
:100FE000035080450CD1029850B131460220029A3C
:100FF0001268904720B14A20D5E7E01B84B2BE19A1
:10100000002CCFD0BDF800008442B4BF274607466D
:101010003B4600F00FF90028C5D102980028ECD01B
:101020007A0859463046029B5B6898470028E4D00E
:101030004B20B8E74420B6E7E320BBDE0000000801
:1010400000E007082DE9F84304468846154605F1F7
:10105000AC062F89102C38BF4E202CD304233246E7
:1010600000F02BF838BB0C23321D00F026F810BB23
:10107000A4F11001306800BA30608CB221463046CD
:1010800000F0AEF906E04A466968304600F0E0F943
:10109000A4EB0904A4B254B1A146BC4288BFB9462E
:1010A0004B466A6800F009F80028ECD003E03046AF
:1010B00000F0F1F90020BDE8F2832946404636E60B
:1010C0002DE9FE4F81460C469046666804F1140AED
:1010D0000AF1100B04F1A405A878832805D14FF676
:1010E0000710AF888221A9700AE00423324600F07D
:1010F000A3F8002866D1308840BA718849BA8FB207
:10110000F90748BF46205DD4A97880B24FF2097232
:10111000801A58D04FF4FF72801A3AD0FF382FD07F
:10112000FF3802D0FF386BD081E080296AD1062FCA
:1011300023D3062301AA21464846FFF7F8FDE8B964
:10114000BDF8040040BA00F47F40B0F5007F01BF55
:10115000BDF8080040BA4EF2503188420DD1BDF8BA
:10116000060040BA012818BF522007D1BDF806007A
:1011700040BAA4F8A400002000E04520812154E0FA
:1011800081293FD1224649463846FFF75BFF82213D
:101190004BE0822936D1042F2DD30120E8700020A6
:1011A0006860424621464846FFF765FE18BB0021AD
:1011B000E97069688F421ED3B94239D28322AA707E
:1011C000791A696034E082291CD104F1AC084046E8
:1011D00000F061F92089B842B8BF4F2028DB3B46B8
:1011E0003246214600F028F810BBFAB2314640469C
:1011F00000F077F908B954201AE00020842114E0A7
:10120000842901D0512013E0042F18BF4C200FD1A6
:1012100004233246214600F00FF848B943462246DF
:1012200059465046FFF7C5FD8521A97000E04420CE
:10123000BDE8FE8F5A462946484678E570B5054612
:101240000C4616462089C10701D4802801DA4F20B8
:1012500070BD00F0B9F808B9532070BD3246214680
:101260002846FFF72DFF002818BF172803D08F212D
:1012700084F8A61070BD94F8A600852806D12068D1
:1012800069688847172805D1002070BDA07A00281A
:10129000E4D0502070BD000010B504460020FEF7D9
:1012A000DFFF24BB0020FFF768F950B90120FFF7EA
:1012B00064F930B90520FEF7D3FF40F20120FEF7B4
:1012C00089FF0420FEF7CCFF0120FEF7C9FF40F2A2
:1012D0000320BDE81040FEF77DBF0FF23400FFF79A
:1012E0009AFBFFF78DFB40F20220FEF773FFFFF73A
:1012F000D7F80400F1D00FF22000FFF78CFB204656
:10130000FFF794FB01A0FFF786FBF0E70D0A000052
:101310000D0A4F6B0D0A00000D0A455252200000C5
:10132000814212D21018401E5118491E92B2002A52
:101330001EBF11F8013900F80139521EF6D170476D
:1013400011F8013B00F8013B521E92B2002AF7D17E
:101350007047130003D00A46194600F025B97047BC
:1013600010B500E0521E92B232B110F8013B11F8F4
:10137000014BA342F6D001E0002010BD181B40B283
:1013800010BD00000A0242EA11214840C0F30311D7
:10139000484080EA00304101C9B20206D20E41EA5B
:1013A0000221484080B270470A0A4840C0B2082172
:1013B0004308C00746BF034858401846491EF7D1A6
:1013C000504070472083B8ED00206049415CFF2900
:1013D00001D001207047401C1028F6DB0020704728
:1013E00012B583B00446206800BA00903A200399F1
:1013F00001B17A2020740C22211D04F11100FFF7A5
:101400008FFF03220DF1010104F11D00FFF788FF9A
:1014100000F03CF80398D0B1B0F57F4F05D200BA88
:10142000039002220DF10E010EE00FF278100088F9
:10143000ADF80400039800BA0390022201A92046E7
:1014400000F006F8042203A9204600F001F81FBDB1
:10145000F8B504460D461646002714E094F825001A
:101460000019017C7A5D5140017494F82500401CFC
:1014700084F82500C0B2102804D300F007F800203B
:1014800084F825007F1CB742E8D3F1BD2F4904F151
:10149000100000F003B91FB5044600A8102100F0A9
:1014A00007F994F82500C0F11000C11000EB11718C
:1014B0000911A0EB011200A92046FFF7C9FF1FBDCB
:1014C0001FB50C4600AA011D002000F027F80020DF
:1014D000015D00AA825C51400155401C1028F7DBD9
:1014E0001FBD38B504460D46102A07D12068216A71
:1014F00094F8242002EB0111884201D0002032BD73
:1015000029462046FFF7DCFF102204F1100128468F
:10151000FFF726FF401E8041C00F32BD11B581B0DC
:10152000144600BA0190022020700C22601CFFF7C4
:10153000F7FE03220DF1050104F10D00FFF7F0FEA7
:101540000249204600F0AAF813BD0000F808080878
:10155000F0B585B004460D461646002100271DE073
:1015600031B900AA211D206A401CFFF7D7FF0121D5
:1015700004F120007A5D03790DF1000C13F80C30B2
:101580005A407A550279521CD2B2102A04D3002252
:10159000216A491C2162002102717F1CB742DFD3FE
:1015A00005B0F0BDFFFE000062F30F2262F31F42A0
:1015B000401810F0030308D0C91A1FD3DB0748BF37
:1015C00000F8012D28BF20F8022D130030B4144676
:1015D0001546103928BF20E93C00FAD8490728BF32
:1015E00020E90C0048BF40F8042D890028BF20F8EE
:1015F000022D48BF00F8012D30BC7047C91818BF34
:1016000000F8012DCB0728BF00F8012D704700001E
:1016100038B504461B4D214600F03DF8E860211D19
:1016200000F039F8A86004F1080100F034F86860AF
:1016300004F10C0100F02FF8286031BDF8B5044624
:10164000114D80202860114E062030600720286050
:1016500030688007FCD5002704EB870100F01BF8F9
:10166000A8627F1C042FF7D330684007FCD5002602
:101670002A6B04EB860100F00BF8761C042EF7D3DE
:10168000F1BD0000383000400030004010A00040A4
:10169000002000F010B8002000F01BB810B5044680
:1016A0000846FFF7B5FF2046BDE81040C6E700003A
:1016B000002200F023B810B50023002814BF1C46F8
:1016C000C3F10304E4B26254120A5B1C042BF4D38A
:1016D00010BD30B54A788B78CC78097818B120469F
:1016E0001D460C4602E0084615461A4655EA0020FB
:1016F00054EA022141EA004030BD000000B500BFBD
:10170000130096469446103928BFA0E80C50FAD82A
:101710005FEA417C28BF0CC048BF40F8042BC907D2
:1017200028BF20F8022B48BF00F8012B00BD0000A5
:101730002748018A40F6A772914202BF418A4FF4BE
:101740007F40014204D102298041C043C00F70474D
:1017500000207047F8B504460D461C4E012030703D
:10176000FFF7E6FF18B94FF40170FEF733FD184894
:10177000876A294644F48070B847002131700FF21F
:10178000540618B9294644F40070B847805DF2BD8C
:101790002DE9F041044688465600FFF7C9FF18B905
:1017A0004FF40170FEF716FD0948476A00233246E0
:1017B00041462046B8470FF21C0520B933460022A7
:1017C00041462046B847405DBDE8F081BC0C002092
:1017D00000000808000202024B4B464753544D32AA
:1017E000344D303200000000EE080000000000011F
:1017F000FFFF0000FFFFFFFFFFFFFFFFFFFFFFFFF7
:020000040801F1
:020000040802F0
:020000040803EF
:020000040804EE
:020000040805ED
:020000040806EC
:020000040807EB
:020000040808EA
:020000040808EA
:00000001FF
