:020000040800F2
:10000000000400206F00000885000008850000083B
:10001000A70B090100000000020221510040000866
:10002000040B0000570D00083510000820060008DA
:10003000810700087B080008CD080008B107000808
:10004000AB070008BD090008B30700085E00000008
:10005000FFFFFFFF09480068202100EA010028B1E6
:100060000748016842685FEA010D10477047FFF7D3
:10007000F1FF00F013F800F045F800002C000040FC
:100080000040000806E000005FEA000D70474448A9
:10009000008870474FF4017000F09CB838B54FF2FB
:1000A0000F04404D00F0C2F828B140F2052028802E
:1000B0006C80012032BD3C480068C00613D56888BA
:1000C000A0421CD1288840F2022188421CBF40F285
:1000D0000621884213D040F2011188421CBF40F231
:1000E000111188420BD0314C208A40F6A72188425A
:1000F00005D12068FFF7C8FF6068804700BF002077
:1001000032BD000038B5044672B629480168490876
:100110004900016000F0D0F8234800680009C107D9
:1001200054BF2449244902E0CD2201F8012B234A7F
:100130009142F9D32249234A234B03E011F8015B92
:1001400002F8015B9A42F9D32049214A002301E0D9
:1001500001F8013B9142FBD340F20521114A53883B
:100160004FF20F05AB420BD113888B4206D0C0076C
:1001700006D5180A012818BF022801D1194601E046
:1001800004B90021064801804CF23C30508000F058
:1001900019FA4FF40170BDE8324000F01BB80000BE
:1001A000B80C0020000000202C0000400040000897
:1001B000FCED00E00000002098000020000400207A
:1001C0005012000800040020080400200804002049
:1001D000BD0C00200D4930220A600D490A600D490E
:1001E0000A600D4910220A60010A08BF00020B498B
:1001F00008804FF20F004880BFF35F8F084800214E
:1002000001604160074808490160704730200040A4
:1002100030C8004030C0004010E000400000002026
:100220001C4000400CED00E00400FA05002070477F
:1002300080B500F0F9F90121062000F000FA06204F
:1002400000F02DFA0121072000F0F9F9072000F055
:1002500019FA1748016821F01001016001BD000082
:10026000052800D9704710B5DFE800F01721030F0B
:100270001C17104C2088411E2180C0B9072000F0B7
:100280001BFA42F21070208010BD072000F007FA20
:100290000620BDE8104000F00FBA0620BDE810406F
:1002A00000F0F0B90620BDE8104000F0F8B910BD2C
:1002B00000BC0040BA0C002006E05248016841F042
:1002C00001010160012141605348512101607047E3
:1002D000F8B5504C4C4D4FF6FF774D4EB088B842B4
:1002E00027D102237F224D480188301D00F0FAF902
:1002F000B088B84204BF0220B080A069800703D450
:10030000A06940F00200A06101207070B0882060F8
:100310000720286000206860A8603C484FF000710A
:100320000160A069C00732D5E06980B348F69F40FC
:100330003CE0A0698007E3D52868C00348BF00F00F
:1003400051F8707898BBA06810F00100A168B288DD
:1003500003D10F2A08D2521C06E0890704D5F17890
:1003600011B1032A28BF521EF07092B2022A38BF80
:100370000222B2802068B1888842C5D1A06900F00D
:100380000300032818BFFFF798FF0120F2BDA06902
:10039000C00701D5E06920B1A069C00704D4E069B5
:1003A00010B144F24F6001E042F227306860002053
:1003B000F2BD80B51A48017829B9C07807281CBF5A
:1003C0000928032809D01748016841F480710160A9
:1003D00003E040F2DC5000F0B9F9FFF779FF0028A4
:1003E000F7D001BD0848002141608160016821F01B
:1003F0000201016005484FF00071016004480021CE
:10040000417070471C40004010E000E004ED00E047
:100410000004002004400040008000404C1200080E
:1004200096070808384000400078704700210160B6
:100430008180C18001817047F8B504460D4616469B
:10044000002710E02068803020600020E0808020BD
:100450002081A088401CA080E088411CE180001918
:10046000807A78557F1CBFB2B7420CD2E0882189D0
:100470008842F1D3802204F10A01206800F0FDF9DE
:100480000028DFD0F2BD0020F2BD0020704710B57B
:10049000044600F0D0F82046BDE8104000F0B5BAA0
:1004A0002DE9F043A5B000F097FA00F0C4F800F091
:1004B000EBFA012100A800F0EFFA404C04F18005AE
:1004C00000206860A86000F070F900280FBFE860A5
:1004D0008168E9604088A4F8800000A800F0A0FBD3
:1004E000070046D1BDF80420BDF8060000A9401859
:1004F00000F20A065FFA82F894F8800080070FD5B0
:10050000E96869B1686808EB00024B1E22EA03073C
:1005100010B1A868B84203D2384600F04FFAAF6075
:1005200042463146686800F0D1F907000FD14246D3
:100530002146686800F0A1F9002000E0401C404519
:1005400005DA015D825D9142F8D0832706E0686894
:1005500040446860002FC0D01B2FBED00420FFF79E
:100560007FFE0121384600F0E3FA384625B0BDE8A9
:10057000F083172FF0D10020F8E770B5DAB0044609
:1005800036A8FFF753FF012000904FF402630C4A96
:1005900036A901A800F0DFFB0FF284050FF2740604
:1005A00000F049F8002C14BF3246002201A9284669
:1005B00000F040FD5028F3D05AB070BD280C002048
:1005C0000804002080B5FFF7F4FEFFF731FE00F0CD
:1005D000D7F818B14FF40170FFF7FCFD00F02BF8CD
:1005E000FFF755FD40F2011188421CBF40F2111186
:1005F000884207D040F2052188421CBF40F2032107
:10060000884201D1012000E0002000F033FD0020ED
:1006100002BD0000B9110008F51100082904000806
:10062000390400088B0400080E48012181604EF651
:10063000BE21416000E00C4801210160704710B507
:1006400082080FF2280353F82220136800F00300F9
:1006500080000F248440A34301FA00F01843106087
:1006600010BD0000006000400860004000B0004085
:1006700004B0004000B2004004B2004000B40040AA
:1006800004B40040C108032908D2C1104902124A2B
:10069000012300F0070003FA00F050507047C10832
:1006A000032908D2C11049020C4A012300F00700B7
:1006B00003FA00F050507047C10803290BD2C11053
:1006C000074A02EB41210A68012300F0070003FA00
:1006D00000F050400860704714B0004010B0004077
:1006E0000CB0004030B583B0044610467F2808BFE8
:1006F0000020B1F5004F1AD108237F2240F61201E5
:1007000000A8FFF7EFFF08220FF2380100A800F061
:100710000EFD30B908237F2240F2A27100A8FFF736
:10072000E1FF082200A9204600F0E8FC37BD1A4688
:10073000034D294300FB0311204600F0DFFC37BDC9
:1007400000000808FFFFFFFFFFFFFFFF0A490A68DC
:100750000A4B1B68DB0758BF4008032809D34B6DC1
:1007600043F001034B650B689B1A1B031B0B834271
:10077000F9D3704700000000382000401C400040C2
:1007800080B50D210120FFF75AFF0D210220FFF750
:1007900056FF87480E2141610121816100210160DE
:1007A000416003218160002002BD0FF214207047D8
:1007B000704700207047F8B50C461546010C4900FB
:1007C00041F0A801C9B27B4E326942F004023261A5
:1007D000B2681207FCD53160326942F00202326120
:1007E000B2689207FCD5B268D207EDD40204120EAB
:1007F0003260326942F002023261B2689207FCD57F
:10080000C0B23060306940F002003061B0688007EB
:10081000FCD5306940F004003061B0680007FCD5B9
:1008200041F001003060306940F002003061B06892
:100830008007FCD500270AE07061306940F00100B4
:100840003061B0684007FCD5306838557F1CAF4236
:100850000ADAFFF7F0FE681E87427069B2BF40F007
:10086000010040084000E7E7306940F008003061CF
:10087000B0680007FCD50020F2BDF8B504460D466F
:1008800016464D4884423EBF37463919814201D34E
:100890008520F2BD20040ED0200C000400F580302D
:1008A000814208D320464742BFB204E0F61B3C1900
:1008B0007D19B6B237463EB13A4629462046FFF783
:1008C0007AFF0028F2D0F2BD0020F2BD2DE9F84FEA
:1008D000044689461646384884423ABF3119814257
:1008E000852012D240F2011A4FF48078200607D0FA
:1008F000200A000200F58070814203D3051B02E04C
:10090000564504D235461EB90020BDE8F28F454653
:10091000200C400040F0A800C0B2264F396941F0D9
:1009200004013961B9680907FCD53860396941F0BB
:1009300002013961B9688907FCD5B968C907EDD4E6
:100940002004000E3860386940F002003861B86851
:100950008007FCD5E0B23860386940F002003861A9
:10096000B8688007FCD54FF0000B0DE0FFF763FE81
:100970001BF809003860386940F002003861B86837
:100980008007FCD50BF1010B1FFA8BFBADB2AB4519
:10099000ECD3386940F008003861B8680007FCD52E
:1009A000761B2C19A944B6B25645B0D2AAE700006E
:1009B0004CC000403CC0004001000400882070474B
:1009C000020100000000000000010000000004001F
:1009D000401200080100000080B5284868214161EC
:1009E000002181610221816001210160092109202A
:1009F000FFF725FE04210A20BDE80440FFF71FBED3
:100A00001F4800684006FBD570471E49CA68520758
:100A1000FCD50860704710B5044603E014F8010BDC
:100A2000FFF7F3FF20780028F8D110BD10B5044679
:100A300020090A282CBF37303030C0B2FFF7E5FF5D
:100A400004F00F000A282CBF37303030C0B2BDE8A8
:100A50001040DAE70A48006810F0020018BF0120D1
:100A6000704710B50446FFF7F5FF20B10548006850
:100A70002070002010BD012010BD000054C80040AF
:100A800048C800403CC8004080B500A8FFF7E9FF17
:100A90000028FAD001BD000001700122427082706E
:100AA00001290CBF8021402181800021C18001816A
:100AB0001D4801600E218162016821F01001016072
:100AC0000021416341627047F8B504460D46164661
:100AD00016484FF0FF310160134FFE62002078622C
:100AE000386840F001003860FFF7A5FD012C19D1EE
:100AF0006DB9FFF7AFFF78B9786AB042F4D3002E32
:100B0000F2D038684008400038601620F2BD284610
:100B1000FFF7A7FF0028EFD1386840084000386091
:100B20000020F2BD0120F2BD00F0004000A800400E
:100B300038B504460D4600F009F800F007F82A46DB
:100B400021461820BDE83840FFF7A1BC2A462146BF
:100B50001820FFF79CBC30B583B0044600202081EC
:100B60004AF6B43200A92078FFF7AEFF08B11C2086
:100B70003EBD9DF80000032818BF182801D1182099
:100B80003EBD042801D117203EBD012801D02120FF
:100B90003EBD002500E06D1CEDB2A188091D8D420F
:100BA0000BDA40F2DD22281900F10A012078FFF764
:100BB0008BFF0028EFD026203EBD0025002006E058
:100BC0000146EDB22819007B00F0C2FA6D1CA18825
:100BD000EAB28A42F4D3A27AE37A9B18FF2B01D0BF
:100BE00022203EBD0B191D7BB5EB102F01D0232019
:100BF0003EBD5B7BC0B2834201D024203EBDA078C5
:100C0000824207D0401EC0B2824201D127203EBDA1
:100C100025203EBD881C20810220E08000203EBDB2
:100C200038B504466078012804D023D3032855D072
:100C300018D31FE02078012811D13B254320FFF76E
:100C4000E4FE40F2DD2200212078FFF73DFF30B1C5
:100C50002846451EC0B20028F0D11B2032BD02201C
:100C6000607010E0FFF710FF00F03AF8A078401C29
:100C7000A07008E0182032BD2278A078411EC9B2C9
:100C80000620FFF704FC2046FFF765FF050018BFAC
:100C9000FFF7FAFE272DEFD0A8060BD52278A17812
:100CA0001520FFF7F4FB002DEDD10320FFF7D8FA54
:100CB000002032BD680603D4182D18BF1C2D07D1A3
:100CC00021782846FFF734FF04206070284632BDA3
:100CD000172DE8D100F004F803206070172032BD12
:100CE0002278A1780620FFF7D2BB0000F8B50446B1
:100CF0000D4616461F4607E03046A047294600F03D
:100D000039FA05467F1E761CBFB2002FF4D1284663
:100D1000F2BD38B50C46154605E0014614F8010B46
:100D200000F028FA6D1EADB2002DF6D132BDF8B537
:100D300004460D4616461F463A4631462868236843
:100D40009847040005D13A463146E868FFF7E1FFCD
:100D5000E8602046F2BD10B5029C847203814260B7
:100D600001604FF0FF31C1600021017410BD2DE919
:100D7000F84F04468B461E469BF81B70802F28BFF9
:100D80008027D068A649884250D1002E4CD0B06848
:100D900000904FF0FF384FF000090BEB490A9AF82A
:100DA00048500FE0FF2D16D0FFF745FC4FF40063CD
:100DB000E80240F0006241460098FFF797FF804646
:100DC000681CC5B29AF84900A842EBDA09F101099A
:100DD000B9F1060FE1DBDBF844006FEA0801884255
:100DE00024D1A06800BA7A08594673689847C8B9F0
:100DF000E06805BAA06802BA3B464FF0FF31B06820
:100E0000FFF774FFC04385420CD140F6A720ABF832
:100E10001000A06800BA01220BF1100110307368B5
:100E2000984708B1422002E0172000E04320BDE8C7
:100E3000F28F2DE9F84F80460D469146D5F804A073
:100E40002889ADF8000005F1140606F11007042307
:100E500052464046FFF76BFF002824D1BAF8000045
:100E600040BA1FFA80FBBAF8020040BA84B2E00729
:100E700048BF462075D4B4F5026FC8BF4E2070DC61
:100E8000002C6DD05FEA0B000AD04FF60441BBEB9B
:100E9000010000F0AD80FF3865D0FE3863D0BDE0C2
:100EA000287C08B151205CE08D2C28BF4F2058D2FF
:100EB0002346321D00F0BBF8002852D1FA7E802A6A
:100EC00028BF802202F10C00844201BFB08840BAE2
:100ED00000F47F40B0F5007F3ED1F08840BA4EF27A
:100EE0005031884202BF388A40F6A721884202BFAB
:100EF000788A00F47F40B0F5807F2DD1B06800BAC9
:100F00004849C969884227D14648008B40F20321ED
:100F100088420BD1788AB0F5847F1DD3F86D4105E6
:100F20001AD14149081AB0F5603F15D84FF6FF7045
:100F3000388206F110014FF0FF30FFF7EAFEF1684A
:100F400009BAC943884204BF387E042804D1787E98
:100F50000B2818BF062801D0452002E00120287484
:100F60000020BDE8F28F287C002843D0042300F045
:100F70005DF80028F5D1DAF8000006BA201F84B227
:100F80002848C069864238BF4820EAD3A019796D45
:100F9000884228BF4920E4D24FF6035083450DD143
:100FA000B9F1000F0AD031460220D9F8002090474D
:100FB00020B14A20D5E7E01B84B2BE19002CCFD067
:100FC000BDF800008442B4BF274607463B4600F008
:100FD0002DF80028C5D1B9F1000FECD07A085146A0
:100FE0003046D9F8043098470028E4D04B20B8E7C1
:100FF000287C08B94120B4E7042C18BF4C20B0D19C
:1010000004236A6800F013F80028AAD14B462A4648
:101010003946304601B0BDE8F04FA8E64420A0E7CD
:10102000E320BBDE0000000800E00308524629462A
:1010300040467CE670B504460D4616462889C10731
:1010400001D4802803DA4F2070BDA87A78B93246DF
:1010500029462046FFF7EDFE0028F6D0172807D1D5
:10106000286861688847172802D1002070BD502089
:1010700070BD000010B504460020FFF7F1F824BB56
:101080000020FFF77AFA50B90120FFF776FA30B95D
:101090000520FFF7E5F840F20120FFF79BF8042058
:1010A000FFF7DEF80120FFF7DBF840F20320BDE890
:1010B0001040FFF78FB80FF23400FFF7ACFCFFF7DA
:1010C0009FFC40F20220FFF785F8FFF7E9F90400E2
:1010D000F1D00FF22000FFF79EFC2046FFF7A6FCA0
:1010E00001A0FFF798FCF0E70D0A00000D0A4F6B16
:1010F0000D0A00000D0A455252200000814212D212
:101100001018401E5118491E92B2002A1EBF11F835
:10111000013900F80139521EF6D1704711F8013B30
:1011200000F8013B521E92B2002AF7D1704710B569
:1011300000E0521E92B232B110F8013B11F8014B9F
:10114000A342F6D001E0002010BD181B40B210BD34
:101150000A0242EA11214840C0F30311484080EAE4
:1011600000304101C9B20206D20E41EA02214840D4
:1011700080B270470A0A4840C0B208214308C0073D
:1011800046BF034858401846491EF7D150407047A3
:101190002083B8ED2748018A40F6A772914202BF2A
:1011A000418A4FF47F40014204D102298041C0436B
:1011B000C00F704700207047F8B504460D461C4E1E
:1011C00001203070FFF7E6FF18B94FF40170FFF708
:1011D00001F81848876A294644F48070B84700210E
:1011E00031700FF2540618B9294644F40070B8471C
:1011F000805DF2BD2DE9F041044688465600FFF7B8
:10120000C9FF18B94FF40170FEF7E4FF0948476AB7
:101210000023324641462046B8470FF21C0520B94C
:101220003346002241462046B847405DBDE8F08184
:10123000BC0C002000000808000202024B4B46478D
:1012400053544D32344D303200000000EE0800009F
:1012500000000001FFFF0000FFFFFFFFFFFFFFFF97
:10126000FFFFFFFFFFFFFFFFFFFFFFFFFFFFFFFF8E
:10127000FFFFFFFFFFFFFFFFFFFFFFFFFFFFFFFF7E
:10128000FFFFFFFFFFFFFFFFFFFFFFFFFFFFFFFF6E
:10129000FFFFFFFFFFFFFFFFFFFFFFFFFFFFFFFF5E
:1012A000FFFFFFFFFFFFFFFFFFFFFFFFFFFFFFFF4E
:1012B000FFFFFFFFFFFFFFFFFFFFFFFFFFFFFFFF3E
:1012C000FFFFFFFFFFFFFFFFFFFFFFFFFFFFFFFF2E
:1012D000FFFFFFFFFFFFFFFFFFFFFFFFFFFFFFFF1E
:1012E000FFFFFFFFFFFFFFFFFFFFFFFFFFFFFFFF0E
:1012F000FFFFFFFFFFFFFFFFFFFFFFFFFFFFFFFFFE
:10130000FFFFFFFFFFFFFFFFFFFFFFFFFFFFFFFFED
:10131000FFFFFFFFFFFFFFFFFFFFFFFFFFFFFFFFDD
:10132000FFFFFFFFFFFFFFFFFFFFFFFFFFFFFFFFCD
:10133000FFFFFFFFFFFFFFFFFFFFFFFFFFFFFFFFBD
:10134000FFFFFFFFFFFFFFFFFFFFFFFFFFFFFFFFAD
:10135000FFFFFFFFFFFFFFFFFFFFFFFFFFFFFFFF9D
:10136000FFFFFFFFFFFFFFFFFFFFFFFFFFFFFFFF8D
:10137000FFFFFFFFFFFFFFFFFFFFFFFFFFFFFFFF7D
:10138000FFFFFFFFFFFFFFFFFFFFFFFFFFFFFFFF6D
:10139000FFFFFFFFFFFFFFFFFFFFFFFFFFFFFFFF5D
:1013A000FFFFFFFFFFFFFFFFFFFFFFFFFFFFFFFF4D
:1013B000FFFFFFFFFFFFFFFFFFFFFFFFFFFFFFFF3D
:1013C000FFFFFFFFFFFFFFFFFFFFFFFFFFFFFFFF2D
:1013D000FFFFFFFFFFFFFFFFFFFFFFFFFFFFFFFF1D
:1013E000FFFFFFFFFFFFFFFFFFFFFFFFFFFFFFFF0D
:1013F000FFFFFFFFFFFFFFFFFFFFFFFFFFFFFFFFFD
:10140000FFFFFFFFFFFFFFFFFFFFFFFFFFFFFFFFEC
:10141000FFFFFFFFFFFFFFFFFFFFFFFFFFFFFFFFDC
:10142000FFFFFFFFFFFFFFFFFFFFFFFFFFFFFFFFCC
:10143000FFFFFFFFFFFFFFFFFFFFFFFFFFFFFFFFBC
:10144000FFFFFFFFFFFFFFFFFFFFFFFFFFFFFFFFAC
:10145000FFFFFFFFFFFFFFFFFFFFFFFFFFFFFFFF9C
:10146000FFFFFFFFFFFFFFFFFFFFFFFFFFFFFFFF8C
:10147000FFFFFFFFFFFFFFFFFFFFFFFFFFFFFFFF7C
:10148000FFFFFFFFFFFFFFFFFFFFFFFFFFFFFFFF6C
:10149000FFFFFFFFFFFFFFFFFFFFFFFFFFFFFFFF5C
:1014A000FFFFFFFFFFFFFFFFFFFFFFFFFFFFFFFF4C
:1014B000FFFFFFFFFFFFFFFFFFFFFFFFFFFFFFFF3C
:1014C000FFFFFFFFFFFFFFFFFFFFFFFFFFFFFFFF2C
:1014D000FFFFFFFFFFFFFFFFFFFFFFFFFFFFFFFF1C
:1014E000FFFFFFFFFFFFFFFFFFFFFFFFFFFFFFFF0C
:1014F000FFFFFFFFFFFFFFFFFFFFFFFFFFFFFFFFFC
:10150000FFFFFFFFFFFFFFFFFFFFFFFFFFFFFFFFEB
:10151000FFFFFFFFFFFFFFFFFFFFFFFFFFFFFFFFDB
:10152000FFFFFFFFFFFFFFFFFFFFFFFFFFFFFFFFCB
:10153000FFFFFFFFFFFFFFFFFFFFFFFFFFFFFFFFBB
:10154000FFFFFFFFFFFFFFFFFFFFFFFFFFFFFFFFAB
:10155000FFFFFFFFFFFFFFFFFFFFFFFFFFFFFFFF9B
:10156000FFFFFFFFFFFFFFFFFFFFFFFFFFFFFFFF8B
:10157000FFFFFFFFFFFFFFFFFFFFFFFFFFFFFFFF7B
:10158000FFFFFFFFFFFFFFFFFFFFFFFFFFFFFFFF6B
:10159000FFFFFFFFFFFFFFFFFFFFFFFFFFFFFFFF5B
:1015A000FFFFFFFFFFFFFFFFFFFFFFFFFFFFFFFF4B
:1015B000FFFFFFFFFFFFFFFFFFFFFFFFFFFFFFFF3B
:1015C000FFFFFFFFFFFFFFFFFFFFFFFFFFFFFFFF2B
:1015D000FFFFFFFFFFFFFFFFFFFFFFFFFFFFFFFF1B
:1015E000FFFFFFFFFFFFFFFFFFFFFFFFFFFFFFFF0B
:1015F000FFFFFFFFFFFFFFFFFFFFFFFFFFFFFFFFFB
:10160000FFFFFFFFFFFFFFFFFFFFFFFFFFFFFFFFEA
:10161000FFFFFFFFFFFFFFFFFFFFFFFFFFFFFFFFDA
:10162000FFFFFFFFFFFFFFFFFFFFFFFFFFFFFFFFCA
:10163000FFFFFFFFFFFFFFFFFFFFFFFFFFFFFFFFBA
:10164000FFFFFFFFFFFFFFFFFFFFFFFFFFFFFFFFAA
:10165000FFFFFFFFFFFFFFFFFFFFFFFFFFFFFFFF9A
:10166000FFFFFFFFFFFFFFFFFFFFFFFFFFFFFFFF8A
:10167000FFFFFFFFFFFFFFFFFFFFFFFFFFFFFFFF7A
:10168000FFFFFFFFFFFFFFFFFFFFFFFFFFFFFFFF6A
:10169000FFFFFFFFFFFFFFFFFFFFFFFFFFFFFFFF5A
:1016A000FFFFFFFFFFFFFFFFFFFFFFFFFFFFFFFF4A
:1016B000FFFFFFFFFFFFFFFFFFFFFFFFFFFFFFFF3A
:1016C000FFFFFFFFFFFFFFFFFFFFFFFFFFFFFFFF2A
:1016D000FFFFFFFFFFFFFFFFFFFFFFFFFFFFFFFF1A
:1016E000FFFFFFFFFFFFFFFFFFFFFFFFFFFFFFFF0A
:1016F000FFFFFFFFFFFFFFFFFFFFFFFFFFFFFFFFFA
:10170000FFFFFFFFFFFFFFFFFFFFFFFFFFFFFFFFE9
:10171000FFFFFFFFFFFFFFFFFFFFFFFFFFFFFFFFD9
:10172000FFFFFFFFFFFFFFFFFFFFFFFFFFFFFFFFC9
:10173000FFFFFFFFFFFFFFFFFFFFFFFFFFFFFFFFB9
:10174000FFFFFFFFFFFFFFFFFFFFFFFFFFFFFFFFA9
:10175000FFFFFFFFFFFFFFFFFFFFFFFFFFFFFFFF99
:10176000FFFFFFFFFFFFFFFFFFFFFFFFFFFFFFFF89
:10177000FFFFFFFFFFFFFFFFFFFFFFFFFFFFFFFF79
:10178000FFFFFFFFFFFFFFFFFFFFFFFFFFFFFFFF69
:10179000FFFFFFFFFFFFFFFFFFFFFFFFFFFFFFFF59
:1017A000FFFFFFFFFFFFFFFFFFFFFFFFFFFFFFFF49
:1017B000FFFFFFFFFFFFFFFFFFFFFFFFFFFFFFFF39
:1017C000FFFFFFFFFFFFFFFFFFFFFFFFFFFFFFFF29
:1017D000FFFFFFFFFFFFFFFFFFFFFFFFFFFFFFFF19
:1017E000FFFFFFFFFFFFFFFFFFFFFFFFFFFFFFFF09
:1017F000FFFFFFFFFFFFFFFFFFFFFFFFFFFFFFFFF9
:020000040801F1
:020000040802F0
:020000040803EF
:020000040808EA
:020000040808EA
:00000001FF
