:020000040800F2
:10000000000400206F00000885000008850000083B
:10001000A70B090100000000010221510040000867
:10002000040B0000030D0008E10F00082006000883
:10003000A707000827080008870800081B08000811
:10004000F107000869090008F70700085E000000D2
:10005000FFFFFFFF09480068202100EA010028B1E6
:100060000748016842685FEA010D10477047FFF7D3
:10007000F1FF00F013F800F045F800002C000040FC
:100080000040000806E000005FEA000D70474448A9
:10009000008870474FF4017000F09CB838B54FF2FB
:1000A0000F04404D00F0C2F828B140F2052028802E
:1000B0006C80012032BD3C480068C00613D56888BA
:1000C000A0421CD1288840F2022188421CBF40F285
:1000D0000621884213D040F2011188421CBF40F231
:1000E000111188420BD0314C208A40F6A72188425A
:1000F00005D12068FFF7C8FF6068804700BF002077
:1001000032BD000038B5044672B629480168490876
:100110004900016000F0D0F8234800680009C107D9
:1001200054BF2449244902E0CD2201F8012B234A7F
:100130009142F9D32249234A234B03E011F8015B92
:1001400002F8015B9A42F9D32049214A002301E0D9
:1001500001F8013B9142FBD340F20521114A53883B
:100160004FF20F05AB420BD113888B4206D0C0076C
:1001700006D5180A012818BF022801D1194601E046
:1001800004B90021064801804CF23C30508000F058
:1001900019FA4FF40170BDE8324000F01BB80000BE
:1001A000B80C0020000000202C0000400040000897
:1001B000FCED00E00000002098000020000400207A
:1001C000F8110008000400200804002008040020A2
:1001D000BD0C00200D4930220A600D490A600D490E
:1001E0000A600D4910220A60010A08BF00020B498B
:1001F00008804FF20F004880BFF35F8F084800214E
:1002000001604160074808490160704730200040A4
:1002100030C8004030C0004010E000400000002026
:100220001C4000400CED00E00400FA05002070477F
:1002300080B500F0F9F90121062000F000FA06204F
:1002400000F02DFA0121072000F0F9F9072000F055
:1002500019FA1748016821F01001016001BD000082
:10026000052800D9704710B5DFE800F01721030F0B
:100270001C17104C2088411E2180C0B9072000F0B7
:100280001BFA42F21070208010BD072000F007FA20
:100290000620BDE8104000F00FBA0620BDE810406F
:1002A00000F0F0B90620BDE8104000F0F8B910BD2C
:1002B00000BC0040BA0C002006E05248016841F042
:1002C00001010160012141605348512101607047E3
:1002D000F8B5504C4C4D4FF6FF774D4EB088B842B4
:1002E00027D102237F224D480188301D00F0FAF902
:1002F000B088B84204BF0220B080A069800703D450
:10030000A06940F00200A06101207070B0882060F8
:100310000720286000206860A8603C484FF000710A
:100320000160A069C00732D5E06980B348F69F40FC
:100330003CE0A0698007E3D52868C00348BF00F00F
:1003400051F8707898BBA06810F00100A168B288DD
:1003500003D10F2A08D2521C06E0890704D5F17890
:1003600011B1032A28BF521EF07092B2022A38BF80
:100370000222B2802068B1888842C5D1A06900F00D
:100380000300032818BFFFF798FF0120F2BDA06902
:10039000C00701D5E06920B1A069C00704D4E069B5
:1003A00010B144F24F6001E042F227306860002053
:1003B000F2BD80B51A48017829B9C07807281CBF5A
:1003C0000928032809D01748016841F480710160A9
:1003D00003E040F2DC5000F0B9F9FFF779FF0028A4
:1003E000F7D001BD0848002141608160016821F01B
:1003F0000201016005484FF00071016004480021CE
:10040000417070471C40004010E000E004ED00E047
:10041000000400200440004000800040F411000867
:1004200096070808384000400078704700210160B6
:100430008180C18001817047F8B504460D4616469B
:10044000002710E02068803020600020E0808020BD
:100450002081A088401CA080E088411CE180001918
:10046000807A78557F1CBFB2B7420CD2E0882189D0
:100470008842F1D3802204F10A01206800F0D3F908
:100480000028DFD0F2BD0020F2BD0020704710B57B
:10049000044600F0D0F82046BDE8104000F08BBACA
:1004A0002DE9F043A5B000F06DFA00F0C4F800F0BB
:1004B000C1FA012100A800F0C5FA404C04F1800502
:1004C00000206860A86000F093F900280FBFE86082
:1004D0008168E9604088A4F8800000A800F076FBFD
:1004E000070046D1BDF80420BDF8060000A9401859
:1004F00000F20A065FFA82F894F8800080070FD5B0
:10050000E96869B1686808EB00024B1E22EA03073C
:1005100010B1A868B84203D2384600F025FAAF609F
:1005200042463146686800F0AEF907000FD14246F6
:100530002146686800F077F9002000E0401C404543
:1005400005DA015D825D9142F8D0832706E0686894
:1005500040446860002FC0D01B2FBED00420FFF79E
:100560007FFE0121384600F0B9FA384625B0BDE8D3
:10057000F083172FF0D10020F8E770B5DAB0044609
:1005800036A8FFF753FF012000904FF402630C4A96
:1005900036A901A800F0B5FB0FF284050FF274062E
:1005A00000F049F8002C14BF3246002201A9284669
:1005B00000F016FD5028F3D05AB070BD280C002072
:1005C0000804002080B5FFF7F4FEFFF731FE00F0CD
:1005D000EAF818B14FF40170FFF7FCFD00F02BF8BA
:1005E000FFF755FD40F2011188421CBF40F2111186
:1005F000884207D040F2052188421CBF40F2032107
:10060000884201D1012000E0002000F009FD002017
:1006100002BD000065110008A111000829040008AE
:10062000390400088B0400080E48012181604EF651
:10063000BE21416000E00C4801210160704710B507
:1006400082080FF2280353F82220136800F00300F9
:1006500080000F248440A34301FA00F01843106087
:1006600010BD0000006000400860004000B0004085
:1006700004B0004000B2004004B2004000B40040AA
:1006800004B40040C108032908D2C1104902124A2B
:10069000012300F0070003FA00F050507047C10832
:1006A000032908D2C11049020C4A012300F00700B7
:1006B00003FA00F050507047C10803290BD2C11053
:1006C000074A02EB41210A68012300F0070003FA00
:1006D00000F050400860704714B0004010B0004077
:1006E0000CB0004030B583B0044610467F2808BFE8
:1006F0000020B1F5004F1AD108237F2240F61201E5
:1007000000A8FFF7EFFF08220FF2380100A800F061
:10071000E4FC30B908237F2240F2A27100A8FFF761
:10072000E1FF082200A9204600F0BEFC37BD1A46B2
:10073000034D294300FB0311204600F0B5FC37BDF3
:1007400000000808FFFFFFFFFFFFFFFF0A490A68DC
:100750000A4B1B68DB0758BF4008032809D34B6DC1
:1007600043F001034B650B689B1A1B031B0B834271
:10077000F9D3704700000000382000401C400040C2
:100780007449086048680007FCD5086870477149DB
:10079000FF2008604A681207FCD54A68920748BFE4
:1007A0000868C0B2704710B56B4C41F64910206024
:1007B0006A480021C160016141601021416002214D
:1007C000016042F21070FFF7C1FF606940F008005D
:1007D00060619F20FFF7D4FFFFF7D9FF216941F047
:1007E00008012161202801D1002010BD862010BD04
:1007F0000FF2781070470020704710B5584C6068B1
:1008000040F0080060600520FFF7BAFFFFF7BFFF68
:10081000216841F00801216010BD80B5FFF7EDFFB0
:10082000C007FBD401BDF8B506460C4615464D4839
:1008300086423CBFA919814201D38520F2BDFFF752
:10084000DCFFC007FBD400F07EF80320FFF798FF21
:10085000300200F076F8300400F073F8F0B2FFF7E1
:100860008FFF05E0FFF7E7FEFFF791FF04F8010BAC
:100870002846451E80B20028F4D1386840F00800B0
:1008800038600020F2BD2DE9F84F04468846164630
:10089000344884423ABF31198142852012D24FF444
:1008A000807A200607D0200A000200F5807081427D
:1008B00005D3051B04E040F20110864204D2354600
:1008C0001EB90020BDE8F28F5546AB46C146FFF782
:1008D00094FFC007FBD400F036F80620FFF750FF66
:1008E000386840F008003860786840F008007860A8
:1008F0000A20FFF745FF200200F023F8200400F053
:1009000020F8E0B203E0FFF796FE19F8010BFFF7BD
:1009100037FF5846A0F1010B80B20028F3D13868A8
:1009200040F008003860FFF768FFC007FBD4761B73
:10093000A8B20444804440F20110B6B28642C3D249
:10094000BDE7000E1CE7064F786840F008007860AD
:10095000704700003CC0004000B0004054C0004060
:1009600010B0004001000400882070470201000020
:10097000000000000001000000000400EC1100086D
:100980000100000080B52848682141610021816193
:10099000022181600121016009210920FFF74FFE3A
:1009A00004210A20BDE80440FFF749BE1F48006843
:1009B0004006FBD570471E49CA685207FCD508603F
:1009C000704710B5044603E014F8010BFFF7F3FF7E
:1009D00020780028F8D110BD10B5044620090A2857
:1009E0002CBF37303030C0B2FFF7E5FF04F00F0006
:1009F0000A282CBF37303030C0B2BDE81040DAE7EB
:100A00000A48006810F0020018BF0120704710B5B6
:100A10000446FFF7F5FF20B105480068207000206C
:100A200010BD012010BD000054C8004048C800405F
:100A30003CC8004080B500A8FFF7E9FF0028FAD0C5
:100A400001BD0000017001224270827001290CBFBB
:100A50008021402181800021C18001811D480160E9
:100A60000E218162016821F01001016000214163C3
:100A700041627047F8B504460D46164616484FF0D9
:100A8000FF310160134FFE6200207862386840F049
:100A900001003860FFF7CFFD012C19D16DB9FFF7C8
:100AA000AFFF78B9786AB042F4D3002EF2D038683C
:100AB0004008400038601620F2BD2846FFF7A7FF27
:100AC0000028EFD138684008400038600020F2BDAF
:100AD0000120F2BD00F0004000A8004038B50446F7
:100AE0000D4600F009F800F007F82A4621461820C4
:100AF000BDE83840FFF7CBBC2A4621461820FFF757
:100B0000C6BC30B583B00446002020814AF6B4321A
:100B100000A92078FFF7AEFF08B11C203EBD9DF86C
:100B20000000032818BF182801D118203EBD042852
:100B300001D117203EBD012801D021203EBD002556
:100B400000E06D1CEDB2A188091D8D420BDA40F268
:100B5000DD22281900F10A012078FFF78BFF002819
:100B6000EFD026203EBD0025002006E00146EDB274
:100B70002819007B00F0C2FA6D1CA188EAB28A42F3
:100B8000F4D3A27AE37A9B18FF2B01D022203EBD3A
:100B90000B191D7BB5EB102F01D023203EBD5B7BD5
:100BA000C0B2834201D024203EBDA078824207D04B
:100BB000401EC0B2824201D127203EBD25203EBD4D
:100BC000881C20810220E08000203EBD38B504460C
:100BD0006078012804D023D3032855D018D31FE010
:100BE0002078012811D13B254320FFF7E4FE40F295
:100BF000DD2200212078FFF73DFF30B12846451E59
:100C0000C0B20028F0D11B2032BD0220607010E07D
:100C1000FFF710FF00F03AF8A078401CA07008E041
:100C2000182032BD2278A078411EC9B20620FFF7F5
:100C30002EFC2046FFF765FF050018BFFFF7FAFE00
:100C4000272DEFD0A8060BD52278A1781520FFF725
:100C50001EFC002DEDD10320FFF702FB002032BD6A
:100C6000680603D4182D18BF1C2D07D121782846FB
:100C7000FFF734FF04206070284632BD172DE8D1FD
:100C800000F004F803206070172032BD2278A178AC
:100C90000620FFF7FCBB0000F8B504460D461646DB
:100CA0001F4607E03046A047294600F039FA0546BE
:100CB0007F1E761CBFB2002FF4D12846F2BD38B596
:100CC0000C46154605E0014614F8010B00F028FA21
:100CD0006D1EADB2002DF6D132BDF8B504460D46FD
:100CE00016461F463A46314628682368984704004E
:100CF00005D13A463146E868FFF7E1FFE860204653
:100D0000F2BD10B5029C84720381426001604FF015
:100D1000FF31C1600021017410BD2DE9F84F044678
:100D20008B461E469BF81B70802F28BF8027D068FB
:100D3000A649884250D1002E4CD0B06800904FF0A8
:100D4000FF384FF000090BEB490A9AF848500FE0C2
:100D5000FF2D16D0FFF76FFC4FF40063E80240F060
:100D6000006241460098FFF797FF8046681CC5B2B5
:100D70009AF84900A842EBDA09F10109B9F1060F26
:100D8000E1DBDBF844006FEA0801884224D1A06867
:100D900000BA7A08594673689847C8B9E06805BA36
:100DA000A06802BA3B464FF0FF31B068FFF774FF0E
:100DB000C04385420CD140F6A720ABF81000A068D4
:100DC00000BA01220BF1100110307368984708B186
:100DD000422002E0172000E04320BDE8F28F2DE919
:100DE000F84F80460D469146D5F804A02889ADF805
:100DF000000005F1140606F1100704235246404690
:100E0000FFF76BFF002824D1BAF8000040BA1FFAA0
:100E100080FBBAF8020040BA84B2E00748BF46201F
:100E200075D4B4F5026FC8BF4E2070DC002C6DD0B5
:100E30005FEA0B000AD04FF60441BBEB010000F063
:100E4000AD80FF3865D0FE3863D0BDE0287C08B1A6
:100E500051205CE08D2C28BF4F2058D22346321DF4
:100E600000F0BBF8002852D1FA7E802A28BF8022E9
:100E700002F10C00844201BFB08840BA00F47F4008
:100E8000B0F5007F3ED1F08840BA4EF25031884232
:100E900002BF388A40F6A721884202BF788A00F450
:100EA0007F40B0F5807F2DD1B06800BA4849C9694C
:100EB000884227D14648008B40F2032188420BD15B
:100EC000788AB0F5847F1DD3F86D41051AD1414968
:100ED000081AB0F5603F15D84FF6FF70388206F15A
:100EE00010014FF0FF30FFF7EAFEF16809BAC9437D
:100EF000884204BF387E042804D1787E0B2818BFAE
:100F0000062801D0452002E0012028740020BDE819
:100F1000F28F287C002843D0042300F05DF80028DD
:100F2000F5D1DAF8000006BA201F84B22848C0695B
:100F3000864238BF4820EAD3A019796D884228BF7D
:100F40004920E4D24FF6035083450DD1B9F1000F8B
:100F50000AD031460220D9F80020904720B14A201B
:100F6000D5E7E01B84B2BE19002CCFD0BDF800003D
:100F70008442B4BF274607463B4600F02DF80028C0
:100F8000C5D1B9F1000FECD07A0851463046D9F8F6
:100F9000043098470028E4D04B20B8E7287C08B9F3
:100FA0004120B4E7042C18BF4C20B0D104236A6858
:100FB00000F013F80028AAD14B462A46394630469D
:100FC00001B0BDE8F04FA8E64420A0E7E320BBDE77
:100FD0000000000800E003085246294640467CE62F
:100FE00070B504460D4616462889C10701D48028ED
:100FF00003DA4F2070BDA87A78B9324629462046D8
:10100000FFF7EDFE0028F6D0172807D128686168A1
:101010008847172802D1002070BD502070BD000005
:1010200010B504460020FFF71BF924BB0020FFF792
:10103000A4FA50B90120FFF7A0FA30B90520FFF754
:101040000FF940F20120FFF7C5F80420FFF708F977
:101050000120FFF705F940F20320BDE81040FFF73B
:10106000B9B80FF23400FFF7ACFCFFF79FFC40F279
:101070000220FFF7AFF8FFF713FA0400F1D00FF2E8
:101080002000FFF79EFC2046FFF7A6FC01A0FFF71B
:1010900098FCF0E70D0A00000D0A4F6B0D0A0000E6
:1010A0000D0A455252200000814212D21018401EF3
:1010B0005118491E92B2002A1EBF11F8013900F8DA
:1010C0000139521EF6D1704711F8013B00F8013B7F
:1010D000521E92B2002AF7D1704710B500E0521E9E
:1010E00092B232B110F8013B11F8014BA342F6D095
:1010F00001E0002010BD181B40B210BD0A0242EAF8
:1011000011214840C0F30311484080EA00304101FA
:10111000C9B20206D20E41EA0221484080B27047AD
:101120000A0A4840C0B208214308C00746BF034826
:1011300058401846491EF7D1504070472083B8EDFB
:101140002748018A40F6A772914202BF418A4FF4B4
:101150007F40014204D102298041C043C00F704743
:1011600000207047F8B504460D461C4E0120307033
:10117000FFF7E6FF18B94FF40170FFF72BF8184896
:10118000876A294644F48070B847002131700FF215
:10119000540618B9294644F40070B847805DF2BD82
:1011A0002DE9F041044688465600FFF7C9FF18B9FB
:1011B0004FF40170FFF70EF80948476A00233246E2
:1011C00041462046B8470FF21C0520B9334600229D
:1011D00041462046B847405DBDE8F081BC0C002088
:1011E00000000808000202024B4B46474D343550C0
:1011F00045323000EE08000000000001FFFF000053
:10120000FFFFFFFFFFFFFFFFFFFFFFFFFFFFFFFFEE
:10121000FFFFFFFFFFFFFFFFFFFFFFFFFFFFFFFFDE
:10122000FFFFFFFFFFFFFFFFFFFFFFFFFFFFFFFFCE
:10123000FFFFFFFFFFFFFFFFFFFFFFFFFFFFFFFFBE
:10124000FFFFFFFFFFFFFFFFFFFFFFFFFFFFFFFFAE
:10125000FFFFFFFFFFFFFFFFFFFFFFFFFFFFFFFF9E
:10126000FFFFFFFFFFFFFFFFFFFFFFFFFFFFFFFF8E
:10127000FFFFFFFFFFFFFFFFFFFFFFFFFFFFFFFF7E
:10128000FFFFFFFFFFFFFFFFFFFFFFFFFFFFFFFF6E
:10129000FFFFFFFFFFFFFFFFFFFFFFFFFFFFFFFF5E
:1012A000FFFFFFFFFFFFFFFFFFFFFFFFFFFFFFFF4E
:1012B000FFFFFFFFFFFFFFFFFFFFFFFFFFFFFFFF3E
:1012C000FFFFFFFFFFFFFFFFFFFFFFFFFFFFFFFF2E
:1012D000FFFFFFFFFFFFFFFFFFFFFFFFFFFFFFFF1E
:1012E000FFFFFFFFFFFFFFFFFFFFFFFFFFFFFFFF0E
:1012F000FFFFFFFFFFFFFFFFFFFFFFFFFFFFFFFFFE
:10130000FFFFFFFFFFFFFFFFFFFFFFFFFFFFFFFFED
:10131000FFFFFFFFFFFFFFFFFFFFFFFFFFFFFFFFDD
:10132000FFFFFFFFFFFFFFFFFFFFFFFFFFFFFFFFCD
:10133000FFFFFFFFFFFFFFFFFFFFFFFFFFFFFFFFBD
:10134000FFFFFFFFFFFFFFFFFFFFFFFFFFFFFFFFAD
:10135000FFFFFFFFFFFFFFFFFFFFFFFFFFFFFFFF9D
:10136000FFFFFFFFFFFFFFFFFFFFFFFFFFFFFFFF8D
:10137000FFFFFFFFFFFFFFFFFFFFFFFFFFFFFFFF7D
:10138000FFFFFFFFFFFFFFFFFFFFFFFFFFFFFFFF6D
:10139000FFFFFFFFFFFFFFFFFFFFFFFFFFFFFFFF5D
:1013A000FFFFFFFFFFFFFFFFFFFFFFFFFFFFFFFF4D
:1013B000FFFFFFFFFFFFFFFFFFFFFFFFFFFFFFFF3D
:1013C000FFFFFFFFFFFFFFFFFFFFFFFFFFFFFFFF2D
:1013D000FFFFFFFFFFFFFFFFFFFFFFFFFFFFFFFF1D
:1013E000FFFFFFFFFFFFFFFFFFFFFFFFFFFFFFFF0D
:1013F000FFFFFFFFFFFFFFFFFFFFFFFFFFFFFFFFFD
:10140000FFFFFFFFFFFFFFFFFFFFFFFFFFFFFFFFEC
:10141000FFFFFFFFFFFFFFFFFFFFFFFFFFFFFFFFDC
:10142000FFFFFFFFFFFFFFFFFFFFFFFFFFFFFFFFCC
:10143000FFFFFFFFFFFFFFFFFFFFFFFFFFFFFFFFBC
:10144000FFFFFFFFFFFFFFFFFFFFFFFFFFFFFFFFAC
:10145000FFFFFFFFFFFFFFFFFFFFFFFFFFFFFFFF9C
:10146000FFFFFFFFFFFFFFFFFFFFFFFFFFFFFFFF8C
:10147000FFFFFFFFFFFFFFFFFFFFFFFFFFFFFFFF7C
:10148000FFFFFFFFFFFFFFFFFFFFFFFFFFFFFFFF6C
:10149000FFFFFFFFFFFFFFFFFFFFFFFFFFFFFFFF5C
:1014A000FFFFFFFFFFFFFFFFFFFFFFFFFFFFFFFF4C
:1014B000FFFFFFFFFFFFFFFFFFFFFFFFFFFFFFFF3C
:1014C000FFFFFFFFFFFFFFFFFFFFFFFFFFFFFFFF2C
:1014D000FFFFFFFFFFFFFFFFFFFFFFFFFFFFFFFF1C
:1014E000FFFFFFFFFFFFFFFFFFFFFFFFFFFFFFFF0C
:1014F000FFFFFFFFFFFFFFFFFFFFFFFFFFFFFFFFFC
:10150000FFFFFFFFFFFFFFFFFFFFFFFFFFFFFFFFEB
:10151000FFFFFFFFFFFFFFFFFFFFFFFFFFFFFFFFDB
:10152000FFFFFFFFFFFFFFFFFFFFFFFFFFFFFFFFCB
:10153000FFFFFFFFFFFFFFFFFFFFFFFFFFFFFFFFBB
:10154000FFFFFFFFFFFFFFFFFFFFFFFFFFFFFFFFAB
:10155000FFFFFFFFFFFFFFFFFFFFFFFFFFFFFFFF9B
:10156000FFFFFFFFFFFFFFFFFFFFFFFFFFFFFFFF8B
:10157000FFFFFFFFFFFFFFFFFFFFFFFFFFFFFFFF7B
:10158000FFFFFFFFFFFFFFFFFFFFFFFFFFFFFFFF6B
:10159000FFFFFFFFFFFFFFFFFFFFFFFFFFFFFFFF5B
:1015A000FFFFFFFFFFFFFFFFFFFFFFFFFFFFFFFF4B
:1015B000FFFFFFFFFFFFFFFFFFFFFFFFFFFFFFFF3B
:1015C000FFFFFFFFFFFFFFFFFFFFFFFFFFFFFFFF2B
:1015D000FFFFFFFFFFFFFFFFFFFFFFFFFFFFFFFF1B
:1015E000FFFFFFFFFFFFFFFFFFFFFFFFFFFFFFFF0B
:1015F000FFFFFFFFFFFFFFFFFFFFFFFFFFFFFFFFFB
:10160000FFFFFFFFFFFFFFFFFFFFFFFFFFFFFFFFEA
:10161000FFFFFFFFFFFFFFFFFFFFFFFFFFFFFFFFDA
:10162000FFFFFFFFFFFFFFFFFFFFFFFFFFFFFFFFCA
:10163000FFFFFFFFFFFFFFFFFFFFFFFFFFFFFFFFBA
:10164000FFFFFFFFFFFFFFFFFFFFFFFFFFFFFFFFAA
:10165000FFFFFFFFFFFFFFFFFFFFFFFFFFFFFFFF9A
:10166000FFFFFFFFFFFFFFFFFFFFFFFFFFFFFFFF8A
:10167000FFFFFFFFFFFFFFFFFFFFFFFFFFFFFFFF7A
:10168000FFFFFFFFFFFFFFFFFFFFFFFFFFFFFFFF6A
:10169000FFFFFFFFFFFFFFFFFFFFFFFFFFFFFFFF5A
:1016A000FFFFFFFFFFFFFFFFFFFFFFFFFFFFFFFF4A
:1016B000FFFFFFFFFFFFFFFFFFFFFFFFFFFFFFFF3A
:1016C000FFFFFFFFFFFFFFFFFFFFFFFFFFFFFFFF2A
:1016D000FFFFFFFFFFFFFFFFFFFFFFFFFFFFFFFF1A
:1016E000FFFFFFFFFFFFFFFFFFFFFFFFFFFFFFFF0A
:1016F000FFFFFFFFFFFFFFFFFFFFFFFFFFFFFFFFFA
:10170000FFFFFFFFFFFFFFFFFFFFFFFFFFFFFFFFE9
:10171000FFFFFFFFFFFFFFFFFFFFFFFFFFFFFFFFD9
:10172000FFFFFFFFFFFFFFFFFFFFFFFFFFFFFFFFC9
:10173000FFFFFFFFFFFFFFFFFFFFFFFFFFFFFFFFB9
:10174000FFFFFFFFFFFFFFFFFFFFFFFFFFFFFFFFA9
:10175000FFFFFFFFFFFFFFFFFFFFFFFFFFFFFFFF99
:10176000FFFFFFFFFFFFFFFFFFFFFFFFFFFFFFFF89
:10177000FFFFFFFFFFFFFFFFFFFFFFFFFFFFFFFF79
:10178000FFFFFFFFFFFFFFFFFFFFFFFFFFFFFFFF69
:10179000FFFFFFFFFFFFFFFFFFFFFFFFFFFFFFFF59
:1017A000FFFFFFFFFFFFFFFFFFFFFFFFFFFFFFFF49
:1017B000FFFFFFFFFFFFFFFFFFFFFFFFFFFFFFFF39
:1017C000FFFFFFFFFFFFFFFFFFFFFFFFFFFFFFFF29
:1017D000FFFFFFFFFFFFFFFFFFFFFFFFFFFFFFFF19
:1017E000FFFFFFFFFFFFFFFFFFFFFFFFFFFFFFFF09
:1017F000FFFFFFFFFFFFFFFFFFFFFFFFFFFFFFFFF9
:020000040801F1
:020000040802F0
:020000040803EF
:020000040808EA
:020000040808EA
:00000001FF
