:020000040800F2
:10000000000400206F00000885000008850000083B
:10001000A70B090100000000010121510020000888
:1000200004030000E3080008990B00087C040008A2
:1000300000000000000000000000000000000000C0
:100040000000000000000000000000005E00000052
:10005000FFFFFFFF09480068202100EA010028B1E6
:100060000748016842685FEA010D10477047FFF7D3
:10007000F1FF00F010F800F041F800002C00004003
:100080000020000803E000005FEA000D70474FF415
:10009000017000F09BB838B54FF20F043F4D00F0EF
:1000A000C1F828B140F2052028806C80012032BDC3
:1000B0003B480068C00613D56888A0421CD1288838
:1000C00040F2022188421CBF40F20621884213D030
:1000D00040F2011188421CBF40F2111188420BD03E
:1000E000304C208A40F6A721884205D12068FFF7CE
:1000F000CBFF6068804700BF002032BD38B50446A2
:1001000072B62948016849084900016000F0D0F83A
:10011000234800680009C10754BF2449244902E06C
:10012000CD2201F8012B234A9142F9D32249234AD7
:10013000234B03E011F8015B02F8015B9A42F9D30B
:100140002049214A002301E001F8013B9142FBD301
:1001500040F20521114A53884FF20F05AB420BD1F3
:1001600013888B4206D0C00706D5180A012818BF8D
:10017000022801D1194601E004B900210648018096
:100180004CF23C30508000F05FF94FF40170BDE854
:10019000324000F01BB80000280C002000000020B6
:1001A0002C00004000200008FCED00E000000020D2
:1001B00098000020000400204810000800040020DF
:1001C00008040020080400202D0C00200D493022D6
:1001D0000A600D490A600D490A600D4910220A6043
:1001E000010A08BF00020B4908804FF20F00488047
:1001F000BFF35F8F0848002101604160074808494C
:10020000016070473020004030C8004030C00040DE
:1002100010D00040000000201C4000400CED00E029
:100220000400FA050020704780B500F02BF9012189
:10023000062000F032F9062000F05FF901210720C6
:1002400000F02BF9072000F04BF91748016821F066
:100250001001016001BD0000052800D9704710B5EC
:10026000DFE800F01721030F1C17104C2088411EF7
:100270002180C0B9072000F04DF942F210702080B3
:1002800010BD072000F039F90620BDE8104000F04D
:1002900041B90620BDE8104000F022B90620BDE8B3
:1002A000104000F02AB910BD00BC00402A0C00200C
:1002B00006E04B48016841F0010101600121416005
:1002C0004C48512101607047F8B5494C454D4FF6F7
:1002D000FF77464EB088B84227D102237F22464896
:1002E0000188301D00F02CF9B088B84204BF02200C
:1002F000B080A069800703D4A06940F00200A0612B
:1003000001207070B088206007202860002068609D
:10031000A86035484FF000710160A069C00732D570
:10032000E06980B348F69F403CE0A0698007E3D5D0
:100330002868C00348BF00F043F8707898BBA068F5
:1003400010F00100A168B28803D10F2A08D2521C14
:1003500006E0890704D5F17811B1032A28BF521E9F
:10036000F07092B2022A38BF0222B2802068B188AF
:100370008842C5D1A06900F00300032818BFFFF729
:1003800098FF0120F2BDA069C00701D5E06920B146
:10039000A069C00704D4E06910B144F24F6001E0E5
:1003A00042F2273068600020F2BD80B503E040F2E1
:1003B000DC5000F0F9F8FFF787FF0028F7D001BD07
:1003C0000848002141608160016821F0020101605C
:1003D00005484FF0007101600448002141707047EA
:1003E0001C40004010E000E004ED00E000040020AC
:1003F000044000400080004044100008007870472E
:1004000030B5DBB00446214636A800F0E7F80020FE
:1004100000904FF402630B4A36A901A800F061FA7C
:100420000FF24C0201A90FF2540000F0B5FB054693
:1004300000F02FF81DB12146284600F01BF9284690
:100440005BB030BD0804002080B5FFF7AEFFFFF7BA
:10045000EBFE00F0C1FB00F047FC40F20120FFF78B
:10046000B5FE002002BD012A08BF00F0C9BB7047DD
:10047000B90F0008F50F0008FD0300082F08000859
:10048000670800080E48012181604EF6BE214160D8
:1004900000E00C4801210160704710B582080FF29E
:1004A000280353F82220136800F0030080000F2473
:1004B0008440A34301FA00F01843106010BD00000F
:1004C000006000400860004000B0004004B0004000
:1004D00000B4004004B4004000B8004004B800403C
:1004E000C108032908D2C1108902124A012300F071
:1004F000070003FA00F050507047C108032908D2E2
:10050000C11089020C4A012300F0070003FA00F031
:1005100050507047C10803290BD2C110074A02EBA3
:1005200081210A68012300F0070003FA00F050401F
:100530000860704714B0004010B000400CB000409C
:1005400030B583B0044610467F2808BF0020B1F5BF
:10055000004F1AD108237F2240F6120100A8FFF7AE
:10056000EFFF08220FF2380100A800F0E0FC30B9DC
:1005700008237F2240F2A27100A8FFF7E1FF0822C2
:1005800000A9204600F0BAFC37BD1A46034D2943A6
:1005900000FB0311204600F0B1FC37BD0000040849
:1005A000FFFFFFFFFFFFFFFF0A490A680A4B1B68B6
:1005B000DB0758BF4008032809D34B6D43F0010304
:1005C0004B650B689B1A1B031B0B8342F9D37047C7
:1005D00000000000382000401C4000400170012253
:1005E0004270827001290CBF80214021818000214E
:1005F000C18001811D4801600E218162016821F0E6
:10060000100101600021416341627047F8B5044662
:100610000D46164616484FF0FF310160134FFE623B
:1006200000207862386840F001003860FFF731FF41
:10063000012C19D16DB900F032FB78B9786AB0425B
:10064000F4D3002EF2D038684008400038601620FD
:10065000F2BD284600F02AFB0028EFD13868400898
:10066000400038600020F2BD0120F2BD00E00040F3
:1006700000A8004038B504460D4600F009F800F027
:1006800007F82A4621461820BDE83840FFF7EBBEA0
:100690002A4621461820FFF7E6BE30B583B004464F
:1006A000002020814AF6B43200A92078FFF7AEFF7F
:1006B00008B11C203EBD9DF80000032818BF182873
:1006C00001D118203EBD042801D117203EBD0128CC
:1006D00001D021203EBD002500E06D1CEDB2A188B7
:1006E000091D8D420BDA40F2DD22281900F10A01C2
:1006F0002078FFF78BFF0028EFD026203EBD002595
:10070000002006E00146EDB22819007B00F020FC35
:100710006D1CA188EAB28A42F4D3A27AE37A9B18CC
:10072000FF2B01D022203EBD0B191D7BB5EB102FF6
:1007300001D023203EBD5B7BC0B2834201D0242088
:100740003EBDA078824207D0401EC0B2824201D195
:1007500027203EBD25203EBD881C20810220E08050
:1007600000203EBD38B504466078012804D023D36C
:10077000032855D018D31FE02078012811D13B253C
:10078000432000F03DFA40F2DD2200212078FFF7FF
:100790003DFF30B12846451EC0B20028F0D11B20D5
:1007A00032BD0220607010E000F092FA00F03AF8DA
:1007B000A078401CA07008E0182032BD2278A078F4
:1007C000411EC9B20620FFF74EFE2046FFF765FF27
:1007D000050018BF00F07CFA272DEFD0A8060BD536
:1007E0002278A1781520FFF73EFE002DEDD10320E1
:1007F000FFF732FD002032BD680603D4182D18BF64
:100800001C2D07D121782846FFF734FF04206070A3
:10081000284632BD172DE8D100F004F8032060709F
:10082000172032BD2278A1780620FFF71CBEF8B54C
:1008300004460D461646002706E0E088411CE1808C
:100840000019807A78557F1CBFB2B74209D2E08880
:1008500021898842F1D32046FFF784FF0028ECD09D
:10086000F2BD0020F2BD10B504462046FFF77AFF26
:100870000028FAD010BD0000F8B504460D46164613
:100880001F4607E03046A047294600F073FB0546A7
:100890007F1E761CBFB2002FF4D12846F2BD38B5BA
:1008A0000C46154605E0014614F8010B00F062FB0A
:1008B0006D1EADB2002DF6D132BDF8B504460D4621
:1008C00016461F463A463146286823689847040072
:1008D00005D13A463146E868FFF7E1FFE860204677
:1008E000F2BD10B5029C84720381426001604FF03A
:1008F000FF31C1600021017410BD2DE9F84F04469D
:100900008B461E469BF81B70802F28BF8027D0681F
:100910009D49884250D1002E4CD0B06800904FF0D5
:10092000FF384FF000090BEB490A9AF848500FE0E6
:10093000FF2D16D0FFF7ADFD4FF40063E80240F045
:10094000006241460098FFF797FF8046681CC5B2D9
:100950009AF84900A842EBDA09F10109B9F1060F4A
:10096000E1DBDBF844006FEA0801884224D1A0688B
:1009700000BA7A08594673689847C8B9E06805BA5A
:10098000A06802BA3B464FF0FF31B068FFF774FF32
:10099000C04385420CD140F6A720ABF81000A068F8
:1009A00000BA01220BF1100110307368984708B1AA
:1009B000422002E0172000E04320BDE8F28F2DE93D
:1009C000F84F80460D469146D5F804A02889ADF829
:1009D000000005F1140606F11007042352464046B4
:1009E000FFF76BFF002870D1BAF8000040BA1FFA79
:1009F00080FBBAF8020040BA84B2E00748BF462044
:100A000063D4B4F5026FC8BF4E205EDC002C5BD00F
:100A10005FEA0B000AD04FF60441BBEB010000F087
:100A20009B80FF3853D0FE3851D0ABE0287C08B112
:100A300051204AE08D2C28BF4F2046D22346321D3C
:100A400000F0A7F8002840D1FA7E802A28BF802233
:100A500002F10C00844201BFB08840BA00F47F402C
:100A6000B0F5007F2CD1F08840BA4EF25031884268
:100A700002BF388A40F6A721884202BF788A00F474
:100A80007F40B0F5807F1BD1B06800BA3F49C9698B
:100A9000884215D14FF6FF70388206F110014FF0F1
:100AA000FF30FFF7FCFEF16809BAC943884204BF72
:100AB000387E042804D1787E032818BF062801D088
:100AC000452002E0012028740020BDE8F28F287C38
:100AD000002843D0042300F05BF80028F5D1DAF8B1
:100AE000000006BA201F84B22848C069864238BF79
:100AF0004820EAD3A019796D884228BF4920E4D262
:100B00004FF6035083450DD1B9F1000F0AD031469D
:100B10000220D9F80020904720B14A20D5E7E01BF9
:100B200084B2BE19002CCFD0BDF800008442B4BFFF
:100B3000274607463B4600F02BF80028C5D1B9F1FF
:100B4000000FECD07A0851463046D9F80430984767
:100B50000028E4D04B20B8E7287C08B94120B4E74E
:100B6000042C18BF4C20B0D104236A6800F011F89F
:100B70000028AAD14B462A463946304601B0BDE886
:100B8000F04FBAE64420A0E7E320BBDE00000008F7
:100B900052462946404690E670B504460D46164634
:100BA0002889C10701D4802803DA4F2070BDA87AB4
:100BB00078B9324629462046FFF701FF0028F6D0D3
:100BC000172807D1286861688847172802D10020B4
:100BD00070BD502070BD000080B53A486821416169
:100BE0000021816102218160012101600921092028
:100BF000FFF753FC04210A20BDE80440FFF74DBC79
:100C00003249CA685207FCD50860704710B50446DF
:100C100003E014F8010BFFF7F3FF20780028F8D168
:100C200010BD7CB500A90FF2B80218CA18C1052181
:100C300004220A230CE080B290FBF3F403FB1405BA
:100C4000EDB2204600AC05F130060E5505B10A465E
:100C5000491E49B20029EED5D2B200A81018FFF7FC
:100C6000D5FF73BD10B5044620090A282CBF3730C4
:100C70003030C0B2FFF7C4FF04F00F000A282CBFC9
:100C800037303030C0B2BDE81040B9E710B5044687
:100C9000200AFFF7E7FFE0B2BDE81040E2E70A48AC
:100CA000006810F0020018BF0120704710B504461C
:100CB000FFF7F5FF20B1054800682070002010BD47
:100CC000012010BD54C8004048C800403CC8004046
:100CD00080B500A8FFF7EAFF0028FAD001BD0000A8
:100CE00030303030300000002DE9F84FFFF7D1FBF5
:100CF000FFF7EEFF0020FFF7AFFA0FF27018474D35
:100D000044A60FF23C1B44A4DFF814910FF2141A0E
:100D10001DE05046FFF77AFF0C27B9F81A0038415A
:100D200000F00F00FFF77DFF012FA4BF2E20FFF77B
:100D300067FF3F1FF1D52046FFF768FFB9F84C0069
:100D4000FFF76FFF5846FFF761FFFFF7C1FFFFF79F
:100D5000A0FB0220FFF780FA00A8FFF7A7FF0028FA
:100D6000F5D19DF80000FFF74BFF9DF800000A2821
:100D700018BF0D28CDD0312804D032282FD03328E9
:100D800032D0E2E70FF2F400FFF740FF0120FFF757
:100D900037FB07460FF2F800FFF738FF380005D1A0
:100DA0000520FFF759FA0FF2FC00CCE70420FFF70B
:100DB00053FA0FF2FC00FFF729FFB80648BF0FF205
:100DC000FC0005D478064CBF0FF208100FF220107B
:100DD000FFF71CFF3846FFF759FF3046B3E7012005
:100DE000FFF73AFABDE8F18F00273046FFF70EFF14
:100DF000288A40F6A721884218BF4046A3D1781917
:100E000090F824007F1C20B1FFF7FAFEFFB2202FDC
:100E1000F5D3E2E70D0A0000206200000020000880
:100E2000000000080D0A454D3335372053657269BF
:100E3000616C20426F6F746C6F6164657220760024
:100E40000D0A312E2075706C6F61642065626C0D27
:100E50000A322E2072756E0D0A332E2065626C20C8
:100E6000696E666F0D0A424C203E20002A2A206ED1
:100E70006F20617070202A2A0D0A00000D0A626539
:100E800067696E2075706C6F61640D0A0000000068
:100E90000D0A53657269616C2075706C6F61642016
:100EA00000000000636F6D706C6574650D0A0000D2
:100EB00061626F727465640D0A0000000D0A584D7E
:100EC0006F64656D20626C6F636B206572726F7208
:100ED000203078000D0A646F776E6C6F6164206655
:100EE000696C65206572726F7220307800000000B6
:100EF0000D0A6572726F722030780000814212D242
:100F00001018401E5118491E92B2002A1EBF11F837
:100F1000013900F80139521EF6D1704711F8013B32
:100F200000F8013B521E92B2002AF7D1704710B56B
:100F300000E0521E92B232B110F8013B11F8014BA1
:100F4000A342F6D001E0002010BD181B40B210BD36
:100F50000A0242EA11214840C0F30311484080EAE6
:100F600000304101C9B20206D20E41EA02214840D6
:100F700080B270470A0A4840C0B208214308C0073F
:100F800046BF034858401846491EF7D150407047A5
:100F90002083B8ED2848018A40F6A772914202BF2B
:100FA000418A4FF47F40014204D102298041C0436D
:100FB000C00F704700207047F8B504460D461D4E1F
:100FC00001203070FFF7E6FF18B94FF40170FFF70A
:100FD000FDF81948876A294644F48070B847002113
:100FE00031700FF2580618B9294644F40070B8471A
:100FF000805DF2BD2DE9F041044688465600FFF7BA
:10100000C9FF18B94FF40170FFF7E0F80A48476AC2
:101010000023324641462046B8470FF2200520B94A
:101020003346002241462046B847405DBDE8F08186
:10103000000000002C0C0020000004080002020246
:101040004B4B4647EE08000000000001FFFF000088
:10105000FFFFFFFFFFFFFFFFFFFFFFFFFFFFFFFFA0
:10106000FFFFFFFFFFFFFFFFFFFFFFFFFFFFFFFF90
:10107000FFFFFFFFFFFFFFFFFFFFFFFFFFFFFFFF80
:10108000FFFFFFFFFFFFFFFFFFFFFFFFFFFFFFFF70
:10109000FFFFFFFFFFFFFFFFFFFFFFFFFFFFFFFF60
:1010A000FFFFFFFFFFFFFFFFFFFFFFFFFFFFFFFF50
:1010B000FFFFFFFFFFFFFFFFFFFFFFFFFFFFFFFF40
:1010C000FFFFFFFFFFFFFFFFFFFFFFFFFFFFFFFF30
:1010D000FFFFFFFFFFFFFFFFFFFFFFFFFFFFFFFF20
:1010E000FFFFFFFFFFFFFFFFFFFFFFFFFFFFFFFF10
:1010F000FFFFFFFFFFFFFFFFFFFFFFFFFFFFFFFF00
:10110000FFFFFFFFFFFFFFFFFFFFFFFFFFFFFFFFEF
:10111000FFFFFFFFFFFFFFFFFFFFFFFFFFFFFFFFDF
:10112000FFFFFFFFFFFFFFFFFFFFFFFFFFFFFFFFCF
:10113000FFFFFFFFFFFFFFFFFFFFFFFFFFFFFFFFBF
:10114000FFFFFFFFFFFFFFFFFFFFFFFFFFFFFFFFAF
:10115000FFFFFFFFFFFFFFFFFFFFFFFFFFFFFFFF9F
:10116000FFFFFFFFFFFFFFFFFFFFFFFFFFFFFFFF8F
:10117000FFFFFFFFFFFFFFFFFFFFFFFFFFFFFFFF7F
:10118000FFFFFFFFFFFFFFFFFFFFFFFFFFFFFFFF6F
:10119000FFFFFFFFFFFFFFFFFFFFFFFFFFFFFFFF5F
:1011A000FFFFFFFFFFFFFFFFFFFFFFFFFFFFFFFF4F
:1011B000FFFFFFFFFFFFFFFFFFFFFFFFFFFFFFFF3F
:1011C000FFFFFFFFFFFFFFFFFFFFFFFFFFFFFFFF2F
:1011D000FFFFFFFFFFFFFFFFFFFFFFFFFFFFFFFF1F
:1011E000FFFFFFFFFFFFFFFFFFFFFFFFFFFFFFFF0F
:1011F000FFFFFFFFFFFFFFFFFFFFFFFFFFFFFFFFFF
:10120000FFFFFFFFFFFFFFFFFFFFFFFFFFFFFFFFEE
:10121000FFFFFFFFFFFFFFFFFFFFFFFFFFFFFFFFDE
:10122000FFFFFFFFFFFFFFFFFFFFFFFFFFFFFFFFCE
:10123000FFFFFFFFFFFFFFFFFFFFFFFFFFFFFFFFBE
:10124000FFFFFFFFFFFFFFFFFFFFFFFFFFFFFFFFAE
:10125000FFFFFFFFFFFFFFFFFFFFFFFFFFFFFFFF9E
:10126000FFFFFFFFFFFFFFFFFFFFFFFFFFFFFFFF8E
:10127000FFFFFFFFFFFFFFFFFFFFFFFFFFFFFFFF7E
:10128000FFFFFFFFFFFFFFFFFFFFFFFFFFFFFFFF6E
:10129000FFFFFFFFFFFFFFFFFFFFFFFFFFFFFFFF5E
:1012A000FFFFFFFFFFFFFFFFFFFFFFFFFFFFFFFF4E
:1012B000FFFFFFFFFFFFFFFFFFFFFFFFFFFFFFFF3E
:1012C000FFFFFFFFFFFFFFFFFFFFFFFFFFFFFFFF2E
:1012D000FFFFFFFFFFFFFFFFFFFFFFFFFFFFFFFF1E
:1012E000FFFFFFFFFFFFFFFFFFFFFFFFFFFFFFFF0E
:1012F000FFFFFFFFFFFFFFFFFFFFFFFFFFFFFFFFFE
:10130000FFFFFFFFFFFFFFFFFFFFFFFFFFFFFFFFED
:10131000FFFFFFFFFFFFFFFFFFFFFFFFFFFFFFFFDD
:10132000FFFFFFFFFFFFFFFFFFFFFFFFFFFFFFFFCD
:10133000FFFFFFFFFFFFFFFFFFFFFFFFFFFFFFFFBD
:10134000FFFFFFFFFFFFFFFFFFFFFFFFFFFFFFFFAD
:10135000FFFFFFFFFFFFFFFFFFFFFFFFFFFFFFFF9D
:10136000FFFFFFFFFFFFFFFFFFFFFFFFFFFFFFFF8D
:10137000FFFFFFFFFFFFFFFFFFFFFFFFFFFFFFFF7D
:10138000FFFFFFFFFFFFFFFFFFFFFFFFFFFFFFFF6D
:10139000FFFFFFFFFFFFFFFFFFFFFFFFFFFFFFFF5D
:1013A000FFFFFFFFFFFFFFFFFFFFFFFFFFFFFFFF4D
:1013B000FFFFFFFFFFFFFFFFFFFFFFFFFFFFFFFF3D
:1013C000FFFFFFFFFFFFFFFFFFFFFFFFFFFFFFFF2D
:1013D000FFFFFFFFFFFFFFFFFFFFFFFFFFFFFFFF1D
:1013E000FFFFFFFFFFFFFFFFFFFFFFFFFFFFFFFF0D
:1013F000FFFFFFFFFFFFFFFFFFFFFFFFFFFFFFFFFD
:10140000FFFFFFFFFFFFFFFFFFFFFFFFFFFFFFFFEC
:10141000FFFFFFFFFFFFFFFFFFFFFFFFFFFFFFFFDC
:10142000FFFFFFFFFFFFFFFFFFFFFFFFFFFFFFFFCC
:10143000FFFFFFFFFFFFFFFFFFFFFFFFFFFFFFFFBC
:10144000FFFFFFFFFFFFFFFFFFFFFFFFFFFFFFFFAC
:10145000FFFFFFFFFFFFFFFFFFFFFFFFFFFFFFFF9C
:10146000FFFFFFFFFFFFFFFFFFFFFFFFFFFFFFFF8C
:10147000FFFFFFFFFFFFFFFFFFFFFFFFFFFFFFFF7C
:10148000FFFFFFFFFFFFFFFFFFFFFFFFFFFFFFFF6C
:10149000FFFFFFFFFFFFFFFFFFFFFFFFFFFFFFFF5C
:1014A000FFFFFFFFFFFFFFFFFFFFFFFFFFFFFFFF4C
:1014B000FFFFFFFFFFFFFFFFFFFFFFFFFFFFFFFF3C
:1014C000FFFFFFFFFFFFFFFFFFFFFFFFFFFFFFFF2C
:1014D000FFFFFFFFFFFFFFFFFFFFFFFFFFFFFFFF1C
:1014E000FFFFFFFFFFFFFFFFFFFFFFFFFFFFFFFF0C
:1014F000FFFFFFFFFFFFFFFFFFFFFFFFFFFFFFFFFC
:10150000FFFFFFFFFFFFFFFFFFFFFFFFFFFFFFFFEB
:10151000FFFFFFFFFFFFFFFFFFFFFFFFFFFFFFFFDB
:10152000FFFFFFFFFFFFFFFFFFFFFFFFFFFFFFFFCB
:10153000FFFFFFFFFFFFFFFFFFFFFFFFFFFFFFFFBB
:10154000FFFFFFFFFFFFFFFFFFFFFFFFFFFFFFFFAB
:10155000FFFFFFFFFFFFFFFFFFFFFFFFFFFFFFFF9B
:10156000FFFFFFFFFFFFFFFFFFFFFFFFFFFFFFFF8B
:10157000FFFFFFFFFFFFFFFFFFFFFFFFFFFFFFFF7B
:10158000FFFFFFFFFFFFFFFFFFFFFFFFFFFFFFFF6B
:10159000FFFFFFFFFFFFFFFFFFFFFFFFFFFFFFFF5B
:1015A000FFFFFFFFFFFFFFFFFFFFFFFFFFFFFFFF4B
:1015B000FFFFFFFFFFFFFFFFFFFFFFFFFFFFFFFF3B
:1015C000FFFFFFFFFFFFFFFFFFFFFFFFFFFFFFFF2B
:1015D000FFFFFFFFFFFFFFFFFFFFFFFFFFFFFFFF1B
:1015E000FFFFFFFFFFFFFFFFFFFFFFFFFFFFFFFF0B
:1015F000FFFFFFFFFFFFFFFFFFFFFFFFFFFFFFFFFB
:10160000FFFFFFFFFFFFFFFFFFFFFFFFFFFFFFFFEA
:10161000FFFFFFFFFFFFFFFFFFFFFFFFFFFFFFFFDA
:10162000FFFFFFFFFFFFFFFFFFFFFFFFFFFFFFFFCA
:10163000FFFFFFFFFFFFFFFFFFFFFFFFFFFFFFFFBA
:10164000FFFFFFFFFFFFFFFFFFFFFFFFFFFFFFFFAA
:10165000FFFFFFFFFFFFFFFFFFFFFFFFFFFFFFFF9A
:10166000FFFFFFFFFFFFFFFFFFFFFFFFFFFFFFFF8A
:10167000FFFFFFFFFFFFFFFFFFFFFFFFFFFFFFFF7A
:10168000FFFFFFFFFFFFFFFFFFFFFFFFFFFFFFFF6A
:10169000FFFFFFFFFFFFFFFFFFFFFFFFFFFFFFFF5A
:1016A000FFFFFFFFFFFFFFFFFFFFFFFFFFFFFFFF4A
:1016B000FFFFFFFFFFFFFFFFFFFFFFFFFFFFFFFF3A
:1016C000FFFFFFFFFFFFFFFFFFFFFFFFFFFFFFFF2A
:1016D000FFFFFFFFFFFFFFFFFFFFFFFFFFFFFFFF1A
:1016E000FFFFFFFFFFFFFFFFFFFFFFFFFFFFFFFF0A
:1016F000FFFFFFFFFFFFFFFFFFFFFFFFFFFFFFFFFA
:10170000FFFFFFFFFFFFFFFFFFFFFFFFFFFFFFFFE9
:10171000FFFFFFFFFFFFFFFFFFFFFFFFFFFFFFFFD9
:10172000FFFFFFFFFFFFFFFFFFFFFFFFFFFFFFFFC9
:10173000FFFFFFFFFFFFFFFFFFFFFFFFFFFFFFFFB9
:10174000FFFFFFFFFFFFFFFFFFFFFFFFFFFFFFFFA9
:10175000FFFFFFFFFFFFFFFFFFFFFFFFFFFFFFFF99
:10176000FFFFFFFFFFFFFFFFFFFFFFFFFFFFFFFF89
:10177000FFFFFFFFFFFFFFFFFFFFFFFFFFFFFFFF79
:10178000FFFFFFFFFFFFFFFFFFFFFFFFFFFFFFFF69
:10179000FFFFFFFFFFFFFFFFFFFFFFFFFFFFFFFF59
:1017A000FFFFFFFFFFFFFFFFFFFFFFFFFFFFFFFF49
:1017B000FFFFFFFFFFFFFFFFFFFFFFFFFFFFFFFF39
:1017C000FFFFFFFFFFFFFFFFFFFFFFFFFFFFFFFF29
:1017D000FFFFFFFFFFFFFFFFFFFFFFFFFFFFFFFF19
:1017E000FFFFFFFFFFFFFFFFFFFFFFFFFFFFFFFF09
:1017F000FFFFFFFFFFFFFFFFFFFFFFFFFFFFFFFFF9
:020000040801F1
:020000040802F0
:020000040804EE
:020000040804EE
:00000001FF
