###############################################################################
#                                                                             #
# IAR ANSI C/C++ Compiler V6.40.1.53790/W32 for ARM     24/Sep/2014  08:23:27 #
# Copyright 1999-2012 IAR Systems AB.                                         #
#                                                                             #
#    Cpu mode     =  thumb                                                    #
#    Endian       =  little                                                   #
#    Source file  =  C:\Ember\EmberZNet5.1.2-GA\EM35x\app\framework\plugin\en #
#                    d-device-support\sleeping-common.c                       #
#    Command line =  C:\Ember\EmberZNet5.1.2-GA\EM35x\app\framework\plugin\en #
#                    d-device-support\sleeping-common.c -D DEBUG -D           #
#                    "GENERATED_TOKEN_HEADER=\"app/builder/darUNBsensorTmpAcc #
#                    eILLumUNB/darUNBsensorTmpAcceILLumUNB_tokens.h\"" -D     #
#                    "ZA_GENERATED_HEADER=\"app/builder/darUNBsensorTmpAcceIL #
#                    LumUNB/darUNBsensorTmpAcceILLumUNB.h\"" -D NULL_BTL -D   #
#                    "BOARD_HEADER=\"hal/micro/cortexm3/em35x/board/eznode.h\ #
#                    "" -D "PLATFORM_HEADER=\"hal/micro/cortexm3/compiler/iar #
#                    .h\"" -D CORTEXM3 -D CORTEXM3_EM357 -D PHY_EM3XX -D      #
#                    "APPLICATION_TOKEN_HEADER=\"app/framework/util/tokens.h\ #
#                    "" -D "CONFIGURATION_HEADER=\"app/framework/util/config. #
#                    h\"" -D "ATTRIBUTE_STORAGE_CONFIGURATION=\"app/builder/d #
#                    arUNBsensorTmpAcceILLumUNB/darUNBsensorTmpAcceILLumUNB_e #
#                    ndpoint_config.h\"" -D "__SOURCEFILE__=\"sleeping-common #
#                    .c\"" -lC C:\Ember\EmberZNet5.1.2-GA\EM35x\build\darUNBs #
#                    ensorTmpAcceILLumUNB\ --diag_suppress Pa050 -o           #
#                    C:\Ember\EmberZNet5.1.2-GA\EM35x\build\darUNBsensorTmpAc #
#                    ceILLumUNB\ --debug --endian=little --cpu=Cortex-M3 -e   #
#                    --fpu=None --dlib_config "C:\Program Files (x86)\IAR     #
#                    Systems\Embedded Workbench 6.4\arm\INC\c\DLib_Config_Nor #
#                    mal.h" -I C:\Ember\EmberZNet5.1.2-GA\EM35x\app\framework #
#                    \plugin\end-device-support\ -I                           #
#                    C:\Ember\EmberZNet5.1.2-GA\EM35x\app\builder\darUNBsenso #
#                    rTmpAcceILLumUNB\ -I C:\Ember\EmberZNet5.1.2-GA\EM35x\ap #
#                    p\builder\darUNBsensorTmpAcceILLumUNB\..\..\..\ -I       #
#                    C:\Ember\EmberZNet5.1.2-GA\EM35x\app\builder\darUNBsenso #
#                    rTmpAcceILLumUNB\..\..\..\app\framework\include\ -I      #
#                    C:\Ember\EmberZNet5.1.2-GA\EM35x\app\builder\darUNBsenso #
#                    rTmpAcceILLumUNB\..\..\..\ -I                            #
#                    C:\Ember\EmberZNet5.1.2-GA\EM35x\app\builder\darUNBsenso #
#                    rTmpAcceILLumUNB\..\..\..\stack\ -I                      #
#                    C:\Ember\EmberZNet5.1.2-GA\EM35x\app\builder\darUNBsenso #
#                    rTmpAcceILLumUNB\..\..\..\hal\ -I                        #
#                    C:\Ember\EmberZNet5.1.2-GA\EM35x\app\builder\darUNBsenso #
#                    rTmpAcceILLumUNB\..\..\..\hal\..\ -Ohz --use_c++_inline  #
#    List file    =  C:\Ember\EmberZNet5.1.2-GA\EM35x\build\darUNBsensorTmpAc #
#                    ceILLumUNB\sleeping-common.lst                           #
#    Object file  =  C:\Ember\EmberZNet5.1.2-GA\EM35x\build\darUNBsensorTmpAc #
#                    ceILLumUNB\sleeping-common.o                             #
#                                                                             #
#                                                                             #
###############################################################################

C:\Ember\EmberZNet5.1.2-GA\EM35x\app\framework\plugin\end-device-support\sleeping-common.c
      1          
      2          #include "app/framework/util/af-event.h"
      3          #include "app/framework/plugin/end-device-support/end-device-support.h"
      4          #include "app/framework/util/af-main.h"
      5          
      6          // *****************************************************************************
      7          // Globals
      8          
      9          #if defined(EZSP_HOST)
     10            #define MAX_SLEEP_VALUE_MS MAX_TIMER_MILLISECONDS_HOST
     11          #else
     12            #define MAX_SLEEP_VALUE_MS 0xFFFFFFFFUL
     13          #endif
     14          
     15          // *****************************************************************************
     16          

   \                                 In section .text, align 2, keep-with-next
     17          void emAfPrintSleepDuration(int32u sleepDurationMS, int8u eventIndex)
     18          {
     19            emberAfDebugPrint("sleep ");
     20            if (sleepDurationMS == MAX_SLEEP_VALUE_MS) {
     21              emberAfDebugPrintln("forever");
     22            } else {
     23              emberAfDebugPrintln("%l ms (until %p Event)", 
     24                                  sleepDurationMS,
     25                                  (eventIndex == 0xFF
     26                                   ? "Stack"
     27                                   : emAfEventStrings[eventIndex]));
     28            }
     29          
     30            // IMPORTANT:  At this point App Framework apps do blocking serial IO.
     31            // This means that flush macros are no-ops and serial data is printed
     32            // at the uart's rate.  
     33            // If there is serial data in the output queue prior to sleeping then we
     34            // may inadvertently wake up unless we force the flush of the data here.
     35            emberSerialWaitSend(APP_SERIAL);
   \                     emAfPrintSleepDuration:
   \   00000000   0x2000             MOVS     R0,#+0
   \   00000002   0x.... 0x....      B.W      emberSerialWaitSend
     36          }
     37          

   \                                 In section .text, align 2, keep-with-next
     38          void emAfPrintForceAwakeStatus(void)
     39          {
     40            if (emAfForceEndDeviceToStayAwake) {
     41              emberAfDebugPrintln("Force to Stay awake: yes");
     42            }
     43          }
   \                     emAfPrintForceAwakeStatus:
   \   00000000   0x4770             BX       LR               ;; return

   Maximum stack usage in bytes:

   .cstack Function
   ------- --------
        0  emAfPrintForceAwakeStatus
        0  emAfPrintSleepDuration
             0 -> emberSerialWaitSend


   Section sizes:

   Bytes  Function/Label
   -----  --------------
       2  emAfPrintForceAwakeStatus
       6  emAfPrintSleepDuration

 
 8 bytes in section .text
 
 8 bytes of CODE memory

Errors: none
Warnings: none
