:020000040800F2
:10000000000400206F00000885000008850000083B
:10001000A70B090100000000020221510020000886
:10002000040300002B0D000809100008FC0500085F
:100030005D07000857080008A90800088D07000898
:1000400087070008910900088F0700085E0000007C
:10005000FFFFFFFF09480068202100EA010028B1E6
:100060000748016842685FEA010D10477047FFF7D3
:10007000F1FF00F013F800F045F800002C000040FC
:100080000020000806E000005FEA000D70474448C9
:10009000008870474FF4017000F09CB838B54FF2FB
:1000A0000F04404D00F0C2F828B140F2052028802E
:1000B0006C80012032BD3C480068C00613D56888BA
:1000C000A0421CD1288840F2022188421CBF40F285
:1000D0000621884213D040F2011188421CBF40F231
:1000E000111188420BD0314C208A40F6A72188425A
:1000F00005D12068FFF7C8FF6068804700BF002077
:1001000032BD000038B5044672B629480168490876
:100110004900016000F0D0F8234800680009C107D9
:1001200054BF2449244902E0CD2201F8012B234A7F
:100130009142F9D32249234A234B03E011F8015B92
:1001400002F8015B9A42F9D32049214A002301E0D9
:1001500001F8013B9142FBD340F20521114A53883B
:100160004FF20F05AB420BD113888B4206D0C0076C
:1001700006D5180A012818BF022801D1194601E046
:1001800004B90021064801804CF23C30508000F058
:1001900007FA4FF40170BDE8324000F01BB80000D0
:1001A000B80C0020000000202C00004000200008B7
:1001B000FCED00E00000002098000020000400207A
:1001C0002812000800040020080400200804002071
:1001D000BD0C00200D4930220A600D490A600D490E
:1001E0000A600D4910220A60010A08BF00020B498B
:1001F00008804FF20F004880BFF35F8F084800214E
:1002000001604160074808490160704730200040A4
:1002100030C8004030C0004010D000400000002036
:100220001C4000400CED00E00400FA05002070477F
:1002300080B500F0E7F90121062000F0EEF9062074
:1002400000F01BFA0121072000F0E7F9072000F079
:1002500007FA1748016821F01001016001BD000094
:10026000052800D9704710B5DFE800F01721030F0B
:100270001C17104C2088411E2180C0B9072000F0B7
:1002800009FA42F21070208010BD072000F0F5F945
:100290000620BDE8104000F0FDB90620BDE8104082
:1002A00000F0DEB90620BDE8104000F0E6B910BD50
:1002B00000BC0040BA0C002006E04B48016841F049
:1002C00001010160012141604C48512101607047EA
:1002D000F8B5494C454D4FF6FF77464EB088B842C9
:1002E00027D102237F2246480188301D00F0E8F91B
:1002F000B088B84204BF0220B080A069800703D450
:10030000A06940F00200A06101207070B0882060F8
:100310000720286000206860A86035484FF0007111
:100320000160A069C00732D5E06980B348F69F40FC
:100330003CE0A0698007E3D52868C00348BF00F00F
:1003400043F8707898BBA06810F00100A168B288EB
:1003500003D10F2A08D2521C06E0890704D5F17890
:1003600011B1032A28BF521EF07092B2022A38BF80
:100370000222B2802068B1888842C5D1A06900F00D
:100380000300032818BFFFF798FF0120F2BDA06902
:10039000C00701D5E06920B1A069C00704D4E069B5
:1003A00010B144F24F6001E042F227306860002053
:1003B000F2BD80B503E040F2DC5000F0B5F9FFF784
:1003C00087FF0028F7D001BD084800214160816007
:1003D000016821F00201016005484FF000710160E1
:1003E00004480021417070471C40004010E000E0CC
:1003F00004ED00E0000400200440004000800040C4
:100400002412000800787047002101608180C180BB
:1004100001817047F8B504460D461646002710E0E6
:100420002068803020600020E08080202081A0882B
:10043000401CA080E088411CE1800019807A78553A
:100440007F1CBFB2B7420CD2E08821898842F1D329
:10045000802204F10A01206800F0FDF90028DFD0B5
:10046000F2BD0020F2BD0020704710B5044600F038
:10047000D0F82046BDE8104000F0B1BA2DE9F043B5
:10048000A5B000F093FA00F0C4F800F0E7FA0121FB
:1004900000A800F0EBFA404C04F1800500206860F1
:1004A000A86000F070F900280FBFE8608168E9607B
:1004B0004088A4F8800000A800F09CFB070046D10B
:1004C000BDF80420BDF8060000A9401800F20A0695
:1004D0005FFA82F894F8800080070FD5E96869B167
:1004E000686808EB00024B1E22EA030710B1A868F7
:1004F000B84203D2384600F04BFAAF60424631466C
:10050000686800F0D1F907000FD1424621466868BB
:1005100000F0A1F9002000E0401C404505DA015D33
:10052000825D9142F8D0832706E0686840446860A5
:10053000002FC0D01B2FBED00420FFF791FE012159
:10054000384600F0DFFA384625B0BDE8F083172FB3
:10055000F0D10020F8E770B5DAB0044636A8FFF70E
:1005600053FF012000904FF402630C4A36A901A802
:1005700000F0DBFB0FF284050FF2740600F049F87F
:10058000002C14BF3246002201A9284600F03CFD91
:100590005028F3D05AB070BD280C00200804002069
:1005A00080B5FFF706FFFFF743FE00F0D7F818B15C
:1005B0004FF40170FFF70EFE00F02BF8FFF767FD18
:1005C00040F2011188421CBF40F21111884207D04D
:1005D00040F2052188421CBF40F20321884201D12C
:1005E000012000E0002000F02FFD002002BD0000EF
:1005F0008D110008C9110008050400081504000841
:10060000670400080E48012181604EF6BE2141605A
:1006100000E00C4801210160704710B582080FF21C
:10062000280353F82220136800F0030080000F24F1
:100630008440A34301FA00F01843106010BD00008D
:10064000006000400860004000B0004004B000407E
:1006500000B4004004B4004000B8004004B80040BA
:10066000C108032908D2C1108902124A012300F0EF
:10067000070003FA00F050507047C108032908D260
:10068000C11089020C4A012300F0070003FA00F0B0
:1006900050507047C10803290BD2C110074A02EB22
:1006A00081210A68012300F0070003FA00F050409E
:1006B0000860704714B0004010B000400CB000401B
:1006C00030B583B0044610467F2808BF0020B1F53E
:1006D000004F1AD108237F2240F6120100A8FFF72D
:1006E000EFFF08220FF2380100A800F00AFD30B930
:1006F00008237F2240F2A27100A8FFF7E1FF082241
:1007000000A9204600F0E4FC37BD1A46034D2943FA
:1007100000FB0311204600F0DBFC37BD000004089D
:10072000FFFFFFFFFFFFFFFF0A490A680A4B1B6834
:10073000DB0758BF4008032809D34B6D43F0010382
:100740004B650B689B1A1B031B0B8342F9D3704745
:1007500000000000382000401C40004080B50D2102
:100760000120FFF75AFF0D210220FFF756FF8548B1
:100770000E2141610121816100210160416003215D
:100780008160002002BD0FF20C20704770470020EE
:100790007047F8B50C461546010CC90041F0A001A0
:1007A000C9B2794E326942F004023261B26812076E
:1007B000FCD53160326942F002023261B2689207C0
:1007C000FCD5B268D207EDD40204120E3260326951
:1007D00042F002023261B2689207FCD5C0B23060CA
:1007E000306940F002003061B0688007FCD53069A4
:1007F00040F004003061B0680007FCD541F0010012
:100800003060306940F002003061B0688007FCD58C
:1008100000270AE07061306940F001003061B06883
:100820004007FCD5306838557F1CAF420ADAFFF725
:10083000F0FE681E87427069B2BF40F001004008B8
:100840004000E7E7306940F008003061B068000719
:10085000FCD50020F2BDF8B504460D4616464B48BF
:1008600084423EBF37463919814201D38520F2BD0B
:1008700020040ED0200C000400F58030814208D303
:1008800020464742BFB204E0F61B3C197D19B6B2C0
:1008900037463EB13A4629462046FFF77AFF002800
:1008A000F2D0F2BD0020F2BD2DE9F843044688469F
:1008B0001646364884423ABF3119814285200ED20D
:1008C00014F07F0F06D0E009C0018030814203D3CD
:1008D000071B02E0812E04D237461EB90020BDE876
:1008E000F2838027200CC00040F0A000C0B2264D4B
:1008F000296941F004012961A9680907FCD528602C
:10090000296941F002012961A9688907FCD5A96814
:10091000C907EDD42004000E2860286940F00200C9
:100920002861A8688007FCD5E0B22860286940F0FB
:1009300002002861A8688007FCD54FF000090DE08F
:10094000FFF767FE19F808002860286940F00200E8
:100950002861A8688007FCD509F101091FFA89F907
:10096000BFB2B945ECD3286940F008002861A868F7
:100970000007FCD5F61B3C19B844B6B2812EB0D2A4
:10098000AAE700004CC000403CC00040010002004B
:100990008820704702010000000000008000000075
:1009A00000000200181200080100000080B528486D
:1009B0006821416100218161022181600121016082
:1009C00009210920FFF729FE04210A20BDE804407F
:1009D000FFF723BE1F4800684006FBD570471E493D
:1009E000CA685207FCD50860704710B5044603E09A
:1009F00014F8010BFFF7F3FF20780028F8D110BDA1
:100A000010B5044620090A282CBF37303030C0B258
:100A1000FFF7E5FF04F00F000A282CBF3730303015
:100A2000C0B2BDE81040DAE70A48006810F00200E2
:100A300018BF0120704710B50446FFF7F5FF20B13D
:100A4000054800682070002010BD012010BD000086
:100A500054C8004048C800403CC8004080B500A8C9
:100A6000FFF7E9FF0028FAD001BD00000170012264
:100A70004270827001290CBF8021402181800021B9
:100A8000C18001811D4801600E218162016821F051
:100A9000100101600021416341627047F8B50446CE
:100AA0000D46164616484FF0FF310160134FFE62A7
:100AB00000207862386840F001003860FFF7A9FD37
:100AC000012C19D16DB9FFF7AFFF78B9786AB04240
:100AD000F4D3002EF2D03868400840003860162069
:100AE000F2BD2846FFF7A7FF0028EFD1386840087D
:100AF000400038600020F2BD0120F2BD00E000405F
:100B000000A8004038B504460D4600F009F800F092
:100B100007F82A4621461820BDE83840FFF7A5BC53
:100B20002A4621461820FFF7A0BC30B583B0044602
:100B3000002020814AF6B43200A92078FFF7AEFFEA
:100B400008B11C203EBD9DF80000032818BF1828DE
:100B500001D118203EBD042801D117203EBD012837
:100B600001D021203EBD002500E06D1CEDB2A18822
:100B7000091D8D420BDA40F2DD22281900F10A012D
:100B80002078FFF78BFF0028EFD026203EBD002500
:100B9000002006E00146EDB22819007B00F0C2FA01
:100BA0006D1CA188EAB28A42F4D3A27AE37A9B1838
:100BB000FF2B01D022203EBD0B191D7BB5EB102F62
:100BC00001D023203EBD5B7BC0B2834201D02420F4
:100BD0003EBDA078824207D0401EC0B2824201D101
:100BE00027203EBD25203EBD881C20810220E080BC
:100BF00000203EBD38B504466078012804D023D3D8
:100C0000032855D018D31FE02078012811D13B25A7
:100C10004320FFF7E4FE40F2DD2200212078FFF7B9
:100C20003DFF30B12846451EC0B20028F0D11B2040
:100C300032BD0220607010E0FFF710FF00F03AF8BC
:100C4000A078401CA07008E0182032BD2278A0785F
:100C5000411EC9B20620FFF708FC2046FFF765FFDA
:100C6000050018BFFFF7FAFE272DEFD0A8060BD519
:100C70002278A1781520FFF7F8FB002DEDD1032095
:100C8000FFF7EEFA002032BD680603D4182D18BF16
:100C90001C2D07D121782846FFF734FF042060700F
:100CA000284632BD172DE8D100F004F8032060700B
:100CB000172032BD2278A1780620FFF7D6BB0000AE
:100CC000F8B504460D4616461F4607E03046A047D5
:100CD000294600F039FA05467F1E761CBFB2002F68
:100CE000F4D12846F2BD38B50C46154605E001465C
:100CF00014F8010B00F028FA6D1EADB2002DF6D1EC
:100D000032BDF8B504460D4616461F463A463146F2
:100D1000286823689847040005D13A463146E868B8
:100D2000FFF7E1FFE8602046F2BD10B5029C847237
:100D30000381426001604FF0FF31C1600021017406
:100D400010BD2DE9F84F04468B461E469BF81B70DC
:100D5000802F28BF8027D068A649884250D1002E16
:100D60004CD0B06800904FF0FF384FF000090BEB0B
:100D7000490A9AF848500FE0FF2D16D0FFF749FCBA
:100D80004FF40063E80240F0006241460098FFF72C
:100D900097FF8046681CC5B29AF84900A842EBDA72
:100DA00009F10109B9F1060FE1DBDBF844006FEA54
:100DB0000801884224D1A06800BA7A0859467368AD
:100DC0009847C8B9E06805BAA06802BA3B464FF038
:100DD000FF31B068FFF774FFC04385420CD140F685
:100DE000A720ABF81000A06800BA01220BF1100197
:100DF00010307368984708B1422002E0172000E0E5
:100E00004320BDE8F28F2DE9F84F80460D4691460C
:100E1000D5F804A02889ADF8000005F1140606F104
:100E20001007042352464046FFF76BFF002824D1E9
:100E3000BAF8000040BA1FFA80FBBAF8020040BAC4
:100E400084B2E00748BF462075D4B4F5026FC8BF2E
:100E50004E2070DC002C6DD05FEA0B000AD04FF6FC
:100E60000441BBEB010000F0AD80FF3865D0FE38D7
:100E700063D0BDE0287C08B151205CE08D2C28BFF8
:100E80004F2058D22346321D00F0BBF8002852D123
:100E9000FA7E802A28BF802202F10C00844201BF22
:100EA000B08840BA00F47F40B0F5007F3ED1F088B2
:100EB00040BA4EF25031884202BF388A40F6A7212C
:100EC000884202BF788A00F47F40B0F5807F2DD140
:100ED000B06800BA4849C969884227D14648008BA2
:100EE00040F2032188420BD1788AB0F5847F1DD36C
:100EF000F86D41051AD14149081AB0F5283F15D8B7
:100F00004FF6FF70388206F110014FF0FF30FFF707
:100F1000EAFEF16809BAC943884204BF387E042852
:100F200004D1787E032818BF062801D0452002E0AE
:100F3000012028740020BDE8F28F287C002843D0CF
:100F4000042300F05DF80028F5D1DAF8000006BAB5
:100F5000201F84B22848C069864238BF4820EAD39F
:100F6000A019796D884228BF4920E4D24FF603507A
:100F700083450DD1B9F1000F0AD031460220D9F8CE
:100F80000020904720B14A20D5E7E01B84B2BE196B
:100F9000002CCFD0BDF800008442B4BF27460746DE
:100FA0003B4600F02DF80028C5D1B9F1000FECD078
:100FB0007A0851463046D9F8043098470028E4D0E2
:100FC0004B20B8E7287C08B94120B4E7042C18BFAF
:100FD0004C20B0D104236A6800F013F80028AAD18D
:100FE0004B462A463946304601B0BDE8F04FA8E6E8
:100FF0004420A0E7E320BBDE0000000800E0020878
:101000005246294640467CE670B504460D461646D3
:101010002889C10701D4802803DA4F2070BDA87A3F
:1010200078B9324629462046FFF7EDFE0028F6D073
:10103000172807D1286861688847172802D100203F
:1010400070BD502070BD000010B504460020FFF7B1
:1010500007F924BB0020FFF77EFA50B90120FFF703
:101060007AFA30B90520FFF7FBF840F20120FFF7CC
:10107000B1F80420FFF7F4F80120FFF7F1F840F28F
:101080000320BDE81040FFF7A5B80FF23400FFF7CA
:10109000ACFCFFF79FFC40F20220FFF79BF8FFF744
:1010A000EDF90400F1D00FF22000FFF79EFC20467E
:1010B000FFF7A6FC01A0FFF798FCF0E70D0A00007F
:1010C0000D0A4F6B0D0A00000D0A45525220000018
:1010D000814212D21018401E5118491E92B2002AA5
:1010E0001EBF11F8013900F80139521EF6D17047C0
:1010F00011F8013B00F8013B521E92B2002AF7D1D1
:10110000704710B500E0521E92B232B110F8013BA8
:1011100011F8014BA342F6D001E0002010BD181BCE
:1011200040B210BD0A0242EA11214840C0F3031147
:10113000484080EA00304101C9B20206D20E41EABD
:101140000221484080B270470A0A4840C0B20821D4
:101150004308C00746BF034858401846491EF7D108
:10116000504070472083B8ED2848018A40F6A772A6
:10117000914202BF418A4FF47F40014204D10229CB
:101180008041C043C00F704700207047F8B5044647
:101190000D461D4E01203070FFF7E6FF18B94FF4E1
:1011A0000170FFF717F81948876A294644F48070E0
:1011B000B847002131700FF2580618B9294644F497
:1011C0000070B847805DF2BD2DE9F04104468846C5
:1011D0005600FFF7C9FF18B94FF40170FEF7FAFF88
:1011E0000A48476A0023324641462046B8470FF274
:1011F000200520B93346002241462046B847405DCD
:10120000BDE8F08100000000BC0C002000000408D4
:10121000000202024B4B46474D43323441413130CC
:1012200032350000EE08000000000001FFFF000062
:10123000FFFFFFFFFFFFFFFFFFFFFFFFFFFFFFFFBE
:10124000FFFFFFFFFFFFFFFFFFFFFFFFFFFFFFFFAE
:10125000FFFFFFFFFFFFFFFFFFFFFFFFFFFFFFFF9E
:10126000FFFFFFFFFFFFFFFFFFFFFFFFFFFFFFFF8E
:10127000FFFFFFFFFFFFFFFFFFFFFFFFFFFFFFFF7E
:10128000FFFFFFFFFFFFFFFFFFFFFFFFFFFFFFFF6E
:10129000FFFFFFFFFFFFFFFFFFFFFFFFFFFFFFFF5E
:1012A000FFFFFFFFFFFFFFFFFFFFFFFFFFFFFFFF4E
:1012B000FFFFFFFFFFFFFFFFFFFFFFFFFFFFFFFF3E
:1012C000FFFFFFFFFFFFFFFFFFFFFFFFFFFFFFFF2E
:1012D000FFFFFFFFFFFFFFFFFFFFFFFFFFFFFFFF1E
:1012E000FFFFFFFFFFFFFFFFFFFFFFFFFFFFFFFF0E
:1012F000FFFFFFFFFFFFFFFFFFFFFFFFFFFFFFFFFE
:10130000FFFFFFFFFFFFFFFFFFFFFFFFFFFFFFFFED
:10131000FFFFFFFFFFFFFFFFFFFFFFFFFFFFFFFFDD
:10132000FFFFFFFFFFFFFFFFFFFFFFFFFFFFFFFFCD
:10133000FFFFFFFFFFFFFFFFFFFFFFFFFFFFFFFFBD
:10134000FFFFFFFFFFFFFFFFFFFFFFFFFFFFFFFFAD
:10135000FFFFFFFFFFFFFFFFFFFFFFFFFFFFFFFF9D
:10136000FFFFFFFFFFFFFFFFFFFFFFFFFFFFFFFF8D
:10137000FFFFFFFFFFFFFFFFFFFFFFFFFFFFFFFF7D
:10138000FFFFFFFFFFFFFFFFFFFFFFFFFFFFFFFF6D
:10139000FFFFFFFFFFFFFFFFFFFFFFFFFFFFFFFF5D
:1013A000FFFFFFFFFFFFFFFFFFFFFFFFFFFFFFFF4D
:1013B000FFFFFFFFFFFFFFFFFFFFFFFFFFFFFFFF3D
:1013C000FFFFFFFFFFFFFFFFFFFFFFFFFFFFFFFF2D
:1013D000FFFFFFFFFFFFFFFFFFFFFFFFFFFFFFFF1D
:1013E000FFFFFFFFFFFFFFFFFFFFFFFFFFFFFFFF0D
:1013F000FFFFFFFFFFFFFFFFFFFFFFFFFFFFFFFFFD
:10140000FFFFFFFFFFFFFFFFFFFFFFFFFFFFFFFFEC
:10141000FFFFFFFFFFFFFFFFFFFFFFFFFFFFFFFFDC
:10142000FFFFFFFFFFFFFFFFFFFFFFFFFFFFFFFFCC
:10143000FFFFFFFFFFFFFFFFFFFFFFFFFFFFFFFFBC
:10144000FFFFFFFFFFFFFFFFFFFFFFFFFFFFFFFFAC
:10145000FFFFFFFFFFFFFFFFFFFFFFFFFFFFFFFF9C
:10146000FFFFFFFFFFFFFFFFFFFFFFFFFFFFFFFF8C
:10147000FFFFFFFFFFFFFFFFFFFFFFFFFFFFFFFF7C
:10148000FFFFFFFFFFFFFFFFFFFFFFFFFFFFFFFF6C
:10149000FFFFFFFFFFFFFFFFFFFFFFFFFFFFFFFF5C
:1014A000FFFFFFFFFFFFFFFFFFFFFFFFFFFFFFFF4C
:1014B000FFFFFFFFFFFFFFFFFFFFFFFFFFFFFFFF3C
:1014C000FFFFFFFFFFFFFFFFFFFFFFFFFFFFFFFF2C
:1014D000FFFFFFFFFFFFFFFFFFFFFFFFFFFFFFFF1C
:1014E000FFFFFFFFFFFFFFFFFFFFFFFFFFFFFFFF0C
:1014F000FFFFFFFFFFFFFFFFFFFFFFFFFFFFFFFFFC
:10150000FFFFFFFFFFFFFFFFFFFFFFFFFFFFFFFFEB
:10151000FFFFFFFFFFFFFFFFFFFFFFFFFFFFFFFFDB
:10152000FFFFFFFFFFFFFFFFFFFFFFFFFFFFFFFFCB
:10153000FFFFFFFFFFFFFFFFFFFFFFFFFFFFFFFFBB
:10154000FFFFFFFFFFFFFFFFFFFFFFFFFFFFFFFFAB
:10155000FFFFFFFFFFFFFFFFFFFFFFFFFFFFFFFF9B
:10156000FFFFFFFFFFFFFFFFFFFFFFFFFFFFFFFF8B
:10157000FFFFFFFFFFFFFFFFFFFFFFFFFFFFFFFF7B
:10158000FFFFFFFFFFFFFFFFFFFFFFFFFFFFFFFF6B
:10159000FFFFFFFFFFFFFFFFFFFFFFFFFFFFFFFF5B
:1015A000FFFFFFFFFFFFFFFFFFFFFFFFFFFFFFFF4B
:1015B000FFFFFFFFFFFFFFFFFFFFFFFFFFFFFFFF3B
:1015C000FFFFFFFFFFFFFFFFFFFFFFFFFFFFFFFF2B
:1015D000FFFFFFFFFFFFFFFFFFFFFFFFFFFFFFFF1B
:1015E000FFFFFFFFFFFFFFFFFFFFFFFFFFFFFFFF0B
:1015F000FFFFFFFFFFFFFFFFFFFFFFFFFFFFFFFFFB
:10160000FFFFFFFFFFFFFFFFFFFFFFFFFFFFFFFFEA
:10161000FFFFFFFFFFFFFFFFFFFFFFFFFFFFFFFFDA
:10162000FFFFFFFFFFFFFFFFFFFFFFFFFFFFFFFFCA
:10163000FFFFFFFFFFFFFFFFFFFFFFFFFFFFFFFFBA
:10164000FFFFFFFFFFFFFFFFFFFFFFFFFFFFFFFFAA
:10165000FFFFFFFFFFFFFFFFFFFFFFFFFFFFFFFF9A
:10166000FFFFFFFFFFFFFFFFFFFFFFFFFFFFFFFF8A
:10167000FFFFFFFFFFFFFFFFFFFFFFFFFFFFFFFF7A
:10168000FFFFFFFFFFFFFFFFFFFFFFFFFFFFFFFF6A
:10169000FFFFFFFFFFFFFFFFFFFFFFFFFFFFFFFF5A
:1016A000FFFFFFFFFFFFFFFFFFFFFFFFFFFFFFFF4A
:1016B000FFFFFFFFFFFFFFFFFFFFFFFFFFFFFFFF3A
:1016C000FFFFFFFFFFFFFFFFFFFFFFFFFFFFFFFF2A
:1016D000FFFFFFFFFFFFFFFFFFFFFFFFFFFFFFFF1A
:1016E000FFFFFFFFFFFFFFFFFFFFFFFFFFFFFFFF0A
:1016F000FFFFFFFFFFFFFFFFFFFFFFFFFFFFFFFFFA
:10170000FFFFFFFFFFFFFFFFFFFFFFFFFFFFFFFFE9
:10171000FFFFFFFFFFFFFFFFFFFFFFFFFFFFFFFFD9
:10172000FFFFFFFFFFFFFFFFFFFFFFFFFFFFFFFFC9
:10173000FFFFFFFFFFFFFFFFFFFFFFFFFFFFFFFFB9
:10174000FFFFFFFFFFFFFFFFFFFFFFFFFFFFFFFFA9
:10175000FFFFFFFFFFFFFFFFFFFFFFFFFFFFFFFF99
:10176000FFFFFFFFFFFFFFFFFFFFFFFFFFFFFFFF89
:10177000FFFFFFFFFFFFFFFFFFFFFFFFFFFFFFFF79
:10178000FFFFFFFFFFFFFFFFFFFFFFFFFFFFFFFF69
:10179000FFFFFFFFFFFFFFFFFFFFFFFFFFFFFFFF59
:1017A000FFFFFFFFFFFFFFFFFFFFFFFFFFFFFFFF49
:1017B000FFFFFFFFFFFFFFFFFFFFFFFFFFFFFFFF39
:1017C000FFFFFFFFFFFFFFFFFFFFFFFFFFFFFFFF29
:1017D000FFFFFFFFFFFFFFFFFFFFFFFFFFFFFFFF19
:1017E000FFFFFFFFFFFFFFFFFFFFFFFFFFFFFFFF09
:1017F000FFFFFFFFFFFFFFFFFFFFFFFFFFFFFFFFF9
:020000040801F1
:020000040802F0
:020000040804EE
:020000040804EE
:00000001FF
