:020000040800F2
:10000000000400206F00000885000008850000083B
:10001000A70B090100000000020221510020000886
:1000200004030000330D000811100008FC0500084F
:100030005D07000857080008A90800088D07000898
:1000400087070008990900088F0700085E00000074
:10005000FFFFFFFF09480068202100EA010028B1E6
:100060000748016842685FEA010D10477047FFF7D3
:10007000F1FF00F013F800F045F800002C000040FC
:100080000020000806E000005FEA000D70474448C9
:10009000008870474FF4017000F09CB838B54FF2FB
:1000A0000F04404D00F0C2F828B140F2052028802E
:1000B0006C80012032BD3C480068C00613D56888BA
:1000C000A0421CD1288840F2022188421CBF40F285
:1000D0000621884213D040F2011188421CBF40F231
:1000E000111188420BD0314C208A40F6A72188425A
:1000F00005D12068FFF7C8FF6068804700BF002077
:1001000032BD000038B5044672B629480168490876
:100110004900016000F0D0F8234800680009C107D9
:1001200054BF2449244902E0CD2201F8012B234A7F
:100130009142F9D32249234A234B03E011F8015B92
:1001400002F8015B9A42F9D32049214A002301E0D9
:1001500001F8013B9142FBD340F20521114A53883B
:100160004FF20F05AB420BD113888B4206D0C0076C
:1001700006D5180A012818BF022801D1194601E046
:1001800004B90021064801804CF23C30508000F058
:1001900007FA4FF40170BDE8324000F01BB80000D0
:1001A000B80C0020000000202C00004000200008B7
:1001B000FCED00E00000002098000020000400207A
:1001C0003012000800040020080400200804002069
:1001D000BD0C00200D4930220A600D490A600D490E
:1001E0000A600D4910220A60010A08BF00020B498B
:1001F00008804FF20F004880BFF35F8F084800214E
:1002000001604160074808490160704730200040A4
:1002100030C8004030C0004010D000400000002036
:100220001C4000400CED00E00400FA05002070477F
:1002300080B500F0E7F90121062000F0EEF9062074
:1002400000F01BFA0121072000F0E7F9072000F079
:1002500007FA1748016821F01001016001BD000094
:10026000052800D9704710B5DFE800F01721030F0B
:100270001C17104C2088411E2180C0B9072000F0B7
:1002800009FA42F21070208010BD072000F0F5F945
:100290000620BDE8104000F0FDB90620BDE8104082
:1002A00000F0DEB90620BDE8104000F0E6B910BD50
:1002B00000BC0040BA0C002006E04B48016841F049
:1002C00001010160012141604C48512101607047EA
:1002D000F8B5494C454D4FF6FF77464EB088B842C9
:1002E00027D102237F2246480188301D00F0E8F91B
:1002F000B088B84204BF0220B080A069800703D450
:10030000A06940F00200A06101207070B0882060F8
:100310000720286000206860A86035484FF0007111
:100320000160A069C00732D5E06980B348F69F40FC
:100330003CE0A0698007E3D52868C00348BF00F00F
:1003400043F8707898BBA06810F00100A168B288EB
:1003500003D10F2A08D2521C06E0890704D5F17890
:1003600011B1032A28BF521EF07092B2022A38BF80
:100370000222B2802068B1888842C5D1A06900F00D
:100380000300032818BFFFF798FF0120F2BDA06902
:10039000C00701D5E06920B1A069C00704D4E069B5
:1003A00010B144F24F6001E042F227306860002053
:1003B000F2BD80B503E040F2DC5000F0B5F9FFF784
:1003C00087FF0028F7D001BD084800214160816007
:1003D000016821F00201016005484FF000710160E1
:1003E00004480021417070471C40004010E000E0CC
:1003F00004ED00E0000400200440004000800040C4
:100400002C12000800787047002101608180C180B3
:1004100001817047F8B504460D461646002710E0E6
:100420002068803020600020E08080202081A0882B
:10043000401CA080E088411CE1800019807A78553A
:100440007F1CBFB2B7420CD2E08821898842F1D329
:10045000802204F10A01206800F0FDF90028DFD0B5
:10046000F2BD0020F2BD0020704710B5044600F038
:10047000D0F82046BDE8104000F0B5BA2DE9F043B1
:10048000A5B000F097FA00F0C4F800F0EBFA0121F3
:1004900000A800F0EFFA404C04F1800500206860ED
:1004A000A86000F070F900280FBFE8608168E9607B
:1004B0004088A4F8800000A800F0A0FB070046D107
:1004C000BDF80420BDF8060000A9401800F20A0695
:1004D0005FFA82F894F8800080070FD5E96869B167
:1004E000686808EB00024B1E22EA030710B1A868F7
:1004F000B84203D2384600F04FFAAF604246314668
:10050000686800F0D1F907000FD1424621466868BB
:1005100000F0A1F9002000E0401C404505DA015D33
:10052000825D9142F8D0832706E0686840446860A5
:10053000002FC0D01B2FBED00420FFF791FE012159
:10054000384600F0E3FA384625B0BDE8F083172FAF
:10055000F0D10020F8E770B5DAB0044636A8FFF70E
:1005600053FF012000904FF402630C4A36A901A802
:1005700000F0DFFB0FF284050FF2740600F049F87B
:10058000002C14BF3246002201A9284600F040FD8D
:100590005028F3D05AB070BD280C00200804002069
:1005A00080B5FFF706FFFFF743FE00F0D7F818B15C
:1005B0004FF40170FFF70EFE00F02BF8FFF767FD18
:1005C00040F2011188421CBF40F21111884207D04D
:1005D00040F2052188421CBF40F20321884201D12C
:1005E000012000E0002000F033FD002002BD0000EB
:1005F00095110008D1110008050400081504000831
:10060000670400080E48012181604EF6BE2141605A
:1006100000E00C4801210160704710B582080FF21C
:10062000280353F82220136800F0030080000F24F1
:100630008440A34301FA00F01843106010BD00008D
:10064000006000400860004000B0004004B000407E
:1006500000B4004004B4004000B8004004B80040BA
:10066000C108032908D2C1108902124A012300F0EF
:10067000070003FA00F050507047C108032908D260
:10068000C11089020C4A012300F0070003FA00F0B0
:1006900050507047C10803290BD2C110074A02EB22
:1006A00081210A68012300F0070003FA00F050409E
:1006B0000860704714B0004010B000400CB000401B
:1006C00030B583B0044610467F2808BF0020B1F53E
:1006D000004F1AD108237F2240F6120100A8FFF72D
:1006E000EFFF08220FF2380100A800F00EFD30B92C
:1006F00008237F2240F2A27100A8FFF7E1FF082241
:1007000000A9204600F0E8FC37BD1A46034D2943F6
:1007100000FB0311204600F0DFFC37BD0000040899
:10072000FFFFFFFFFFFFFFFF0A490A680A4B1B6834
:10073000DB0758BF4008032809D34B6D43F0010382
:100740004B650B689B1A1B031B0B8342F9D3704745
:1007500000000000382000401C40004080B50D2102
:100760000120FFF75AFF0D210220FFF756FF8748AF
:100770000E2141610121816100210160416003215D
:100780008160002002BD0FF21420704770470020E6
:100790007047F8B50C461546010C490041F0A80118
:1007A000C9B27B4E326942F004023261B26812076C
:1007B000FCD53160326942F002023261B2689207C0
:1007C000FCD5B268D207EDD40204120E3260326951
:1007D00042F002023261B2689207FCD5C0B23060CA
:1007E000306940F002003061B0688007FCD53069A4
:1007F00040F004003061B0680007FCD541F0010012
:100800003060306940F002003061B0688007FCD58C
:1008100000270AE07061306940F001003061B06883
:100820004007FCD5306838557F1CAF420ADAFFF725
:10083000F0FE681E87427069B2BF40F001004008B8
:100840004000E7E7306940F008003061B068000719
:10085000FCD50020F2BDF8B504460D4616464D48BD
:1008600084423EBF37463919814201D38520F2BD0B
:1008700020040ED0200C000400F58030814208D303
:1008800020464742BFB204E0F61B3C197D19B6B2C0
:1008900037463EB13A4629462046FFF77AFF002800
:1008A000F2D0F2BD0020F2BD2DE9F84F0446894692
:1008B0001646384884423ABF31198142852012D207
:1008C00040F2011A4FF48078200607D0200A000277
:1008D00000F58070814203D3051B02E0564504D227
:1008E00035461EB90020BDE8F28F4546200C400079
:1008F00040F0A800C0B2264F396941F004013961C7
:10090000B9680907FCD53860396941F002013961DD
:10091000B9688907FCD5B968C907EDD42004000E71
:100920003860386940F002003861B8688007FCD54B
:10093000E0B23860386940F002003861B86880077A
:10094000FCD54FF0000B0DE0FFF763FE1BF809002C
:100950003860386940F002003861B8688007FCD51B
:100960000BF1010B1FFA8BFBADB2AB45ECD3386931
:1009700040F008003861B8680007FCD5761B2C19D8
:10098000A944B6B25645B0D2AAE700004CC0004018
:100990003CC00040010004008820704702010000B4
:1009A0000000000000010000000004002012000808
:1009B0000100000080B52848682141610021816163
:1009C000022181600121016009210920FFF725FE34
:1009D00004210A20BDE80440FFF71FBE1F4800683D
:1009E0004006FBD570471E49CA685207FCD508600F
:1009F000704710B5044603E014F8010BFFF7F3FF4E
:100A000020780028F8D110BD10B5044620090A2826
:100A10002CBF37303030C0B2FFF7E5FF04F00F00D5
:100A20000A282CBF37303030C0B2BDE81040DAE7BA
:100A30000A48006810F0020018BF0120704710B586
:100A40000446FFF7F5FF20B105480068207000203C
:100A500010BD012010BD000054C8004048C800402F
:100A60003CC8004080B500A8FFF7E9FF0028FAD095
:100A700001BD0000017001224270827001290CBF8B
:100A80008021402181800021C18001811D480160B9
:100A90000E218162016821F0100101600021416393
:100AA00041627047F8B504460D46164616484FF0A9
:100AB000FF310160134FFE6200207862386840F019
:100AC00001003860FFF7A5FD012C19D16DB9FFF7C2
:100AD000AFFF78B9786AB042F4D3002EF2D038680C
:100AE0004008400038601620F2BD2846FFF7A7FFF7
:100AF0000028EFD138684008400038600020F2BD7F
:100B00000120F2BD00E0004000A8004038B50446D6
:100B10000D4600F009F800F007F82A462146182093
:100B2000BDE83840FFF7A1BC2A4621461820FFF750
:100B30009CBC30B583B00446002020814AF6B43214
:100B400000A92078FFF7AEFF08B11C203EBD9DF83C
:100B50000000032818BF182801D118203EBD042822
:100B600001D117203EBD012801D021203EBD002526
:100B700000E06D1CEDB2A188091D8D420BDA40F238
:100B8000DD22281900F10A012078FFF78BFF0028E9
:100B9000EFD026203EBD0025002006E00146EDB244
:100BA0002819007B00F0C2FA6D1CA188EAB28A42C3
:100BB000F4D3A27AE37A9B18FF2B01D022203EBD0A
:100BC0000B191D7BB5EB102F01D023203EBD5B7BA5
:100BD000C0B2834201D024203EBDA078824207D01B
:100BE000401EC0B2824201D127203EBD25203EBD1D
:100BF000881C20810220E08000203EBD38B50446DC
:100C00006078012804D023D3032855D018D31FE0DF
:100C10002078012811D13B254320FFF7E4FE40F264
:100C2000DD2200212078FFF73DFF30B12846451E28
:100C3000C0B20028F0D11B2032BD0220607010E04D
:100C4000FFF710FF00F03AF8A078401CA07008E011
:100C5000182032BD2278A078411EC9B20620FFF7C5
:100C600004FC2046FFF765FF050018BFFFF7FAFEFA
:100C7000272DEFD0A8060BD52278A1781520FFF7F5
:100C8000F4FB002DEDD10320FFF7EAFA002032BD7E
:100C9000680603D4182D18BF1C2D07D121782846CB
:100CA000FFF734FF04206070284632BD172DE8D1CD
:100CB00000F004F803206070172032BD2278A1787C
:100CC0000620FFF7D2BB0000F8B504460D461646D5
:100CD0001F4607E03046A047294600F039FA05468E
:100CE0007F1E761CBFB2002FF4D12846F2BD38B566
:100CF0000C46154605E0014614F8010B00F028FAF1
:100D00006D1EADB2002DF6D132BDF8B504460D46CC
:100D100016461F463A46314628682368984704001D
:100D200005D13A463146E868FFF7E1FFE860204622
:100D3000F2BD10B5029C84720381426001604FF0E5
:100D4000FF31C1600021017410BD2DE9F84F044648
:100D50008B461E469BF81B70802F28BF8027D068CB
:100D6000A649884250D1002E4CD0B06800904FF078
:100D7000FF384FF000090BEB490A9AF848500FE092
:100D8000FF2D16D0FFF745FC4FF40063E80240F05A
:100D9000006241460098FFF797FF8046681CC5B285
:100DA0009AF84900A842EBDA09F10109B9F1060FF6
:100DB000E1DBDBF844006FEA0801884224D1A06837
:100DC00000BA7A08594673689847C8B9E06805BA06
:100DD000A06802BA3B464FF0FF31B068FFF774FFDE
:100DE000C04385420CD140F6A720ABF81000A068A4
:100DF00000BA01220BF1100110307368984708B156
:100E0000422002E0172000E04320BDE8F28F2DE9E8
:100E1000F84F80460D469146D5F804A02889ADF8D4
:100E2000000005F1140606F110070423524640465F
:100E3000FFF76BFF002824D1BAF8000040BA1FFA70
:100E400080FBBAF8020040BA84B2E00748BF4620EF
:100E500075D4B4F5026FC8BF4E2070DC002C6DD085
:100E60005FEA0B000AD04FF60441BBEB010000F033
:100E7000AD80FF3865D0FE3863D0BDE0287C08B176
:100E800051205CE08D2C28BF4F2058D22346321DC4
:100E900000F0BBF8002852D1FA7E802A28BF8022B9
:100EA00002F10C00844201BFB08840BA00F47F40D8
:100EB000B0F5007F3ED1F08840BA4EF25031884202
:100EC00002BF388A40F6A721884202BF788A00F420
:100ED0007F40B0F5807F2DD1B06800BA4849C9691C
:100EE000884227D14648008B40F2032188420BD12B
:100EF000788AB0F5847F1DD3F86D41051AD1414938
:100F0000081AB0F5283F15D84FF6FF70388206F161
:100F100010014FF0FF30FFF7EAFEF16809BAC9434C
:100F2000884204BF387E042804D1787E032818BF85
:100F3000062801D0452002E0012028740020BDE8E9
:100F4000F28F287C002843D0042300F05DF80028AD
:100F5000F5D1DAF8000006BA201F84B22848C0692B
:100F6000864238BF4820EAD3A019796D884228BF4D
:100F70004920E4D24FF6035083450DD1B9F1000F5B
:100F80000AD031460220D9F80020904720B14A20EB
:100F9000D5E7E01B84B2BE19002CCFD0BDF800000D
:100FA0008442B4BF274607463B4600F02DF8002890
:100FB000C5D1B9F1000FECD07A0851463046D9F8C6
:100FC000043098470028E4D04B20B8E7287C08B9C3
:100FD0004120B4E7042C18BF4C20B0D104236A6828
:100FE00000F013F80028AAD14B462A46394630466D
:100FF00001B0BDE8F04FA8E64420A0E7E320BBDE47
:101000000000000800E002085246294640467CE6FF
:1010100070B504460D4616462889C10701D48028BC
:1010200003DA4F2070BDA87A78B9324629462046A7
:10103000FFF7EDFE0028F6D0172807D12868616871
:101040008847172802D1002070BD502070BD0000D5
:1010500010B504460020FFF703F924BB0020FFF77A
:101060007AFA50B90120FFF776FA30B90520FFF778
:10107000F7F840F20120FFF7ADF80420FFF7F0F891
:101080000120FFF7EDF840F20320BDE81040FFF724
:10109000A1B80FF23400FFF7ACFCFFF79FFC40F261
:1010A0000220FFF797F8FFF7E9F90400F1D00FF2FB
:1010B0002000FFF79EFC2046FFF7A6FC01A0FFF7EB
:1010C00098FCF0E70D0A00000D0A4F6B0D0A0000B6
:1010D0000D0A455252200000814212D21018401EC3
:1010E0005118491E92B2002A1EBF11F8013900F8AA
:1010F0000139521EF6D1704711F8013B00F8013B4F
:10110000521E92B2002AF7D1704710B500E0521E6D
:1011100092B232B110F8013B11F8014BA342F6D064
:1011200001E0002010BD181B40B210BD0A0242EAC7
:1011300011214840C0F30311484080EA00304101CA
:10114000C9B20206D20E41EA0221484080B270477D
:101150000A0A4840C0B208214308C00746BF0348F6
:1011600058401846491EF7D1504070472083B8EDCB
:101170002848018A40F6A772914202BF418A4FF483
:101180007F40014204D102298041C043C00F704713
:1011900000207047F8B504460D461D4E0120307002
:1011A000FFF7E6FF18B94FF40170FFF713F819487D
:1011B000876A294644F48070B847002131700FF2E5
:1011C000580618B9294644F40070B847805DF2BD4E
:1011D0002DE9F041044688465600FFF7C9FF18B9CB
:1011E0004FF40170FEF7F6FF0A48476A00233246C3
:1011F00041462046B8470FF2200520B93346002269
:1012000041462046B847405DBDE8F081000000003F
:10121000BC0C002000000408000202024B4B4647B1
:1012200053544D32344D303200000000EE080000BF
:1012300000000001FFFF0000FFFFFFFFFFFFFFFFB7
:10124000FFFFFFFFFFFFFFFFFFFFFFFFFFFFFFFFAE
:10125000FFFFFFFFFFFFFFFFFFFFFFFFFFFFFFFF9E
:10126000FFFFFFFFFFFFFFFFFFFFFFFFFFFFFFFF8E
:10127000FFFFFFFFFFFFFFFFFFFFFFFFFFFFFFFF7E
:10128000FFFFFFFFFFFFFFFFFFFFFFFFFFFFFFFF6E
:10129000FFFFFFFFFFFFFFFFFFFFFFFFFFFFFFFF5E
:1012A000FFFFFFFFFFFFFFFFFFFFFFFFFFFFFFFF4E
:1012B000FFFFFFFFFFFFFFFFFFFFFFFFFFFFFFFF3E
:1012C000FFFFFFFFFFFFFFFFFFFFFFFFFFFFFFFF2E
:1012D000FFFFFFFFFFFFFFFFFFFFFFFFFFFFFFFF1E
:1012E000FFFFFFFFFFFFFFFFFFFFFFFFFFFFFFFF0E
:1012F000FFFFFFFFFFFFFFFFFFFFFFFFFFFFFFFFFE
:10130000FFFFFFFFFFFFFFFFFFFFFFFFFFFFFFFFED
:10131000FFFFFFFFFFFFFFFFFFFFFFFFFFFFFFFFDD
:10132000FFFFFFFFFFFFFFFFFFFFFFFFFFFFFFFFCD
:10133000FFFFFFFFFFFFFFFFFFFFFFFFFFFFFFFFBD
:10134000FFFFFFFFFFFFFFFFFFFFFFFFFFFFFFFFAD
:10135000FFFFFFFFFFFFFFFFFFFFFFFFFFFFFFFF9D
:10136000FFFFFFFFFFFFFFFFFFFFFFFFFFFFFFFF8D
:10137000FFFFFFFFFFFFFFFFFFFFFFFFFFFFFFFF7D
:10138000FFFFFFFFFFFFFFFFFFFFFFFFFFFFFFFF6D
:10139000FFFFFFFFFFFFFFFFFFFFFFFFFFFFFFFF5D
:1013A000FFFFFFFFFFFFFFFFFFFFFFFFFFFFFFFF4D
:1013B000FFFFFFFFFFFFFFFFFFFFFFFFFFFFFFFF3D
:1013C000FFFFFFFFFFFFFFFFFFFFFFFFFFFFFFFF2D
:1013D000FFFFFFFFFFFFFFFFFFFFFFFFFFFFFFFF1D
:1013E000FFFFFFFFFFFFFFFFFFFFFFFFFFFFFFFF0D
:1013F000FFFFFFFFFFFFFFFFFFFFFFFFFFFFFFFFFD
:10140000FFFFFFFFFFFFFFFFFFFFFFFFFFFFFFFFEC
:10141000FFFFFFFFFFFFFFFFFFFFFFFFFFFFFFFFDC
:10142000FFFFFFFFFFFFFFFFFFFFFFFFFFFFFFFFCC
:10143000FFFFFFFFFFFFFFFFFFFFFFFFFFFFFFFFBC
:10144000FFFFFFFFFFFFFFFFFFFFFFFFFFFFFFFFAC
:10145000FFFFFFFFFFFFFFFFFFFFFFFFFFFFFFFF9C
:10146000FFFFFFFFFFFFFFFFFFFFFFFFFFFFFFFF8C
:10147000FFFFFFFFFFFFFFFFFFFFFFFFFFFFFFFF7C
:10148000FFFFFFFFFFFFFFFFFFFFFFFFFFFFFFFF6C
:10149000FFFFFFFFFFFFFFFFFFFFFFFFFFFFFFFF5C
:1014A000FFFFFFFFFFFFFFFFFFFFFFFFFFFFFFFF4C
:1014B000FFFFFFFFFFFFFFFFFFFFFFFFFFFFFFFF3C
:1014C000FFFFFFFFFFFFFFFFFFFFFFFFFFFFFFFF2C
:1014D000FFFFFFFFFFFFFFFFFFFFFFFFFFFFFFFF1C
:1014E000FFFFFFFFFFFFFFFFFFFFFFFFFFFFFFFF0C
:1014F000FFFFFFFFFFFFFFFFFFFFFFFFFFFFFFFFFC
:10150000FFFFFFFFFFFFFFFFFFFFFFFFFFFFFFFFEB
:10151000FFFFFFFFFFFFFFFFFFFFFFFFFFFFFFFFDB
:10152000FFFFFFFFFFFFFFFFFFFFFFFFFFFFFFFFCB
:10153000FFFFFFFFFFFFFFFFFFFFFFFFFFFFFFFFBB
:10154000FFFFFFFFFFFFFFFFFFFFFFFFFFFFFFFFAB
:10155000FFFFFFFFFFFFFFFFFFFFFFFFFFFFFFFF9B
:10156000FFFFFFFFFFFFFFFFFFFFFFFFFFFFFFFF8B
:10157000FFFFFFFFFFFFFFFFFFFFFFFFFFFFFFFF7B
:10158000FFFFFFFFFFFFFFFFFFFFFFFFFFFFFFFF6B
:10159000FFFFFFFFFFFFFFFFFFFFFFFFFFFFFFFF5B
:1015A000FFFFFFFFFFFFFFFFFFFFFFFFFFFFFFFF4B
:1015B000FFFFFFFFFFFFFFFFFFFFFFFFFFFFFFFF3B
:1015C000FFFFFFFFFFFFFFFFFFFFFFFFFFFFFFFF2B
:1015D000FFFFFFFFFFFFFFFFFFFFFFFFFFFFFFFF1B
:1015E000FFFFFFFFFFFFFFFFFFFFFFFFFFFFFFFF0B
:1015F000FFFFFFFFFFFFFFFFFFFFFFFFFFFFFFFFFB
:10160000FFFFFFFFFFFFFFFFFFFFFFFFFFFFFFFFEA
:10161000FFFFFFFFFFFFFFFFFFFFFFFFFFFFFFFFDA
:10162000FFFFFFFFFFFFFFFFFFFFFFFFFFFFFFFFCA
:10163000FFFFFFFFFFFFFFFFFFFFFFFFFFFFFFFFBA
:10164000FFFFFFFFFFFFFFFFFFFFFFFFFFFFFFFFAA
:10165000FFFFFFFFFFFFFFFFFFFFFFFFFFFFFFFF9A
:10166000FFFFFFFFFFFFFFFFFFFFFFFFFFFFFFFF8A
:10167000FFFFFFFFFFFFFFFFFFFFFFFFFFFFFFFF7A
:10168000FFFFFFFFFFFFFFFFFFFFFFFFFFFFFFFF6A
:10169000FFFFFFFFFFFFFFFFFFFFFFFFFFFFFFFF5A
:1016A000FFFFFFFFFFFFFFFFFFFFFFFFFFFFFFFF4A
:1016B000FFFFFFFFFFFFFFFFFFFFFFFFFFFFFFFF3A
:1016C000FFFFFFFFFFFFFFFFFFFFFFFFFFFFFFFF2A
:1016D000FFFFFFFFFFFFFFFFFFFFFFFFFFFFFFFF1A
:1016E000FFFFFFFFFFFFFFFFFFFFFFFFFFFFFFFF0A
:1016F000FFFFFFFFFFFFFFFFFFFFFFFFFFFFFFFFFA
:10170000FFFFFFFFFFFFFFFFFFFFFFFFFFFFFFFFE9
:10171000FFFFFFFFFFFFFFFFFFFFFFFFFFFFFFFFD9
:10172000FFFFFFFFFFFFFFFFFFFFFFFFFFFFFFFFC9
:10173000FFFFFFFFFFFFFFFFFFFFFFFFFFFFFFFFB9
:10174000FFFFFFFFFFFFFFFFFFFFFFFFFFFFFFFFA9
:10175000FFFFFFFFFFFFFFFFFFFFFFFFFFFFFFFF99
:10176000FFFFFFFFFFFFFFFFFFFFFFFFFFFFFFFF89
:10177000FFFFFFFFFFFFFFFFFFFFFFFFFFFFFFFF79
:10178000FFFFFFFFFFFFFFFFFFFFFFFFFFFFFFFF69
:10179000FFFFFFFFFFFFFFFFFFFFFFFFFFFFFFFF59
:1017A000FFFFFFFFFFFFFFFFFFFFFFFFFFFFFFFF49
:1017B000FFFFFFFFFFFFFFFFFFFFFFFFFFFFFFFF39
:1017C000FFFFFFFFFFFFFFFFFFFFFFFFFFFFFFFF29
:1017D000FFFFFFFFFFFFFFFFFFFFFFFFFFFFFFFF19
:1017E000FFFFFFFFFFFFFFFFFFFFFFFFFFFFFFFF09
:1017F000FFFFFFFFFFFFFFFFFFFFFFFFFFFFFFFFF9
:020000040801F1
:020000040802F0
:020000040804EE
:020000040804EE
:00000001FF
