:020000040800F2
:10000000000400206F00000885000008850000083B
:10001000A70B090100000000010221510020000887
:10002000040300007B0D000859100008FC050008BF
:10003000830700080709000869090008F10700089C
:10004000CD070008E1090008D30700085E000000A2
:10005000FFFFFFFF09480068202100EA010028B1E6
:100060000748016842685FEA010D10477047FFF7D3
:10007000F1FF00F013F800F045F800002C000040FC
:100080000020000806E000005FEA000D70474448C9
:10009000008870474FF4017000F09CB838B54FF2FB
:1000A0000F04404D00F0C2F828B140F2052028802E
:1000B0006C80012032BD3C480068C00613D56888BA
:1000C000A0421CD1288840F2022188421CBF40F285
:1000D0000621884213D040F2011188421CBF40F231
:1000E000111188420BD0314C208A40F6A72188425A
:1000F00005D12068FFF7C8FF6068804700BF002077
:1001000032BD000038B5044672B629480168490876
:100110004900016000F0D0F8234800680009C107D9
:1001200054BF2449244902E0CD2201F8012B234A7F
:100130009142F9D32249234A234B03E011F8015B92
:1001400002F8015B9A42F9D32049214A002301E0D9
:1001500001F8013B9142FBD340F20521114A53883B
:100160004FF20F05AB420BD113888B4206D0C0076C
:1001700006D5180A012818BF022801D1194601E046
:1001800004B90021064801804CF23C30508000F058
:1001900007FA4FF40170BDE8324000F01BB80000D0
:1001A000B80C0020000000202C00004000200008B7
:1001B000FCED00E00000002098000020000400207A
:1001C0007812000800040020080400200804002021
:1001D000BD0C00200D4930220A600D490A600D490E
:1001E0000A600D4910220A60010A08BF00020B498B
:1001F00008804FF20F004880BFF35F8F084800214E
:1002000001604160074808490160704730200040A4
:1002100030C8004030C0004010D000400000002036
:100220001C4000400CED00E00400FA05002070477F
:1002300080B500F0E7F90121062000F0EEF9062074
:1002400000F01BFA0121072000F0E7F9072000F079
:1002500007FA1748016821F01001016001BD000094
:10026000052800D9704710B5DFE800F01721030F0B
:100270001C17104C2088411E2180C0B9072000F0B7
:1002800009FA42F21070208010BD072000F0F5F945
:100290000620BDE8104000F0FDB90620BDE8104082
:1002A00000F0DEB90620BDE8104000F0E6B910BD50
:1002B00000BC0040BA0C002006E04B48016841F049
:1002C00001010160012141604C48512101607047EA
:1002D000F8B5494C454D4FF6FF77464EB088B842C9
:1002E00027D102237F2246480188301D00F0E8F91B
:1002F000B088B84204BF0220B080A069800703D450
:10030000A06940F00200A06101207070B0882060F8
:100310000720286000206860A86035484FF0007111
:100320000160A069C00732D5E06980B348F69F40FC
:100330003CE0A0698007E3D52868C00348BF00F00F
:1003400043F8707898BBA06810F00100A168B288EB
:1003500003D10F2A08D2521C06E0890704D5F17890
:1003600011B1032A28BF521EF07092B2022A38BF80
:100370000222B2802068B1888842C5D1A06900F00D
:100380000300032818BFFFF798FF0120F2BDA06902
:10039000C00701D5E06920B1A069C00704D4E069B5
:1003A00010B144F24F6001E042F227306860002053
:1003B000F2BD80B503E040F2DC5000F0B5F9FFF784
:1003C00087FF0028F7D001BD084800214160816007
:1003D000016821F00201016005484FF000710160E1
:1003E00004480021417070471C40004010E000E0CC
:1003F00004ED00E0000400200440004000800040C4
:100400007412000800787047002101608180C1806B
:1004100001817047F8B504460D461646002710E0E6
:100420002068803020600020E08080202081A0882B
:10043000401CA080E088411CE1800019807A78553A
:100440007F1CBFB2B7420CD2E08821898842F1D329
:10045000802204F10A01206800F055FA0028DFD05C
:10046000F2BD0020F2BD0020704710B5044600F038
:10047000D0F82046BDE8104000F0D9BA2DE9F0438D
:10048000A5B000F0BBFA00F0C4F800F00FFB0121AA
:1004900000A800F013FB404C04F1800500206860C8
:1004A000A86000F093F900280FBFE8608168E96058
:1004B0004088A4F8800000A800F0C4FB070046D1E3
:1004C000BDF80420BDF8060000A9401800F20A0695
:1004D0005FFA82F894F8800080070FD5E96869B167
:1004E000686808EB00024B1E22EA030710B1A868F7
:1004F000B84203D2384600F073FAAF604246314644
:10050000686800F031FA07000FD14246214668685A
:1005100000F0F9F9002000E0401C404505DA015DDB
:10052000825D9142F8D0832706E0686840446860A5
:10053000002FC0D01B2FBED00420FFF791FE012159
:10054000384600F007FB384625B0BDE8F083172F8A
:10055000F0D10020F8E770B5DAB0044636A8FFF70E
:1005600053FF012000904FF402630C4A36A901A802
:1005700000F003FC0FF284050FF2740600F049F856
:10058000002C14BF3246002201A9284600F064FD69
:100590005028F3D05AB070BD280C00200804002069
:1005A00080B5FFF706FFFFF743FE00F0EAF818B149
:1005B0004FF40170FFF70EFE00F02BF8FFF767FD18
:1005C00040F2011188421CBF40F21111884207D04D
:1005D00040F2052188421CBF40F20321884201D12C
:1005E000012000E0002000F057FD002002BD0000C7
:1005F000DD110008191200080504000815040008A0
:10060000670400080E48012181604EF6BE2141605A
:1006100000E00C4801210160704710B582080FF21C
:10062000280353F82220136800F0030080000F24F1
:100630008440A34301FA00F01843106010BD00008D
:10064000006000400860004000B0004004B000407E
:1006500000B4004004B4004000B8004004B80040BA
:10066000C108032908D2C1108902124A012300F0EF
:10067000070003FA00F050507047C108032908D260
:10068000C11089020C4A012300F0070003FA00F0B0
:1006900050507047C10803290BD2C110074A02EB22
:1006A00081210A68012300F0070003FA00F050409E
:1006B0000860704714B0004010B000400CB000401B
:1006C00030B583B0044610467F2808BF0020B1F53E
:1006D000004F1AD108237F2240F6120100A8FFF72D
:1006E000EFFF08220FF2380100A800F032FD30B908
:1006F00008237F2240F2A27100A8FFF7E1FF082241
:1007000000A9204600F00CFD37BD1A46034D2943D1
:1007100000FB0311204600F003FD37BD0000040874
:10072000FFFFFFFFFFFFFFFF0A490A680A4B1B6834
:10073000DB0758BF4008032809D34B6D43F0010382
:100740004B650B689B1A1B031B0B8342F9D3704745
:1007500000000000382000401C4000409B49086019
:1007600048680007FCD5086870479849FF20086072
:100770004A681207FCD54A68920748BF0868C0B2A9
:10078000704710B5924C41F6491020609148002105
:10079000C16001614160102141600221016044F6A5
:1007A0002060FFF7C1FF606940F0080060619F2092
:1007B000FFF7D4FFFFF7D9FF216941F0080121615C
:1007C0001F2801D1002010BD862010BD0FF214207B
:1007D00070470020704710B500F045F8D720FFF7AC
:1007E000BDFFFFF7C2FF216841F00801216010BD85
:1007F00080B5FFF7F0FF8028FBD301BDF8B50546B3
:100800000E461746FFF7E7FF8028FBD300F02BF8D2
:10081000D220FFF7A3FF6802000EFFF79FFF280A10
:100820004006000EFFF79AFFE8B2FFF797FF00F0CF
:1008300018F800F016F800F014F800F012F805E0CF
:10084000FFF7E7FEFFF791FF06F8010B3846471E5A
:1008500080B20028F4D1206840F008002060002019
:10086000F2BD00207AE75C4C606840F008006060F0
:1008700070472DE9F843064688469146FFF7ABFFDF
:100880008028FBD3300A4400F50B534FB9F5807F25
:1008900017D2786840F0080078605320FFF75EFFB9
:1008A000E8B2FFF75BFFE0B2FFF758FFF0B2FFF7E7
:1008B00055FF386840F008003860FFF78CFF80284B
:1008C000FBD3786840F0080078608220FFF746FF8D
:1008D000E8B2FFF743FFE0B2FFF740FFF0B203E0FA
:1008E000FFF797FE18F8010BFFF738FF4846A0F115
:1008F000010980B20028F3D1386840F00800386060
:100900000020BDE8F2832DE9F84304460D46164663
:10091000324884423ABF31198142852012D240F2D6
:1009200001194FF48078200607D0200A000200F554
:100930008070814203D3071B02E04E4504D2374644
:100940001EB90020BDE8F2834746BAB229462046C8
:10095000FFF754FF0028F5D1F61BB8B20444054454
:10096000B6B24E45F0D2EAE72DE9F84304460D460B
:1009700016461A4884423ABF31198142852012D264
:1009800040F201194FF48078200607D0200A0002B7
:1009900000F58070814203D3071B02E04E4504D26C
:1009A00037461EB90020BDE8F2834746BAB2294651
:1009B0002046FFF75EFF0028F5D1F61BB8B20444CD
:1009C0000544B6B24E45F0D2EAE700003CC0004014
:1009D00000B0004054C0004010B0004001000400CE
:1009E00088207047020100000000000000010000A4
:1009F00000000400681200080100000080B52848CB
:100A00006821416100218161022181600121016031
:100A100009210920FFF701FE04210A20BDE8044056
:100A2000FFF7FBBD1F4800684006FBD570471E4915
:100A3000CA685207FCD50860704710B5044603E049
:100A400014F8010BFFF7F3FF20780028F8D110BD50
:100A500010B5044620090A282CBF37303030C0B208
:100A6000FFF7E5FF04F00F000A282CBF37303030C5
:100A7000C0B2BDE81040DAE70A48006810F0020092
:100A800018BF0120704710B50446FFF7F5FF20B1ED
:100A9000054800682070002010BD012010BD000036
:100AA00054C8004048C800403CC8004080B500A879
:100AB000FFF7E9FF0028FAD001BD00000170012214
:100AC0004270827001290CBF802140218180002169
:100AD000C18001811D4801600E218162016821F001
:100AE000100101600021416341627047F8B504467E
:100AF0000D46164616484FF0FF310160134FFE6257
:100B000000207862386840F001003860FFF781FD0E
:100B1000012C19D16DB9FFF7AFFF78B9786AB042EF
:100B2000F4D3002EF2D03868400840003860162018
:100B3000F2BD2846FFF7A7FF0028EFD1386840082C
:100B4000400038600020F2BD0120F2BD00E000400E
:100B500000A8004038B504460D4600F009F800F042
:100B600007F82A4621461820BDE83840FFF77DBC2B
:100B70002A4621461820FFF778BC30B583B00446DA
:100B8000002020814AF6B43200A92078FFF7AEFF9A
:100B900008B11C203EBD9DF80000032818BF18288E
:100BA00001D118203EBD042801D117203EBD0128E7
:100BB00001D021203EBD002500E06D1CEDB2A188D2
:100BC000091D8D420BDA40F2DD22281900F10A01DD
:100BD0002078FFF78BFF0028EFD026203EBD0025B0
:100BE000002006E00146EDB22819007B00F0C2FAB1
:100BF0006D1CA188EAB28A42F4D3A27AE37A9B18E8
:100C0000FF2B01D022203EBD0B191D7BB5EB102F11
:100C100001D023203EBD5B7BC0B2834201D02420A3
:100C20003EBDA078824207D0401EC0B2824201D1B0
:100C300027203EBD25203EBD881C20810220E0806B
:100C400000203EBD38B504466078012804D023D387
:100C5000032855D018D31FE02078012811D13B2557
:100C60004320FFF7E4FE40F2DD2200212078FFF769
:100C70003DFF30B12846451EC0B20028F0D11B20F0
:100C800032BD0220607010E0FFF710FF00F03AF86C
:100C9000A078401CA07008E0182032BD2278A0780F
:100CA000411EC9B20620FFF7E0FB2046FFF765FFB3
:100CB000050018BFFFF7FAFE272DEFD0A8060BD5C9
:100CC0002278A1781520FFF7D0FB002DEDD103206D
:100CD000FFF7C6FA002032BD680603D4182D18BFEE
:100CE0001C2D07D121782846FFF734FF04206070BF
:100CF000284632BD172DE8D100F004F803206070BB
:100D0000172032BD2278A1780620FFF7AEBB000085
:100D1000F8B504460D4616461F4607E03046A04784
:100D2000294600F039FA05467F1E761CBFB2002F17
:100D3000F4D12846F2BD38B50C46154605E001460B
:100D400014F8010B00F028FA6D1EADB2002DF6D19B
:100D500032BDF8B504460D4616461F463A463146A2
:100D6000286823689847040005D13A463146E86868
:100D7000FFF7E1FFE8602046F2BD10B5029C8472E7
:100D80000381426001604FF0FF31C16000210174B6
:100D900010BD2DE9F84F04468B461E469BF81B708C
:100DA000802F28BF8027D068A649884250D1002EC6
:100DB0004CD0B06800904FF0FF384FF000090BEBBB
:100DC000490A9AF848500FE0FF2D16D0FFF721FC92
:100DD0004FF40063E80240F0006241460098FFF7DC
:100DE00097FF8046681CC5B29AF84900A842EBDA22
:100DF00009F10109B9F1060FE1DBDBF844006FEA04
:100E00000801884224D1A06800BA7A08594673685C
:100E10009847C8B9E06805BAA06802BA3B464FF0E7
:100E2000FF31B068FFF774FFC04385420CD140F634
:100E3000A720ABF81000A06800BA01220BF1100146
:100E400010307368984708B1422002E0172000E094
:100E50004320BDE8F28F2DE9F84F80460D469146BC
:100E6000D5F804A02889ADF8000005F1140606F1B4
:100E70001007042352464046FFF76BFF002824D199
:100E8000BAF8000040BA1FFA80FBBAF8020040BA74
:100E900084B2E00748BF462075D4B4F5026FC8BFDE
:100EA0004E2070DC002C6DD05FEA0B000AD04FF6AC
:100EB0000441BBEB010000F0AD80FF3865D0FE3887
:100EC00063D0BDE0287C08B151205CE08D2C28BFA8
:100ED0004F2058D22346321D00F0BBF8002852D1D3
:100EE000FA7E802A28BF802202F10C00844201BFD2
:100EF000B08840BA00F47F40B0F5007F3ED1F08862
:100F000040BA4EF25031884202BF388A40F6A721DB
:100F1000884202BF788A00F47F40B0F5807F2DD1EF
:100F2000B06800BA4849C969884227D14648008B51
:100F300040F2032188420BD1788AB0F5847F1DD31B
:100F4000F86D41051AD14149081AB0F5283F15D866
:100F50004FF6FF70388206F110014FF0FF30FFF7B7
:100F6000EAFEF16809BAC943884204BF387E042802
:100F700004D1787E032818BF062801D0452002E05E
:100F8000012028740020BDE8F28F287C002843D07F
:100F9000042300F05DF80028F5D1DAF8000006BA65
:100FA000201F84B22848C069864238BF4820EAD34F
:100FB000A019796D884228BF4920E4D24FF603502A
:100FC00083450DD1B9F1000F0AD031460220D9F87E
:100FD0000020904720B14A20D5E7E01B84B2BE191B
:100FE000002CCFD0BDF800008442B4BF274607468E
:100FF0003B4600F02DF80028C5D1B9F1000FECD028
:101000007A0851463046D9F8043098470028E4D091
:101010004B20B8E7287C08B94120B4E7042C18BF5E
:101020004C20B0D104236A6800F013F80028AAD13C
:101030004B462A463946304601B0BDE8F04FA8E697
:101040004420A0E7E320BBDE0000000800E0020827
:101050005246294640467CE670B504460D46164683
:101060002889C10701D4802803DA4F2070BDA87AEF
:1010700078B9324629462046FFF7EDFE0028F6D023
:10108000172807D1286861688847172802D10020EF
:1010900070BD502070BD000010B504460020FFF761
:1010A000DFF824BB0020FFF756FA50B90120FFF704
:1010B00052FA30B90520FFF7D3F840F20120FFF7CC
:1010C00089F80420FFF7CCF80120FFF7C9F840F2B7
:1010D0000320BDE81040FFF77DB80FF23400FFF7A2
:1010E000ACFCFFF79FFC40F20220FFF773F8FFF71C
:1010F000C5F90400F1D00FF22000FFF79EFC204656
:10110000FFF7A6FC01A0FFF798FCF0E70D0A00002E
:101110000D0A4F6B0D0A00000D0A455252200000C7
:10112000814212D21018401E5118491E92B2002A54
:101130001EBF11F8013900F80139521EF6D170476F
:1011400011F8013B00F8013B521E92B2002AF7D180
:10115000704710B500E0521E92B232B110F8013B58
:1011600011F8014BA342F6D001E0002010BD181B7E
:1011700040B210BD0A0242EA11214840C0F30311F7
:10118000484080EA00304101C9B20206D20E41EA6D
:101190000221484080B270470A0A4840C0B2082184
:1011A0004308C00746BF034858401846491EF7D1B8
:1011B000504070472083B8ED2848018A40F6A77256
:1011C000914202BF418A4FF47F40014204D102297B
:1011D0008041C043C00F704700207047F8B50446F7
:1011E0000D461D4E01203070FFF7E6FF18B94FF491
:1011F0000170FEF7EFFF1948876A294644F48070B2
:10120000B847002131700FF2580618B9294644F446
:101210000070B847805DF2BD2DE9F0410446884674
:101220005600FFF7C9FF18B94FF40170FEF7D2FF5F
:101230000A48476A0023324641462046B8470FF223
:10124000200520B93346002241462046B847405D7C
:10125000BDE8F08100000000BC0C00200000040884
:10126000000202024B4B464741543435444230326F
:1012700031440000EE08000000000001FFFF000004
:10128000FFFFFFFFFFFFFFFFFFFFFFFFFFFFFFFF6E
:10129000FFFFFFFFFFFFFFFFFFFFFFFFFFFFFFFF5E
:1012A000FFFFFFFFFFFFFFFFFFFFFFFFFFFFFFFF4E
:1012B000FFFFFFFFFFFFFFFFFFFFFFFFFFFFFFFF3E
:1012C000FFFFFFFFFFFFFFFFFFFFFFFFFFFFFFFF2E
:1012D000FFFFFFFFFFFFFFFFFFFFFFFFFFFFFFFF1E
:1012E000FFFFFFFFFFFFFFFFFFFFFFFFFFFFFFFF0E
:1012F000FFFFFFFFFFFFFFFFFFFFFFFFFFFFFFFFFE
:10130000FFFFFFFFFFFFFFFFFFFFFFFFFFFFFFFFED
:10131000FFFFFFFFFFFFFFFFFFFFFFFFFFFFFFFFDD
:10132000FFFFFFFFFFFFFFFFFFFFFFFFFFFFFFFFCD
:10133000FFFFFFFFFFFFFFFFFFFFFFFFFFFFFFFFBD
:10134000FFFFFFFFFFFFFFFFFFFFFFFFFFFFFFFFAD
:10135000FFFFFFFFFFFFFFFFFFFFFFFFFFFFFFFF9D
:10136000FFFFFFFFFFFFFFFFFFFFFFFFFFFFFFFF8D
:10137000FFFFFFFFFFFFFFFFFFFFFFFFFFFFFFFF7D
:10138000FFFFFFFFFFFFFFFFFFFFFFFFFFFFFFFF6D
:10139000FFFFFFFFFFFFFFFFFFFFFFFFFFFFFFFF5D
:1013A000FFFFFFFFFFFFFFFFFFFFFFFFFFFFFFFF4D
:1013B000FFFFFFFFFFFFFFFFFFFFFFFFFFFFFFFF3D
:1013C000FFFFFFFFFFFFFFFFFFFFFFFFFFFFFFFF2D
:1013D000FFFFFFFFFFFFFFFFFFFFFFFFFFFFFFFF1D
:1013E000FFFFFFFFFFFFFFFFFFFFFFFFFFFFFFFF0D
:1013F000FFFFFFFFFFFFFFFFFFFFFFFFFFFFFFFFFD
:10140000FFFFFFFFFFFFFFFFFFFFFFFFFFFFFFFFEC
:10141000FFFFFFFFFFFFFFFFFFFFFFFFFFFFFFFFDC
:10142000FFFFFFFFFFFFFFFFFFFFFFFFFFFFFFFFCC
:10143000FFFFFFFFFFFFFFFFFFFFFFFFFFFFFFFFBC
:10144000FFFFFFFFFFFFFFFFFFFFFFFFFFFFFFFFAC
:10145000FFFFFFFFFFFFFFFFFFFFFFFFFFFFFFFF9C
:10146000FFFFFFFFFFFFFFFFFFFFFFFFFFFFFFFF8C
:10147000FFFFFFFFFFFFFFFFFFFFFFFFFFFFFFFF7C
:10148000FFFFFFFFFFFFFFFFFFFFFFFFFFFFFFFF6C
:10149000FFFFFFFFFFFFFFFFFFFFFFFFFFFFFFFF5C
:1014A000FFFFFFFFFFFFFFFFFFFFFFFFFFFFFFFF4C
:1014B000FFFFFFFFFFFFFFFFFFFFFFFFFFFFFFFF3C
:1014C000FFFFFFFFFFFFFFFFFFFFFFFFFFFFFFFF2C
:1014D000FFFFFFFFFFFFFFFFFFFFFFFFFFFFFFFF1C
:1014E000FFFFFFFFFFFFFFFFFFFFFFFFFFFFFFFF0C
:1014F000FFFFFFFFFFFFFFFFFFFFFFFFFFFFFFFFFC
:10150000FFFFFFFFFFFFFFFFFFFFFFFFFFFFFFFFEB
:10151000FFFFFFFFFFFFFFFFFFFFFFFFFFFFFFFFDB
:10152000FFFFFFFFFFFFFFFFFFFFFFFFFFFFFFFFCB
:10153000FFFFFFFFFFFFFFFFFFFFFFFFFFFFFFFFBB
:10154000FFFFFFFFFFFFFFFFFFFFFFFFFFFFFFFFAB
:10155000FFFFFFFFFFFFFFFFFFFFFFFFFFFFFFFF9B
:10156000FFFFFFFFFFFFFFFFFFFFFFFFFFFFFFFF8B
:10157000FFFFFFFFFFFFFFFFFFFFFFFFFFFFFFFF7B
:10158000FFFFFFFFFFFFFFFFFFFFFFFFFFFFFFFF6B
:10159000FFFFFFFFFFFFFFFFFFFFFFFFFFFFFFFF5B
:1015A000FFFFFFFFFFFFFFFFFFFFFFFFFFFFFFFF4B
:1015B000FFFFFFFFFFFFFFFFFFFFFFFFFFFFFFFF3B
:1015C000FFFFFFFFFFFFFFFFFFFFFFFFFFFFFFFF2B
:1015D000FFFFFFFFFFFFFFFFFFFFFFFFFFFFFFFF1B
:1015E000FFFFFFFFFFFFFFFFFFFFFFFFFFFFFFFF0B
:1015F000FFFFFFFFFFFFFFFFFFFFFFFFFFFFFFFFFB
:10160000FFFFFFFFFFFFFFFFFFFFFFFFFFFFFFFFEA
:10161000FFFFFFFFFFFFFFFFFFFFFFFFFFFFFFFFDA
:10162000FFFFFFFFFFFFFFFFFFFFFFFFFFFFFFFFCA
:10163000FFFFFFFFFFFFFFFFFFFFFFFFFFFFFFFFBA
:10164000FFFFFFFFFFFFFFFFFFFFFFFFFFFFFFFFAA
:10165000FFFFFFFFFFFFFFFFFFFFFFFFFFFFFFFF9A
:10166000FFFFFFFFFFFFFFFFFFFFFFFFFFFFFFFF8A
:10167000FFFFFFFFFFFFFFFFFFFFFFFFFFFFFFFF7A
:10168000FFFFFFFFFFFFFFFFFFFFFFFFFFFFFFFF6A
:10169000FFFFFFFFFFFFFFFFFFFFFFFFFFFFFFFF5A
:1016A000FFFFFFFFFFFFFFFFFFFFFFFFFFFFFFFF4A
:1016B000FFFFFFFFFFFFFFFFFFFFFFFFFFFFFFFF3A
:1016C000FFFFFFFFFFFFFFFFFFFFFFFFFFFFFFFF2A
:1016D000FFFFFFFFFFFFFFFFFFFFFFFFFFFFFFFF1A
:1016E000FFFFFFFFFFFFFFFFFFFFFFFFFFFFFFFF0A
:1016F000FFFFFFFFFFFFFFFFFFFFFFFFFFFFFFFFFA
:10170000FFFFFFFFFFFFFFFFFFFFFFFFFFFFFFFFE9
:10171000FFFFFFFFFFFFFFFFFFFFFFFFFFFFFFFFD9
:10172000FFFFFFFFFFFFFFFFFFFFFFFFFFFFFFFFC9
:10173000FFFFFFFFFFFFFFFFFFFFFFFFFFFFFFFFB9
:10174000FFFFFFFFFFFFFFFFFFFFFFFFFFFFFFFFA9
:10175000FFFFFFFFFFFFFFFFFFFFFFFFFFFFFFFF99
:10176000FFFFFFFFFFFFFFFFFFFFFFFFFFFFFFFF89
:10177000FFFFFFFFFFFFFFFFFFFFFFFFFFFFFFFF79
:10178000FFFFFFFFFFFFFFFFFFFFFFFFFFFFFFFF69
:10179000FFFFFFFFFFFFFFFFFFFFFFFFFFFFFFFF59
:1017A000FFFFFFFFFFFFFFFFFFFFFFFFFFFFFFFF49
:1017B000FFFFFFFFFFFFFFFFFFFFFFFFFFFFFFFF39
:1017C000FFFFFFFFFFFFFFFFFFFFFFFFFFFFFFFF29
:1017D000FFFFFFFFFFFFFFFFFFFFFFFFFFFFFFFF19
:1017E000FFFFFFFFFFFFFFFFFFFFFFFFFFFFFFFF09
:1017F000FFFFFFFFFFFFFFFFFFFFFFFFFFFFFFFFF9
:020000040801F1
:020000040802F0
:020000040804EE
:020000040804EE
:00000001FF
