:020000040800F2
:10000000000400206F00000885000008850000083B
:10001000A70B090100000000030221510040000865
:10002000040C0000050E0008C51200082006000898
:100030008107000825080008DD080008850700087A
:1000400087070008E90900088D0700085E00000026
:10005000FFFFFFFF09480068202100EA010028B1E6
:100060000748016842685FEA010D10477047FFF7D3
:10007000F1FF00F013F800F045F800002C000040FC
:100080000040000806E000005FEA000D70474448A9
:10009000008870474FF4017000F09CB838B54FF2FB
:1000A0000F04404D00F0C2F828B140F2052028802E
:1000B0006C80012032BD3C480068C00613D56888BA
:1000C000A0421CD1288840F2022188421CBF40F285
:1000D0000621884213D040F2011188421CBF40F231
:1000E000111188420BD0314C208A40F6A72188425A
:1000F00005D12068FFF7C8FF6068804700BF002077
:1001000032BD000038B5044672B629480168490876
:100110004900016000F0D0F8234800680009C107D9
:1001200054BF2449244902E0CD2201F8012B234A7F
:100130009142F9D32249234A234B03E011F8015B92
:1001400002F8015B9A42F9D32049214A002301E0D9
:1001500001F8013B9142FBD340F20521114A53883B
:100160004FF20F05AB420BD113888B4206D0C0076C
:1001700006D5180A012818BF022801D1194601E046
:1001800004B90021064801804CF23C30508000F058
:1001900019FA4FF40170BDE8324000F01BB80000BE
:1001A000B80C0020000000202C0000400040000897
:1001B000FCED00E00000002098000020000400207A
:1001C00094180008000400200804002008040020FF
:1001D000BD0C00200D4930220A600D490A600D490E
:1001E0000A600D4910220A60010A08BF00020B498B
:1001F00008804FF20F004880BFF35F8F084800214E
:1002000001604160074808490160704730200040A4
:1002100030C8004030C0004010E000400000002026
:100220001C4000400CED00E00400FA05002070477F
:1002300080B500F0F9F90121062000F000FA06204F
:1002400000F02DFA0121072000F0F9F9072000F055
:1002500019FA1748016821F01001016001BD000082
:10026000052800D9704710B5DFE800F01721030F0B
:100270001C17104C2088411E2180C0B9072000F0B7
:100280001BFA42F21070208010BD072000F007FA20
:100290000620BDE8104000F00FBA0620BDE810406F
:1002A00000F0F0B90620BDE8104000F0F8B910BD2C
:1002B00000BC0040BA0C002006E05248016841F042
:1002C00001010160012141605348512101607047E3
:1002D000F8B5504C4C4D4FF6FF774D4EB088B842B4
:1002E00027D102237F224D480188301D00F0FAF902
:1002F000B088B84204BF0220B080A069800703D450
:10030000A06940F00200A06101207070B0882060F8
:100310000720286000206860A8603C484FF000710A
:100320000160A069C00732D5E06980B348F69F40FC
:100330003CE0A0698007E3D52868C00348BF00F00F
:1003400051F8707898BBA06810F00100A168B288DD
:1003500003D10F2A08D2521C06E0890704D5F17890
:1003600011B1032A28BF521EF07092B2022A38BF80
:100370000222B2802068B1888842C5D1A06900F00D
:100380000300032818BFFFF798FF0120F2BDA06902
:10039000C00701D5E06920B1A069C00704D4E069B5
:1003A00010B144F24F6001E042F227306860002053
:1003B000F2BD80B51A48017829B9C07807281CBF5A
:1003C0000928032809D01748016841F480710160A9
:1003D00003E040F2DC5000F0B9F9FFF779FF0028A4
:1003E000F7D001BD0848002141608160016821F01B
:1003F0000201016005484FF00071016004480021CE
:10040000417070471C40004010E000E004ED00E047
:1004100000040020044000400080004090180008C4
:1004200096070808384000400078704700210160B6
:100430008180C18001817047F8B504460D4616469B
:10044000002710E02068803020600020E0808020BD
:100450002081A088401CA080E088411CE180001918
:10046000807A78557F1CBFB2B7420CD2E0882189D0
:100470008842F1D3802204F10A01206800F0D2F909
:100480000028DFD0F2BD0020F2BD0020704710B57B
:10049000044600F0D0F82046BDE8104000F0F9BA5C
:1004A0002DE9F043A5B000F0DBFA00F0C4F800F04D
:1004B0002FFB012100A800F033FB404C04F1800524
:1004C00000206860A86000F05EF900280FBFE860B7
:1004D0008168E9604088A4F8800000A800F0E4FB8F
:1004E000070046D1BDF80420BDF8060000A9401859
:1004F00000F20A065FFA82F894F8800080070FD5B0
:10050000E96869B1686808EB00024B1E22EA03073C
:1005100010B1A868B84203D2384600F065FAAF605F
:1005200042463146686800F0D9F907000FD14246CB
:100530002146686800F076F9002000E0401C404544
:1005400005DA015D825D9142F8D0832706E0686894
:1005500040446860002FC0D01B2FBED00420FFF79E
:100560007FFE0121384600F027FB384625B0BDE864
:10057000F083172FF0D10020F8E770B5DAB0044609
:1005800036A8FFF753FF012000904FF402630C4A96
:1005900036A901A800F036FC0FF284050FF27406AC
:1005A00000F049F8002C14BF3246002201A9284669
:1005B00000F088FE5028F3D05AB070BD280C0020FF
:1005C0000804002080B5FFF7F4FEFFF731FE00F0CD
:1005D000D7F818B14FF40170FFF7FCFD00F02BF8CD
:1005E000FFF755FD40F2011188421CBF40F2111186
:1005F000884207D040F2052188421CBF40F2032107
:10060000884201D1012000E0002000F089FE002096
:1006100002BD00004D1400088914000829040008D8
:10062000390400088B0400080E48012181604EF651
:10063000BE21416000E00C4801210160704710B507
:1006400082080FF2280353F82220136800F00300F9
:1006500080000F248440A34301FA00F01843106087
:1006600010BD0000006000400860004000B0004085
:1006700004B0004000B2004004B2004000B40040AA
:1006800004B40040C108032908D2C1104902124A2B
:10069000012300F0070003FA00F050507047C10832
:1006A000032908D2C11049020C4A012300F00700B7
:1006B00003FA00F050507047C10803290BD2C11053
:1006C000074A02EB41210A68012300F0070003FA00
:1006D00000F050400860704714B0004010B0004077
:1006E0000CB0004030B583B0044610467F2808BFE8
:1006F0000020B1F5004F1AD108237F2240F61201E5
:1007000000A8FFF7EFFF08220FF2380100A800F061
:100710006BFE30B908237F2240F2A27100A8FFF7D8
:10072000E1FF082200A9204600F03EFE37BD1A4630
:10073000034D294300FB0311204600F035FE37BD71
:1007400000000808FFFFFFFFFFFFFFFF0A490A68DC
:100750000A4B1B68DB0758BF4008032809D34B6DC1
:1007600043F001034B650B689B1A1B031B0B834271
:10077000F9D3704700000000382000401C400040C2
:100780000020704770470FF2C0207047002070476C
:100790008F48018A40F6A722914213D1418A01F481
:1007A0007F42B2F5807F0AD1B1F5847F07D3C06D57
:1007B000B0F1006F03D90021864A101A10E0002121
:1007C00000200DE08448C0F500204008C10A0C223A
:1007D000514398314A0503D0C90AC90201F50061A5
:1007E000081870477D49C20AB1EBC221400511EBE0
:1007F0005050704770B504460D192846FFF7F2FFB8
:100800000646FFF7C5FF844203D2A84228BFA5428F
:1008100001D2002070BD7248C06986428041C04349
:10082000C00F70BDF8B506460C4615462946FFF7C1
:10083000E1FF08B98520F2BD3046FFF7D3FF064639
:1008400070051FD07005400DC0F5006080B22F46C6
:10085000854288BF07463A463146204600F0A4FD4F
:10086000F00AC002A0F500663C19ED1B0AE04FF447
:100870000062204600F098FDA6F5006604F600042C
:10088000A5F50065314640F60100ADB28542EED2D5
:100890001DB12A46204600F087FD0020F2BD2DE95B
:1008A000F84307468846914600F0B0FD04464D4D9A
:1008B0002E68286840084000286000F0ADFD4A46D8
:1008C0004146384600F0E0FD07462E6000F0A4FDEA
:1008D000204600F0FFFD3846BDE8F2832DE9F041E7
:1008E000074688461546002605F0010007F001017D
:1008F000084344D129463846FFF77CFF00283ED004
:100900003846FFF76FFF074678051CD07805400D85
:10091000C0F50064A4B2A542B8BF2C4604EBD47065
:10092000C203120C00F034F80646F80AC002A0F523
:100930000067A0442D1B8EB905E0A7F5006708F6F7
:100940000008A5F5006540F60100ADB2854205D36B
:100950004FF4806200F01CF80600EED02EB9ADB264
:100960005DB16A0800F014F8064636B1022E06D0D2
:10097000462E08D04B2E04D007E0002006E085204C
:1009800004E0832002E0872000E00120BDE8F08140
:100990004146384683E72DE9F04104460D4600F014
:1009A00035FD80460F4F3E6838684008400038608B
:1009B00000F032FD2946204600F048FD04463E6026
:1009C00000F02AFD404600F085FD2046BDE8F0819C
:1009D00000400008000008080000000000F80708B8
:1009E0000000000894ED00E070B504460D4668056F
:1009F00001D0822070BD600501D0812070BD89B218
:100A00002046FFF7F7FEC0B12046FFF7EBFE044695
:100A100003E0A4F50064A5F500652DB12146022090
:100A2000FFF7B9FF0600F4D0F6B226B1022E04D0CB
:100A30004B2E04D005E0002070BD852070BD8320C2
:100A400070BD012070BD000002010F001600000003
:100A500000080000000000008818000802000000E4
:100A600080B52848682141610021816102218160AF
:100A70000121016009210920FFF7E1FD04210A207D
:100A8000BDE80440FFF7DBBD1F4800684006FBD50A
:100A900070471E49CA685207FCD50860704710B5F8
:100AA000044603E014F8010BFFF7F3FF2078002859
:100AB000F8D110BD10B5044620090A282CBF3730E4
:100AC0003030C0B2FFF7E5FF04F00F000A282CBF5A
:100AD00037303030C0B2BDE81040DAE70A4800686D
:100AE00010F0020018BF0120704710B50446FFF750
:100AF000F5FF20B1054800682070002010BD0120DE
:100B000010BD000054C8004048C800403CC8004028
:100B100080B500A8FFF7E9FF0028FAD001BD00006A
:100B2000017001224270827001290CBF8021402196
:100B300081800021C18001811D4801600E218162F8
:100B4000016821F01001016000214163416270479A
:100B5000F8B504460D46164616484FF0FF310160C1
:100B6000134FFE6200207862386840F00100386060
:100B7000FFF761FD012C19D16DB9FFF7AFFF78B90F
:100B8000786AB042F4D3002EF2D0386840084000B2
:100B900038601620F2BD2846FFF7A7FF0028EFD1E6
:100BA00038684008400038600020F2BD0120F2BDE6
:100BB00000F0004000A8004038B504460D4600F0A3
:100BC00009F800F007F82A4621461820BDE8384009
:100BD000FFF75DBC2A4621461820FFF758BC30B508
:100BE00083B00446002020814AF6B43200A9207860
:100BF000FFF7AEFF08B11C203EBD9DF800000328A2
:100C000018BF182801D118203EBD042801D1172093
:100C10003EBD012801D021203EBD002500E06D1C15
:100C2000EDB2A188091D8D420BDA40F2DD222819B0
:100C300000F10A012078FFF78BFF0028EFD0262073
:100C40003EBD0025002006E00146EDB22819007BDC
:100C500000F044FC6D1CA188EAB28A42F4D3A27A67
:100C6000E37A9B18FF2B01D022203EBD0B191D7B80
:100C7000B5EB102F01D023203EBD5B7BC0B2834279
:100C800001D024203EBDA078824207D0401EC0B2D1
:100C9000824201D127203EBD25203EBD881C2081F7
:100CA0000220E08000203EBD38B50446607801286F
:100CB00004D023D3032855D018D31FE0207801286F
:100CC00011D13B254320FFF7E4FE40F2DD22002155
:100CD0002078FFF73DFF30B12846451EC0B20028FE
:100CE000F0D11B2032BD0220607010E0FFF710FF32
:100CF00000F03AF8A078401CA07008E0182032BD3F
:100D00002278A078411EC9B20620FFF7C0FB20461A
:100D1000FFF765FF050018BFFFF7FAFE272DEFD09C
:100D2000A8060BD52278A1781520FFF7B0FB002D7F
:100D3000EDD10320FFF794FA002032BD680603D4FA
:100D4000182D18BF1C2D07D121782846FFF734FF36
:100D500004206070284632BD172DE8D100F004F859
:100D600003206070172032BD2278A1780620FFF79B
:100D70008EBB0000F8B504460D4616461F4607E038
:100D80003046A047294600F0BBFB05467F1E761C77
:100D9000BFB2002FF4D12846F2BD38B50C46154637
:100DA00005E0014614F8010B00F0AAFB6D1EADB280
:100DB000002DF6D132BDF8B507460E4614461D4645
:100DC0002A46214630683B689847070005D12A46E5
:100DD0002146F068FFF7E1FFF060D6F8A800281878
:100DE000C6F8A80096F8A70050B1AC362A462146AE
:100DF000304600F059FC2A462146304600F0D4FB2C
:100E00003846F2BD10B5029C8472038142600160D5
:100E10004FF0FF31C16000210174A0F8A4108021BF
:100E200080F8A610002180F8A710C0F8A81028228A
:100E3000AC30BDE8104000F0D0BA2DE9F84F0446C0
:100E40008B461E469BF81B70802F28BF8027D068DA
:100E50009B49884250D1002E4CD0B06800904FF092
:100E6000FF384FF000090BEB490A9AF848500FE0A1
:100E7000FF2D16D0FFF7DFFB4FF40063E80240F0D0
:100E8000006241460098FFF775FF8046681CC5B2B6
:100E90009AF84900A842EBDA09F10109B9F1060F05
:100EA000E1DBDBF844006FEA0801884224D1A06846
:100EB00000BA7A08594673689847C8B9E06805BA15
:100EC000A06802BA3B464FF0FF31B068FFF752FF0F
:100ED000C04385420CD140F6A720ABF81000A068B3
:100EE00000BA01220BF1100110307368984708B165
:100EF000422002E0172000E04320BDE8F28F2DE9F8
:100F0000F44F82B081460D46D5F804B02889ADF87B
:100F1000000005F1140606F1100704235A4600F0FC
:100F2000CFF9002825D1BBF8000040BA1FFA80F89D
:100F3000BBF8020040BA84B2E00748BF462076D42E
:100F4000B4F5026FC8BF4E2071DC002C6ED0DFF804
:100F500074A15FEA080009D04FF60441B8EB010024
:100F600064D0FF3865D0FE3863D0A7E0287C08B194
:100F700051205CE08D2C28BF4F2058D22346321DD3
:100F800000F09DF9002852D1FA7E802A28BF8022E5
:100F900002F10C00844201BFB08840BA00F47F40E7
:100FA000B0F5007F3ED1F08840BA4EF25031884211
:100FB00002BF388A40F6A721884233D1788A00F4EC
:100FC0007F40B0F5807F01BFB06800BADAF81C102E
:100FD000884227D1BAF8180040F2032188420BD189
:100FE000788AB0F5847F1DD3F86D41051AD1364952
:100FF000081AB0F5F02F15D84FF6FF70388206F1B9
:1010000010014FF0FF30FFF7C8FEF16809BAC9437D
:10101000884204BF387E042804D1787E0C2818BF8B
:10102000062801D0452002E0012028740020BDE8F8
:10103000FE8F287C08B94120F9E7042300F03EF92F
:101040000028F4D1DBF8000006BA201F84B2DAF8D9
:101050001C00864238BF4820E9D3A019796D884228
:1010600028BF4920E3D24FF6035080450CD10298A7
:1010700050B131460220029A1268904720B14A20AE
:10108000D5E7E01B84B2BE19002CCFD0BDF800001C
:101090008442B4BF274607463B4600F00FF90028BC
:1010A000C5D102980028ECD07A0859463046029BF8
:1010B0005B6898470028E4D04B20B8E74420B6E7A7
:1010C000E320BBDE0000000800E007082DE9F8433C
:1010D00004468846154605F1AC062F89102C38BF0A
:1010E0004E202CD30423324600F02BF838BB0C23BF
:1010F000321D00F026F810BBA4F11001306800BAD0
:1011000030608CB22146304600F016FA06E04A46BE
:101110006968304600F048FAA4EB0904A4B254B15F
:10112000A146BC4288BFB9464B466A6800F009F840
:101130000028ECD003E0304600F059FA0020BDE86A
:10114000F2832946404636E62DE9FE4F81460C469D
:101150009046666804F1140A0AF1100B04F1A40524
:10116000A878832805D14FF60710AF888221A9708F
:101170000AE00423324600F0A3F8002866D1308844
:1011800040BA718849BA8FB2F90748BF46205DD48A
:10119000A97880B24FF20972801A58D04FF4FF72CA
:1011A000801A3AD0FF382FD0FF3802D0FF386BD0EA
:1011B00081E080296AD1062F23D3062301AA214684
:1011C0004846FFF7F8FDE8B9BDF8040040BA00F45E
:1011D0007F40B0F5007F01BFBDF8080040BA4EF275
:1011E000503188420DD1BDF8060040BA012818BF21
:1011F000522007D1BDF8060040BAA4F8A400002090
:1012000000E04520812154E081293FD12246494612
:101210003846FFF75BFF82214BE0822936D1042F4D
:101220002DD30120E87000206860424621464846E0
:10123000FFF765FE18BB0021E97069688F421ED375
:10124000B94239D28322AA70791A696034E08229BE
:101250001CD104F1AC08404600F0C9F92089B8421D
:10126000B8BF4F2028DB3B463246214600F028F825
:1012700010BBFAB23146404600F0DFF908B95420FD
:101280001AE00020842114E0842901D0512013E0C9
:10129000042F18BF4C200FD104233246214600F002
:1012A0000FF848B94346224659465046FFF7C5FD58
:1012B0008521A97000E04420BDE8FE8F5A462946EA
:1012C000484678E570B505460C4616462089C107A4
:1012D00001D4802801DA4F2070BD00F021F908B94F
:1012E000532070BD324621462846FFF72DFF0028C7
:1012F00018BF172803D08F2184F8A61070BD94F86A
:10130000A600852806D1206869688847172805D176
:10131000002070BDA07A0028E4D0502070BD0000ED
:1013200010B504460020FEF79BFF24BB0020FFF70A
:1013300024F950B90120FFF720F930B90520FEF754
:101340008FFF40F20120FEF745FF0420FEF788FFE3
:101350000120FEF785FF40F20320BDE81040FEF7B4
:1013600039BF0FF23400FFF79AFBFFF78DFB40F215
:101370000220FEF72FFFFFF793F80400F1D00FF2E1
:101380002000FFF78CFB2046FFF794FB01A0FFF73E
:1013900086FBF0E70D0A00000D0A4F6B0D0A0000F6
:1013A0000D0A455252200000814212D21018401EF0
:1013B0005118491E92B2002A1EBF11F8013900F8D7
:1013C0000139521EF6D1704711F8013B00F8013B7C
:1013D000521E92B2002AF7D17047130003D00A467A
:1013E000194600F08DB9704710B500E0521E92B258
:1013F00032B110F8013B11F8014BA342F6D001E0E5
:10140000002010BD181B40B210BD0000EFF311808A
:10141000602181F311887047BFF35F8FBFF34F8F57
:10142000BFF36F8F704700002748018A40F6A7720C
:10143000914202BF418A4FF47F40014204D1022908
:101440008041C043C00F704700207047F8B5044684
:101450000D461C4E01203070FFF7E6FF18B94FF41F
:101460000170FEF7B7FE1848876A294644F4807079
:10147000B847002131700FF2540618B9294644F4D8
:101480000070B847805DF2BD2DE9F0410446884602
:101490005600FFF7C9FF18B94FF40170FEF79AFE26
:1014A0000948476A0023324641462046B8470FF2B2
:1014B0001C0520B93346002241462046B847405D0E
:1014C000BDE8F081BC0C0020000008080002020208
:1014D0004B4B464780F31188704700000A0242EAEE
:1014E00011214840C0F30311484080EA0030410117
:1014F000C9B20206D20E41EA0221484080B27047CA
:101500000A0A4840C0B208214308C00746BF034842
:1015100058401846491EF7D1504070472083B8ED17
:1015200000206049415CFF2901D001207047401C28
:101530001028F6DB0020704712B583B004462068FF
:1015400000BA00903A20039901B17A2020740C224D
:10155000211D04F11100FFF727FF03220DF1010106
:1015600004F11D00FFF720FF00F03CF80398D0B114
:10157000B0F57F4F05D200BA039002220DF10E01A3
:101580000EE00FF278100088ADF80400039800BA5E
:101590000390022201A9204600F006F8042203A9C4
:1015A000204600F001F81FBDF8B504460D4616466A
:1015B000002714E094F825000019017C7A5D514061
:1015C000017494F82500401C84F82500C0B210284E
:1015D00004D300F007F8002084F825007F1CB742F0
:1015E000E8D3F1BD2F4904F1100000F003B91FB595
:1015F000044600A8102100F007F994F82500C0F176
:101600001000C11000EB11710911A0EB011200A92B
:101610002046FFF7C9FF1FBD1FB50C4600AA011DDC
:10162000002000F027F80020015D00AA825C5140F4
:101630000155401C1028F7DB1FBD38B504460D4688
:10164000102A07D12068216A94F8242002EB0111A6
:10165000884201D0002032BD29462046FFF7DCFF3A
:10166000102204F110012846FFF7BEFE401E804103
:10167000C00F32BD11B581B0144600BA01900220EE
:1016800020700C22601CFFF78FFE03220DF1050174
:1016900004F10D00FFF788FE0249204600F0AAF889
:1016A00013BD0000F8080808F0B585B004460D46E3
:1016B0001646002100271DE031B900AA211D206A2D
:1016C000401CFFF7D7FF012104F120007A5D037968
:1016D0000DF1000C13F80C305A407A550279521C67
:1016E000D2B2102A04D30022216A491C21620021AF
:1016F00002717F1CB742DFD305B0F0BDFFFE0000D2
:1017000062F30F2262F31F42401810F0030308D067
:10171000C91A1FD3DB0748BF00F8012D28BF20F8E6
:10172000022D130030B414461546103928BF20E9A5
:101730003C00FAD8490728BF20E90C0048BF40F810
:10174000042D890028BF20F8022D48BF00F8012D84
:1017500030BC7047C91818BF00F8012DCB0728BF4F
:1017600000F8012D7047000038B504461B4D214696
:1017700000F03DF8E860211D00F039F8A86004F1A0
:10178000080100F034F8686004F10C0100F02FF853
:10179000286031BDF8B50446114D80202860114EF7
:1017A000062030600720286030688007FCD50027BD
:1017B00004EB870100F01BF8A8627F1C042FF7D30D
:1017C00030684007FCD500262A6B04EB860100F048
:1017D0000BF8761C042EF7D3F1BD00003830004022
:1017E0000030004010A00040002000F010B80020A1
:1017F00000F01BB810B504460846FFF7B5FF2046B9
:10180000BDE81040C6E70000002200F023B810B584
:101810000023002814BF1C46C3F10304E4B2625441
:10182000120A5B1C042BF4D310BD30B54A788B78B8
:10183000CC78097818B120461D460C4602E00846CF
:1018400015461A4655EA002054EA022141EA0040B2
:1018500030BD000000B500BF130096469446103915
:1018600028BFA0E80C50FAD85FEA417C28BF0CC022
:1018700048BF40F8042BC90728BF20F8022B48BFF7
:1018800000F8012B00BD0000454D33357800000005
:10189000EE08000000000001FFFF0000FFFFFFFF57
:1018A000FFFFFFFFFFFFFFFFFFFFFFFFFFFFFFFF48
:1018B000FFFFFFFFFFFFFFFFFFFFFFFFFFFFFFFF38
:1018C000FFFFFFFFFFFFFFFFFFFFFFFFFFFFFFFF28
:1018D000FFFFFFFFFFFFFFFFFFFFFFFFFFFFFFFF18
:1018E000FFFFFFFFFFFFFFFFFFFFFFFFFFFFFFFF08
:1018F000FFFFFFFFFFFFFFFFFFFFFFFFFFFFFFFFF8
:10190000FFFFFFFFFFFFFFFFFFFFFFFFFFFFFFFFE7
:10191000FFFFFFFFFFFFFFFFFFFFFFFFFFFFFFFFD7
:10192000FFFFFFFFFFFFFFFFFFFFFFFFFFFFFFFFC7
:10193000FFFFFFFFFFFFFFFFFFFFFFFFFFFFFFFFB7
:10194000FFFFFFFFFFFFFFFFFFFFFFFFFFFFFFFFA7
:10195000FFFFFFFFFFFFFFFFFFFFFFFFFFFFFFFF97
:10196000FFFFFFFFFFFFFFFFFFFFFFFFFFFFFFFF87
:10197000FFFFFFFFFFFFFFFFFFFFFFFFFFFFFFFF77
:10198000FFFFFFFFFFFFFFFFFFFFFFFFFFFFFFFF67
:10199000FFFFFFFFFFFFFFFFFFFFFFFFFFFFFFFF57
:1019A000FFFFFFFFFFFFFFFFFFFFFFFFFFFFFFFF47
:1019B000FFFFFFFFFFFFFFFFFFFFFFFFFFFFFFFF37
:1019C000FFFFFFFFFFFFFFFFFFFFFFFFFFFFFFFF27
:1019D000FFFFFFFFFFFFFFFFFFFFFFFFFFFFFFFF17
:1019E000FFFFFFFFFFFFFFFFFFFFFFFFFFFFFFFF07
:1019F000FFFFFFFFFFFFFFFFFFFFFFFFFFFFFFFFF7
:101A0000FFFFFFFFFFFFFFFFFFFFFFFFFFFFFFFFE6
:101A1000FFFFFFFFFFFFFFFFFFFFFFFFFFFFFFFFD6
:101A2000FFFFFFFFFFFFFFFFFFFFFFFFFFFFFFFFC6
:101A3000FFFFFFFFFFFFFFFFFFFFFFFFFFFFFFFFB6
:101A4000FFFFFFFFFFFFFFFFFFFFFFFFFFFFFFFFA6
:101A5000FFFFFFFFFFFFFFFFFFFFFFFFFFFFFFFF96
:101A6000FFFFFFFFFFFFFFFFFFFFFFFFFFFFFFFF86
:101A7000FFFFFFFFFFFFFFFFFFFFFFFFFFFFFFFF76
:101A8000FFFFFFFFFFFFFFFFFFFFFFFFFFFFFFFF66
:101A9000FFFFFFFFFFFFFFFFFFFFFFFFFFFFFFFF56
:101AA000FFFFFFFFFFFFFFFFFFFFFFFFFFFFFFFF46
:101AB000FFFFFFFFFFFFFFFFFFFFFFFFFFFFFFFF36
:101AC000FFFFFFFFFFFFFFFFFFFFFFFFFFFFFFFF26
:101AD000FFFFFFFFFFFFFFFFFFFFFFFFFFFFFFFF16
:101AE000FFFFFFFFFFFFFFFFFFFFFFFFFFFFFFFF06
:101AF000FFFFFFFFFFFFFFFFFFFFFFFFFFFFFFFFF6
:101B0000FFFFFFFFFFFFFFFFFFFFFFFFFFFFFFFFE5
:101B1000FFFFFFFFFFFFFFFFFFFFFFFFFFFFFFFFD5
:101B2000FFFFFFFFFFFFFFFFFFFFFFFFFFFFFFFFC5
:101B3000FFFFFFFFFFFFFFFFFFFFFFFFFFFFFFFFB5
:101B4000FFFFFFFFFFFFFFFFFFFFFFFFFFFFFFFFA5
:101B5000FFFFFFFFFFFFFFFFFFFFFFFFFFFFFFFF95
:101B6000FFFFFFFFFFFFFFFFFFFFFFFFFFFFFFFF85
:101B7000FFFFFFFFFFFFFFFFFFFFFFFFFFFFFFFF75
:101B8000FFFFFFFFFFFFFFFFFFFFFFFFFFFFFFFF65
:101B9000FFFFFFFFFFFFFFFFFFFFFFFFFFFFFFFF55
:101BA000FFFFFFFFFFFFFFFFFFFFFFFFFFFFFFFF45
:101BB000FFFFFFFFFFFFFFFFFFFFFFFFFFFFFFFF35
:101BC000FFFFFFFFFFFFFFFFFFFFFFFFFFFFFFFF25
:101BD000FFFFFFFFFFFFFFFFFFFFFFFFFFFFFFFF15
:101BE000FFFFFFFFFFFFFFFFFFFFFFFFFFFFFFFF05
:101BF000FFFFFFFFFFFFFFFFFFFFFFFFFFFFFFFFF5
:101C0000FFFFFFFFFFFFFFFFFFFFFFFFFFFFFFFFE4
:101C1000FFFFFFFFFFFFFFFFFFFFFFFFFFFFFFFFD4
:101C2000FFFFFFFFFFFFFFFFFFFFFFFFFFFFFFFFC4
:101C3000FFFFFFFFFFFFFFFFFFFFFFFFFFFFFFFFB4
:101C4000FFFFFFFFFFFFFFFFFFFFFFFFFFFFFFFFA4
:101C5000FFFFFFFFFFFFFFFFFFFFFFFFFFFFFFFF94
:101C6000FFFFFFFFFFFFFFFFFFFFFFFFFFFFFFFF84
:101C7000FFFFFFFFFFFFFFFFFFFFFFFFFFFFFFFF74
:101C8000FFFFFFFFFFFFFFFFFFFFFFFFFFFFFFFF64
:101C9000FFFFFFFFFFFFFFFFFFFFFFFFFFFFFFFF54
:101CA000FFFFFFFFFFFFFFFFFFFFFFFFFFFFFFFF44
:101CB000FFFFFFFFFFFFFFFFFFFFFFFFFFFFFFFF34
:101CC000FFFFFFFFFFFFFFFFFFFFFFFFFFFFFFFF24
:101CD000FFFFFFFFFFFFFFFFFFFFFFFFFFFFFFFF14
:101CE000FFFFFFFFFFFFFFFFFFFFFFFFFFFFFFFF04
:101CF000FFFFFFFFFFFFFFFFFFFFFFFFFFFFFFFFF4
:101D0000FFFFFFFFFFFFFFFFFFFFFFFFFFFFFFFFE3
:101D1000FFFFFFFFFFFFFFFFFFFFFFFFFFFFFFFFD3
:101D2000FFFFFFFFFFFFFFFFFFFFFFFFFFFFFFFFC3
:101D3000FFFFFFFFFFFFFFFFFFFFFFFFFFFFFFFFB3
:101D4000FFFFFFFFFFFFFFFFFFFFFFFFFFFFFFFFA3
:101D5000FFFFFFFFFFFFFFFFFFFFFFFFFFFFFFFF93
:101D6000FFFFFFFFFFFFFFFFFFFFFFFFFFFFFFFF83
:101D7000FFFFFFFFFFFFFFFFFFFFFFFFFFFFFFFF73
:101D8000FFFFFFFFFFFFFFFFFFFFFFFFFFFFFFFF63
:101D9000FFFFFFFFFFFFFFFFFFFFFFFFFFFFFFFF53
:101DA000FFFFFFFFFFFFFFFFFFFFFFFFFFFFFFFF43
:101DB000FFFFFFFFFFFFFFFFFFFFFFFFFFFFFFFF33
:101DC000FFFFFFFFFFFFFFFFFFFFFFFFFFFFFFFF23
:101DD000FFFFFFFFFFFFFFFFFFFFFFFFFFFFFFFF13
:101DE000FFFFFFFFFFFFFFFFFFFFFFFFFFFFFFFF03
:101DF000FFFFFFFFFFFFFFFFFFFFFFFFFFFFFFFFF3
:101E0000FFFFFFFFFFFFFFFFFFFFFFFFFFFFFFFFE2
:101E1000FFFFFFFFFFFFFFFFFFFFFFFFFFFFFFFFD2
:101E2000FFFFFFFFFFFFFFFFFFFFFFFFFFFFFFFFC2
:101E3000FFFFFFFFFFFFFFFFFFFFFFFFFFFFFFFFB2
:101E4000FFFFFFFFFFFFFFFFFFFFFFFFFFFFFFFFA2
:101E5000FFFFFFFFFFFFFFFFFFFFFFFFFFFFFFFF92
:101E6000FFFFFFFFFFFFFFFFFFFFFFFFFFFFFFFF82
:101E7000FFFFFFFFFFFFFFFFFFFFFFFFFFFFFFFF72
:101E8000FFFFFFFFFFFFFFFFFFFFFFFFFFFFFFFF62
:101E9000FFFFFFFFFFFFFFFFFFFFFFFFFFFFFFFF52
:101EA000FFFFFFFFFFFFFFFFFFFFFFFFFFFFFFFF42
:101EB000FFFFFFFFFFFFFFFFFFFFFFFFFFFFFFFF32
:101EC000FFFFFFFFFFFFFFFFFFFFFFFFFFFFFFFF22
:101ED000FFFFFFFFFFFFFFFFFFFFFFFFFFFFFFFF12
:101EE000FFFFFFFFFFFFFFFFFFFFFFFFFFFFFFFF02
:101EF000FFFFFFFFFFFFFFFFFFFFFFFFFFFFFFFFF2
:101F0000FFFFFFFFFFFFFFFFFFFFFFFFFFFFFFFFE1
:101F1000FFFFFFFFFFFFFFFFFFFFFFFFFFFFFFFFD1
:101F2000FFFFFFFFFFFFFFFFFFFFFFFFFFFFFFFFC1
:101F3000FFFFFFFFFFFFFFFFFFFFFFFFFFFFFFFFB1
:101F4000FFFFFFFFFFFFFFFFFFFFFFFFFFFFFFFFA1
:101F5000FFFFFFFFFFFFFFFFFFFFFFFFFFFFFFFF91
:101F6000FFFFFFFFFFFFFFFFFFFFFFFFFFFFFFFF81
:101F7000FFFFFFFFFFFFFFFFFFFFFFFFFFFFFFFF71
:101F8000FFFFFFFFFFFFFFFFFFFFFFFFFFFFFFFF61
:101F9000FFFFFFFFFFFFFFFFFFFFFFFFFFFFFFFF51
:101FA000FFFFFFFFFFFFFFFFFFFFFFFFFFFFFFFF41
:101FB000FFFFFFFFFFFFFFFFFFFFFFFFFFFFFFFF31
:101FC000FFFFFFFFFFFFFFFFFFFFFFFFFFFFFFFF21
:101FD000FFFFFFFFFFFFFFFFFFFFFFFFFFFFFFFF11
:101FE000FFFFFFFFFFFFFFFFFFFFFFFFFFFFFFFF01
:101FF000FFFFFFFFFFFFFFFFFFFFFFFFFFFFFFFFF1
:020000040801F1
:020000040802F0
:020000040803EF
:020000040804EE
:020000040805ED
:020000040806EC
:020000040807EB
:020000040808EA
:020000040808EA
:00000001FF
