:020000040800F2
:10000000000400206F00000885000008850000083B
:10001000A70B090100000000020221510020000886
:1000200004050000510D000811120008FC0500082D
:100030005D07000857080008A90800088D07000898
:1000400087070008910900088F0700085E0000007C
:10005000FFFFFFFF09480068202100EA010028B1E6
:100060000748016842685FEA010D10477047FFF7D3
:10007000F1FF00F013F800F045F800002C000040FC
:100080000020000806E000005FEA000D70474448C9
:10009000008870474FF4017000F09CB838B54FF2FB
:1000A0000F04404D00F0C2F828B140F2052028802E
:1000B0006C80012032BD3C480068C00613D56888BA
:1000C000A0421CD1288840F2022188421CBF40F285
:1000D0000621884213D040F2011188421CBF40F231
:1000E000111188420BD0314C208A40F6A72188425A
:1000F00005D12068FFF7C8FF6068804700BF002077
:1001000032BD000038B5044672B629480168490876
:100110004900016000F0D0F8234800680009C107D9
:1001200054BF2449244902E0CD2201F8012B234A7F
:100130009142F9D32249234A234B03E011F8015B92
:1001400002F8015B9A42F9D32049214A002301E0D9
:1001500001F8013B9142FBD340F20521114A53883B
:100160004FF20F05AB420BD113888B4206D0C0076C
:1001700006D5180A012818BF022801D1194601E046
:1001800004B90021064801804CF23C30508000F058
:1001900007FA4FF40170BDE8324000F01BB80000D0
:1001A000B80C0020000000202C00004000200008B7
:1001B000FCED00E00000002098000020000400207A
:1001C000C4170008000400200804002008040020D0
:1001D000BD0C00200D4930220A600D490A600D490E
:1001E0000A600D4910220A60010A08BF00020B498B
:1001F00008804FF20F004880BFF35F8F084800214E
:1002000001604160074808490160704730200040A4
:1002100030C8004030C0004010D000400000002036
:100220001C4000400CED00E00400FA05002070477F
:1002300080B500F0E7F90121062000F0EEF9062074
:1002400000F01BFA0121072000F0E7F9072000F079
:1002500007FA1748016821F01001016001BD000094
:10026000052800D9704710B5DFE800F01721030F0B
:100270001C17104C2088411E2180C0B9072000F0B7
:1002800009FA42F21070208010BD072000F0F5F945
:100290000620BDE8104000F0FDB90620BDE8104082
:1002A00000F0DEB90620BDE8104000F0E6B910BD50
:1002B00000BC0040BA0C002006E04B48016841F049
:1002C00001010160012141604C48512101607047EA
:1002D000F8B5494C454D4FF6FF77464EB088B842C9
:1002E00027D102237F2246480188301D00F0E8F91B
:1002F000B088B84204BF0220B080A069800703D450
:10030000A06940F00200A06101207070B0882060F8
:100310000720286000206860A86035484FF0007111
:100320000160A069C00732D5E06980B348F69F40FC
:100330003CE0A0698007E3D52868C00348BF00F00F
:1003400043F8707898BBA06810F00100A168B288EB
:1003500003D10F2A08D2521C06E0890704D5F17890
:1003600011B1032A28BF521EF07092B2022A38BF80
:100370000222B2802068B1888842C5D1A06900F00D
:100380000300032818BFFFF798FF0120F2BDA06902
:10039000C00701D5E06920B1A069C00704D4E069B5
:1003A00010B144F24F6001E042F227306860002053
:1003B000F2BD80B503E040F2DC5000F0B5F9FFF784
:1003C00087FF0028F7D001BD084800214160816007
:1003D000016821F00201016005484FF000710160E1
:1003E00004480021417070471C40004010E000E0CC
:1003F00004ED00E0000400200440004000800040C4
:10040000C017000800787047002101608180C1801A
:1004100001817047F8B504460D461646002710E0E6
:100420002068803020600020E08080202081A0882B
:10043000401CA080E088411CE1800019807A78553A
:100440007F1CBFB2B7420CD2E08821898842F1D329
:10045000802204F10A01206800F0FDF90028DFD0B5
:10046000F2BD0020F2BD0020704710B5044600F038
:10047000D0F82046BDE8104000F0B1BA2DE9F043B5
:10048000A5B000F093FA00F0C4F800F0E7FA0121FB
:1004900000A800F0EBFA404C04F1800500206860F1
:1004A000A86000F070F900280FBFE8608168E9607B
:1004B0004088A4F8800000A800F09CFB070046D10B
:1004C000BDF80420BDF8060000A9401800F20A0695
:1004D0005FFA82F894F8800080070FD5E96869B167
:1004E000686808EB00024B1E22EA030710B1A868F7
:1004F000B84203D2384600F04BFAAF60424631466C
:10050000686800F0D1F907000FD1424621466868BB
:1005100000F0A1F9002000E0401C404505DA015D33
:10052000825D9142F8D0832706E0686840446860A5
:10053000002FC0D01B2FBED00420FFF791FE012159
:10054000384600F0DFFA384625B0BDE8F083172FB3
:10055000F0D10020F8E770B5DAB0044636A8FFF70E
:1005600053FF012000904FF402630C4A36A901A802
:1005700000F0EEFB0FF284050FF2740600F049F86C
:10058000002C14BF3246002201A9284600F040FE8C
:100590005028F3D05AB070BD280C00200804002069
:1005A00080B5FFF706FFFFF743FE00F0D7F818B15C
:1005B0004FF40170FFF70EFE00F02BF8FFF767FD18
:1005C00040F2011188421CBF40F21111884207D04D
:1005D00040F2052188421CBF40F20321884201D12C
:1005E000012000E0002000F041FE002002BD0000DC
:1005F00029170008651700080504000815040008FD
:10060000670400080E48012181604EF6BE2141605A
:1006100000E00C4801210160704710B582080FF21C
:10062000280353F82220136800F0030080000F24F1
:100630008440A34301FA00F01843106010BD00008D
:10064000006000400860004000B0004004B000407E
:1006500000B4004004B4004000B8004004B80040BA
:10066000C108032908D2C1108902124A012300F0EF
:10067000070003FA00F050507047C108032908D260
:10068000C11089020C4A012300F0070003FA00F0B0
:1006900050507047C10803290BD2C110074A02EB22
:1006A00081210A68012300F0070003FA00F050409E
:1006B0000860704714B0004010B000400CB000401B
:1006C00030B583B0044610467F2808BF0020B1F53E
:1006D000004F1AD108237F2240F6120100A8FFF72D
:1006E000EFFF08220FF2380100A800F023FE30B916
:1006F00008237F2240F2A27100A8FFF7E1FF082241
:1007000000A9204600F0F6FD37BD1A46034D2943E7
:1007100000FB0311204600F0EDFD37BD000004088A
:10072000FFFFFFFFFFFFFFFF0A490A680A4B1B6834
:10073000DB0758BF4008032809D34B6D43F0010382
:100740004B650B689B1A1B031B0B8342F9D3704745
:1007500000000000382000401C40004080B50D2102
:100760000120FFF75AFF0D210220FFF756FF8548B1
:100770000E2141610121816100210160416003215D
:100780008160002002BD0FF20C20704770470020EE
:100790007047F8B50C461546010CC90041F0A001A0
:1007A000C9B2794E326942F004023261B26812076E
:1007B000FCD53160326942F002023261B2689207C0
:1007C000FCD5B268D207EDD40204120E3260326951
:1007D00042F002023261B2689207FCD5C0B23060CA
:1007E000306940F002003061B0688007FCD53069A4
:1007F00040F004003061B0680007FCD541F0010012
:100800003060306940F002003061B0688007FCD58C
:1008100000270AE07061306940F001003061B06883
:100820004007FCD5306838557F1CAF420ADAFFF725
:10083000F0FE681E87427069B2BF40F001004008B8
:100840004000E7E7306940F008003061B068000719
:10085000FCD50020F2BDF8B504460D4616464B48BF
:1008600084423EBF37463919814201D38520F2BD0B
:1008700020040ED0200C000400F58030814208D303
:1008800020464742BFB204E0F61B3C197D19B6B2C0
:1008900037463EB13A4629462046FFF77AFF002800
:1008A000F2D0F2BD0020F2BD2DE9F843044688469F
:1008B0001646364884423ABF3119814285200ED20D
:1008C00014F07F0F06D0E009C0018030814203D3CD
:1008D000071B02E0812E04D237461EB90020BDE876
:1008E000F2838027200CC00040F0A000C0B2264D4B
:1008F000296941F004012961A9680907FCD528602C
:10090000296941F002012961A9688907FCD5A96814
:10091000C907EDD42004000E2860286940F00200C9
:100920002861A8688007FCD5E0B22860286940F0FB
:1009300002002861A8688007FCD54FF000090DE08F
:10094000FFF767FE19F808002860286940F00200E8
:100950002861A8688007FCD509F101091FFA89F907
:10096000BFB2B945ECD3286940F008002861A868F7
:100970000007FCD5F61B3C19B844B6B2812EB0D2A4
:10098000AAE700004CC000403CC00040010002004B
:100990008820704702010000000000008000000075
:1009A00000000200B41700080100000080B52848CC
:1009B0006821416100218161022181600121016082
:1009C00009210920FFF729FE04210A20BDE804407F
:1009D000FFF723BE1F4800684006FBD570471E493D
:1009E000CA685207FCD50860704710B5044603E09A
:1009F00014F8010BFFF7F3FF20780028F8D110BDA1
:100A000010B5044620090A282CBF37303030C0B258
:100A1000FFF7E5FF04F00F000A282CBF3730303015
:100A2000C0B2BDE81040DAE70A48006810F00200E2
:100A300018BF0120704710B50446FFF7F5FF20B13D
:100A4000054800682070002010BD012010BD000086
:100A500054C8004048C800403CC8004080B500A8C9
:100A6000FFF7E9FF0028FAD001BD00000170012264
:100A70004270827001290CBF8021402181800021B9
:100A8000C18001811D4801600E218162016821F051
:100A9000100101600021416341627047F8B50446CE
:100AA0000D46164616484FF0FF310160134FFE62A7
:100AB00000207862386840F001003860FFF7A9FD37
:100AC000012C19D16DB9FFF7AFFF78B9786AB04240
:100AD000F4D3002EF2D03868400840003860162069
:100AE000F2BD2846FFF7A7FF0028EFD1386840087D
:100AF000400038600020F2BD0120F2BD00E000405F
:100B000000A8004038B504460D4600F009F800F092
:100B100007F82A4621461820BDE83840FFF7A5BC53
:100B20002A4621461820FFF7A0BC30B583B0044602
:100B3000002020814AF6B43200A92078FFF7AEFFEA
:100B400008B11C203EBD9DF80000032818BF1828DE
:100B500001D118203EBD042801D117203EBD012837
:100B600001D021203EBD002500E06D1CEDB2A18822
:100B7000091D8D420BDA40F2DD22281900F10A012D
:100B80002078FFF78BFF0028EFD026203EBD002500
:100B9000002006E00146EDB22819007B00F0DCFBE6
:100BA0006D1CA188EAB28A42F4D3A27AE37A9B1838
:100BB000FF2B01D022203EBD0B191D7BB5EB102F62
:100BC00001D023203EBD5B7BC0B2834201D02420F4
:100BD0003EBDA078824207D0401EC0B2824201D101
:100BE00027203EBD25203EBD881C20810220E080BC
:100BF00000203EBD38B504466078012804D023D3D8
:100C0000032855D018D31FE02078012811D13B25A7
:100C10004320FFF7E4FE40F2DD2200212078FFF7B9
:100C20003DFF30B12846451EC0B20028F0D11B2040
:100C300032BD0220607010E0FFF710FF00F03AF8BC
:100C4000A078401CA07008E0182032BD2278A0785F
:100C5000411EC9B20620FFF708FC2046FFF765FFDA
:100C6000050018BFFFF7FAFE272DEFD0A8060BD519
:100C70002278A1781520FFF7F8FB002DEDD1032095
:100C8000FFF7EEFA002032BD680603D4182D18BF16
:100C90001C2D07D121782846FFF734FF042060700F
:100CA000284632BD172DE8D100F004F8032060700B
:100CB000172032BD2278A1780620FFF7D6BB0000AE
:100CC000F8B504460D4616461F4607E03046A047D5
:100CD000294600F053FB05467F1E761CBFB2002F4D
:100CE000F4D12846F2BD38B50C46154605E001465C
:100CF00014F8010B00F042FB6D1EADB2002DF6D1D1
:100D000032BDF8B507460E4614461D462A46214612
:100D100030683B689847070005D12A462146F068AD
:100D2000FFF7E1FFF060D6F8A8002818C6F8A80081
:100D300096F8A70050B1AC362A462146304600F05E
:100D4000F1FB2A462146304600F06CFB3846F2BDE6
:100D500010B5029C84720381426001604FF0FF3144
:100D6000C16000210174A0F8A410802180F8A610B1
:100D7000002180F8A710C0F8A8102822AC30BDE8E8
:100D8000104000F0D0BA2DE9F84F04468B461E46BD
:100D90009BF81B70802F28BF8027D0689B49884212
:100DA00050D1002E4CD0B06800904FF0FF384FF07B
:100DB00000090BEB490A9AF848500FE0FF2D16D0B6
:100DC000FFF727FC4FF40063E80240F00062414661
:100DD0000098FFF775FF8046681CC5B29AF8490075
:100DE000A842EBDA09F10109B9F1060FE1DBDBF802
:100DF00044006FEA0801884224D1A06800BA7A084A
:100E0000594673689847C8B9E06805BAA06802BA3D
:100E10003B464FF0FF31B068FFF752FFC0438542B9
:100E20000CD140F6A720ABF81000A06800BA012250
:100E30000BF1100110307368984708B1422002E0AE
:100E4000172000E04320BDE8F28F2DE9F44F82B077
:100E500081460D46D5F804B02889ADF8000005F1AB
:100E6000140606F1100704235A4600F0CFF90028B3
:100E700025D1BBF8000040BA1FFA80F8BBF8020089
:100E800040BA84B2E00748BF462076D4B4F5026F7A
:100E9000C8BF4E2071DC002C6ED0DFF874A15FEA71
:100EA000080009D04FF60441B8EB010064D0FF38C8
:100EB00065D0FE3863D0A7E0287C08B151205CE003
:100EC0008D2C28BF4F2058D22346321D00F09DF9AB
:100ED000002852D1FA7E802A28BF802202F10C001D
:100EE000844201BFB08840BA00F47F40B0F5007F73
:100EF0003ED1F08840BA4EF25031884202BF388A63
:100F000040F6A721884233D1788A00F47F40B0F5BB
:100F1000807F01BFB06800BADAF81C10884227D180
:100F2000BAF8180040F2032188420BD1788AB0F554
:100F3000847F1DD3F86D41051AD13649081AB0F5E2
:100F4000D03F15D84FF6FF70388206F110014FF0F0
:100F5000FF30FFF7C8FEF16809BAC943884204BFF1
:100F6000387E042804D1787E052818BF062801D0D1
:100F7000452002E0012028740020BDE8FE8F287C77
:100F800008B94120F9E7042300F03EF90028F4D124
:100F9000DBF8000006BA201F84B2DAF81C00864293
:100FA00038BF4820E9D3A019796D884228BF49206D
:100FB000E3D24FF6035080450CD1029850B1314630
:100FC0000220029A1268904720B14A20D5E7E01B20
:100FD00084B2BE19002CCFD0BDF800008442B4BF4B
:100FE000274607463B4600F00FF90028C5D1029876
:100FF0000028ECD07A0859463046029B5B68984737
:101000000028E4D04B20B8E74420B6E7E320BBDE5D
:101010000000000800E001082DE9F8430446884676
:10102000154605F1AC062F89102C38BF4E202CD365
:101030000423324600F02BF838BB0C23321D00F09D
:1010400026F810BBA4F11001306800BA30608CB2F1
:101050002146304600F0AEF906E04A46696830465F
:1010600000F0E0F9A4EB0904A4B254B1A146BC42DB
:1010700088BFB9464B466A6800F009F80028ECD0F2
:1010800003E0304600F0F1F90020BDE8F283294684
:10109000404636E62DE9FE4F81460C46904666688E
:1010A00004F1140A0AF1100B04F1A405A8788328AE
:1010B00005D14FF60710AF888221A9700AE00423FA
:1010C000324600F0A3F8002866D1308840BA718813
:1010D00049BA8FB2F90748BF46205DD4A97880B2DB
:1010E0004FF20972801A58D04FF4FF72801A3AD02A
:1010F000FF382FD0FF3802D0FF386BD081E0802935
:101100006AD1062F23D3062301AA21464846FFF7BA
:10111000F8FDE8B9BDF8040040BA00F47F40B0F52E
:10112000007F01BFBDF8080040BA4EF2503188423E
:101130000DD1BDF8060040BA012818BF522007D1D2
:10114000BDF8060040BAA4F8A400002000E0452045
:10115000812154E081293FD1224649463846FFF794
:101160005BFF82214BE0822936D1042F2DD3012051
:10117000E87000206860424621464846FFF765FE59
:1011800018BB0021E97069688F421ED3B94239D279
:101190008322AA70791A696034E082291CD104F193
:1011A000AC08404600F061F92089B842B8BF4F2032
:1011B00028DB3B463246214600F028F810BBFAB245
:1011C0003146404600F077F908B954201AE0002073
:1011D000842114E0842901D0512013E0042F18BF8A
:1011E0004C200FD104233246214600F00FF848B9B5
:1011F0004346224659465046FFF7C5FD8521A97052
:1012000000E04420BDE8FE8F5A462946484678E56E
:1012100070B505460C4616462089C10701D48028C2
:1012200001DA4F2070BD00F0B9F808B9532070BD45
:10123000324621462846FFF72DFF002818BF172801
:1012400003D08F2184F8A61070BD94F8A6008528DD
:1012500006D1206869688847172805D1002070BD2D
:10126000A07A0028E4D0502070BD000010B50446DC
:101270000020FEF7F5FF24BB0020FFF76CF950B902
:101280000120FFF768F930B90520FEF7E9FF40F2C9
:101290000120FEF79FFF0420FEF7E2FF0120FEF78A
:1012A000DFFF40F20320BDE81040FEF793BF0FF2CE
:1012B0003400FFF79AFBFFF78DFB40F20220FEF7A8
:1012C00089FFFFF7DBF80400F1D00FF22000FFF7F1
:1012D0008CFB2046FFF794FB01A0FFF786FBF0E7AD
:1012E0000D0A00000D0A4F6B0D0A00000D0A455251
:1012F00052200000814212D21018401E5118491E7F
:1013000092B2002A1EBF11F8013900F80139521EAD
:10131000F6D1704711F8013B00F8013B521E92B222
:10132000002AF7D17047130003D00A46194600F08F
:1013300025B9704710B500E0521E92B232B110F8D4
:10134000013B11F8014BA342F6D001E0002010BD93
:10135000181B40B210BD00000A0242EA11214840A9
:10136000C0F30311484080EA00304101C9B20206CF
:10137000D20E41EA0221484080B270470A0A484032
:10138000C0B208214308C00746BF0348584018466A
:10139000491EF7D1504070472083B8ED00206049C6
:1013A000415CFF2901D001207047401C1028F6DB6A
:1013B0000020704712B583B00446206800BA009040
:1013C0003A20039901B17A2020740C22211D04F1E6
:1013D0001100FFF78FFF03220DF1010104F11D0041
:1013E000FFF788FF00F03CF80398D0B1B0F57F4FCD
:1013F00005D200BA039002220DF10E010EE00FF2A9
:1014000078100088ADF80400039800BA0390022217
:1014100001A9204600F006F8042203A9204600F0A6
:1014200001F81FBDF8B504460D461646002714E026
:1014300094F825000019017C7A5D5140017494F8FC
:101440002500401C84F82500C0B2102804D300F009
:1014500007F8002084F825007F1CB742E8D3F1BDCF
:101460002F4904F1100000F003B91FB5044600A88D
:10147000102100F007F994F82500C0F11000C11008
:1014800000EB11710911A0EB011200A92046FFF732
:10149000C9FF1FBD1FB50C4600AA011D002000F0AA
:1014A00027F80020015D00AA825C51400155401CD4
:1014B0001028F7DB1FBD38B504460D46102A07D1AA
:1014C0002068216A94F8242002EB0111884201D09F
:1014D000002032BD29462046FFF7DCFF102204F130
:1014E00010012846FFF726FF401E8041C00F32BD85
:1014F00011B581B0144600BA0190022020700C2270
:10150000601CFFF7F7FE03220DF1050104F10D0049
:10151000FFF7F0FE0249204600F0AAF813BD0000D4
:10152000F8080408F0B585B004460D4616460021BB
:1015300000271DE031B900AA211D206A401CFFF7D9
:10154000D7FF012104F120007A5D03790DF1000C31
:1015500013F80C305A407A550279521CD2B2102A34
:1015600004D30022216A491C2162002102717F1CE0
:10157000B742DFD305B0F0BDFFFE000062F30F22DB
:1015800062F31F42401810F0030308D0C91A1FD39A
:10159000DB0748BF00F8012D28BF20F8022D1300FB
:1015A00030B414461546103928BF20E93C00FAD85B
:1015B000490728BF20E90C0048BF40F8042D8900E6
:1015C00028BF20F8022D48BF00F8012D30BC70471D
:1015D000C91818BF00F8012DCB0728BF00F8012D4E
:1015E0007047000038B504461B4D214600F03DF819
:1015F000E860211D00F039F8A86004F1080100F04E
:1016000034F8686004F10C0100F02FF8286031BD57
:10161000F8B50446114D80202860114E0620306038
:101620000720286030688007FCD5002704EB87017D
:1016300000F01BF8A8627F1C042FF7D33068400726
:10164000FCD500262A6B04EB860100F00BF8761C13
:10165000042EF7D3F1BD00003830004000300040C8
:1016600010A00040002000F010B8002000F01BB8CF
:1016700010B504460846FFF7B5FF2046BDE8104008
:10168000C6E70000002200F023B810B500230028B0
:1016900014BF1C46C3F10304E4B26254120A5B1C7B
:1016A000042BF4D310BD30B54A788B78CC78097808
:1016B00018B120461D460C4602E0084615461A465B
:1016C00055EA002054EA022141EA004030BD000002
:1016D00000B500BF130096469446103928BFA0E815
:1016E0000C50FAD85FEA417C28BF0CC048BF40F8D4
:1016F000042BC90728BF20F8022B48BF00F8012B94
:1017000000BD00002848018A40F6A772914202BF3E
:10171000418A4FF47F40014204D102298041C043F5
:10172000C00F704700207047F8B504460D461D4EA7
:1017300001203070FFF7E6FF18B94FF40170FEF793
:1017400049FD1948876A294644F48070B84700214A
:1017500031700FF2580618B9294644F40070B847A2
:10176000805DF2BD2DE9F041044688465600FFF742
:10177000C9FF18B94FF40170FEF72CFD0A48476AFB
:101780000023324641462046B8470FF2200520B9D3
:101790003346002241462046B847405DBDE8F0810F
:1017A00000000000BC0C002000000408000202023F
:1017B0004B4B46474D4332344141313032350000C6
:1017C000EE08000000000001FFFF0000FFFFFFFF28
:1017D000FFFFFFFFFFFFFFFFFFFFFFFFFFFFFFFF19
:1017E000FFFFFFFFFFFFFFFFFFFFFFFFFFFFFFFF09
:1017F000FFFFFFFFFFFFFFFFFFFFFFFFFFFFFFFFF9
:020000040801F1
:020000040804EE
:020000040804EE
:00000001FF
