:020000040800F2
:10000000000400206F00000885000008850000083B
:10001000A70B090100000000010121510040000868
:10002000040E000007090008BD0B0008A00400082A
:1000300000000000000000000000000000000000C0
:100040000000000000000000000000005E00000052
:10005000FFFFFFFF09480068202100EA010028B1E6
:100060000748016842685FEA010D10477047FFF7D3
:10007000F1FF00F010F800F041F800002C00004003
:100080000040000803E000005FEA000D70474FF4F5
:10009000017000F09BB838B54FF20F043F4D00F0EF
:1000A000C1F828B140F2052028806C80012032BDC3
:1000B0003B480068C00613D56888A0421CD1288838
:1000C00040F2022188421CBF40F20621884213D030
:1000D00040F2011188421CBF40F2111188420BD03E
:1000E000304C208A40F6A721884205D12068FFF7CE
:1000F000CBFF6068804700BF002032BD38B50446A2
:1001000072B62948016849084900016000F0D0F83A
:10011000234800680009C10754BF2449244902E06C
:10012000CD2201F8012B234A9142F9D32249234AD7
:10013000234B03E011F8015B02F8015B9A42F9D30B
:100140002049214A002301E001F8013B9142FBD301
:1001500040F20521114A53884FF20F05AB420BD1F3
:1001600013888B4206D0C00706D5180A012818BF8D
:10017000022801D1194601E004B900210648018096
:100180004CF23C30508000F071F94FF40170BDE842
:10019000324000F01BB80000280C002000000020B6
:1001A0002C00004000400008FCED00E000000020B2
:1001B00098000020000400206C10000800040020BB
:1001C00008040020080400202D0C00200D493022D6
:1001D0000A600D490A600D490A600D4910220A6043
:1001E000010A08BF00020B4908804FF20F00488047
:1001F000BFF35F8F0848002101604160074808494C
:10020000016070473020004030C8004030C00040DE
:1002100010E00040000000201C4000400CED00E019
:100220000400FA050020704780B500F03DF9012177
:10023000062000F044F9062000F071F901210720A2
:1002400000F03DF9072000F05DF91748016821F042
:100250001001016001BD0000052800D9704710B5EC
:10026000DFE800F01721030F1C17104C2088411EF7
:100270002180C0B9072000F05FF942F210702080A1
:1002800010BD072000F04BF90620BDE8104000F03B
:1002900053B90620BDE8104000F034B90620BDE88F
:1002A000104000F03CB910BD00BC00402A0C0020FA
:1002B00006E05248016841F00101016001214160FE
:1002C0005348512101607047F8B5504C4C4D4FF6E2
:1002D000FF774D4EB088B84227D102237F224D4888
:1002E0000188301D00F03EF9B088B84204BF0220FA
:1002F000B080A069800703D4A06940F00200A0612B
:1003000001207070B088206007202860002068609D
:10031000A8603C484FF000710160A069C00732D569
:10032000E06980B348F69F403CE0A0698007E3D5D0
:100330002868C00348BF00F051F8707898BBA068E7
:1003400010F00100A168B28803D10F2A08D2521C14
:1003500006E0890704D5F17811B1032A28BF521E9F
:10036000F07092B2022A38BF0222B2802068B188AF
:100370008842C5D1A06900F00300032818BFFFF729
:1003800098FF0120F2BDA069C00701D5E06920B146
:10039000A069C00704D4E06910B144F24F6001E0E5
:1003A00042F2273068600020F2BD80B51A4801781B
:1003B00029B9C07807281CBF0928032809D0174885
:1003C000016841F48071016003E040F2DC5000F00C
:1003D000FDF8FFF779FF0028F7D001BD084800219C
:1003E00041608160016821F00201016005484FF021
:1003F0000071016004480021417070471C400040BA
:1004000010E000E004ED00E00004002004400040A3
:100410000080004068100008960708083840004037
:100420000078704730B5DBB00446214636A800F0AE
:10043000E7F8002000904FF402630B4A36A901A8A8
:1004400000F061FA0FF24C0201A90FF2540000F023
:10045000B5FB054600F02FF81DB12146284600F0F7
:100460001BF928465BB030BD0804002080B5FFF7BB
:100470009CFFFFF7D9FE00F0C1FB00F047FC40F203
:100480000120FFF7A3FE002002BD012A08BF00F0F3
:10049000C9BB7047E10F00081D10000821040008C7
:1004A000530800088B0800080E48012181604EF6B1
:1004B000BE21416000E00C4801210160704710B589
:1004C00082080FF2280353F82220136800F003007B
:1004D00080000F248440A34301FA00F01843106009
:1004E00010BD0000006000400860004000B0004007
:1004F00004B0004000B2004004B2004000B400402C
:1005000004B40040C108032908D2C1104902124AAC
:10051000012300F0070003FA00F050507047C108B3
:10052000032908D2C11049020C4A012300F0070038
:1005300003FA00F050507047C10803290BD2C110D4
:10054000074A02EB41210A68012300F0070003FA81
:1005500000F050400860704714B0004010B00040F8
:100560000CB0004030B583B0044610467F2808BF69
:100570000020B1F5004F1AD108237F2240F6120166
:1005800000A8FFF7EFFF08220FF2380100A800F0E3
:10059000E2FC30B908237F2240F2A27100A8FFF7E5
:1005A000E1FF082200A9204600F0BCFC37BD1A4636
:1005B000034D294300FB0311204600F0B3FC37BD77
:1005C00000000808FFFFFFFFFFFFFFFF0A490A685E
:1005D0000A4B1B68DB0758BF4008032809D34B6D43
:1005E00043F001034B650B689B1A1B031B0B8342F3
:1005F000F9D3704700000000382000401C40004044
:10060000017001224270827001290CBF80214021BB
:1006100081800021C18001811D4801600E2181621D
:10062000016821F0100101600021416341627047BF
:10063000F8B504460D46164616484FF0FF310160E6
:10064000134FFE6200207862386840F00100386085
:10065000FFF731FF012C19D16DB900F032FB78B9E9
:10066000786AB042F4D3002EF2D0386840084000D7
:1006700038601620F2BD284600F02AFB0028EFD192
:1006800038684008400038600020F2BD0120F2BD0B
:1006900000F0004000A8004038B504460D4600F0C8
:1006A00009F800F007F82A4621461820BDE838402E
:1006B000FFF7EBBE2A4621461820FFF7E6BE30B50D
:1006C00083B00446002020814AF6B43200A9207885
:1006D000FFF7AEFF08B11C203EBD9DF800000328C7
:1006E00018BF182801D118203EBD042801D11720B9
:1006F0003EBD012801D021203EBD002500E06D1C3B
:10070000EDB2A188091D8D420BDA40F2DD222819D5
:1007100000F10A012078FFF78BFF0028EFD0262098
:100720003EBD0025002006E00146EDB22819007B01
:1007300000F022FC6D1CA188EAB28A42F4D3A27AAE
:10074000E37A9B18FF2B01D022203EBD0B191D7BA5
:10075000B5EB102F01D023203EBD5B7BC0B283429E
:1007600001D024203EBDA078824207D0401EC0B2F6
:10077000824201D127203EBD25203EBD881C20811C
:100780000220E08000203EBD38B504466078012894
:1007900004D023D3032855D018D31FE02078012894
:1007A00011D13B25432000F03DFA40F2DD2200212B
:1007B0002078FFF73DFF30B12846451EC0B2002823
:1007C000F0D11B2032BD0220607010E000F092FAE0
:1007D00000F03AF8A078401CA07008E0182032BD64
:1007E0002278A078411EC9B20620FFF74EFE2046AF
:1007F000FFF765FF050018BF00F07CFA272DEFD04A
:10080000A8060BD52278A1781520FFF73EFE002D13
:10081000EDD10320FFF720FD002032BD680603D490
:10082000182D18BF1C2D07D121782846FFF734FF5B
:1008300004206070284632BD172DE8D100F004F87E
:1008400003206070172032BD2278A1780620FFF7C0
:100850001CBEF8B504460D461646002706E0E088A3
:10086000411CE1800019807A78557F1CBFB2B742E5
:1008700009D2E08821898842F1D32046FFF784FF1E
:100880000028ECD0F2BD0020F2BD10B50446204691
:10089000FFF77AFF0028FAD010BD0000F8B5044633
:1008A0000D4616461F4607E03046A047294600F091
:1008B00075FB05467F1E761CBFB2002FF4D128467B
:1008C000F2BD38B50C46154605E0014614F8010B9B
:1008D00000F064FB6D1EADB2002DF6D132BDF8B54F
:1008E00004460D4616461F463A4631462868236898
:1008F0009847040005D13A463146E868FFF7E1FF22
:10090000E8602046F2BD10B5029C8472038142600B
:1009100001604FF0FF31C1600021017410BD2DE96D
:10092000F84F04468B461E469BF81B70802F28BF4D
:100930008027D0689D49884250D1002E4CD0B068A5
:1009400000904FF0FF384FF000090BEB490A9AF87E
:1009500048500FE0FF2D16D0FFF7ADFD4FF40063B8
:10096000E80240F0006241460098FFF797FF80469A
:10097000681CC5B29AF84900A842EBDA09F10109EE
:10098000B9F1060FE1DBDBF844006FEA08018842A9
:1009900024D1A06800BA7A08594673689847C8B944
:1009A000E06805BAA06802BA3B464FF0FF31B06874
:1009B000FFF774FFC04385420CD140F6A720ABF887
:1009C0001000A06800BA01220BF11001103073680A
:1009D000984708B1422002E0172000E04320BDE81C
:1009E000F28F2DE9F84F80460D469146D5F804A0C8
:1009F0002889ADF8000005F1140606F1100704235C
:100A000052464046FFF76BFF002870D1BAF800004D
:100A100040BA1FFA80FBBAF8020040BA84B2E0077D
:100A200048BF462063D4B4F5026FC8BF4E205EDCD9
:100A3000002C5BD05FEA0B000AD04FF60441BBEB01
:100A4000010000F09B80FF3853D0FE3851D0ABE05E
:100A5000287C08B151204AE08D2C28BF4F2046D277
:100A60002346321D00F0A7F8002840D1FA7E802AE4
:100A700028BF802202F10C00844201BFB08840BA36
:100A800000F47F40B0F5007F2CD1F08840BA4EF2E0
:100A90005031884202BF388A40F6A721884202BFFF
:100AA000788A00F47F40B0F5807F1BD1B06800BA2F
:100AB0003F49C969884215D14FF6FF70388206F167
:100AC00010014FF0FF30FFF7FCFEF16809BAC9438F
:100AD000884204BF387E042804D1787E0E2818BFCF
:100AE000062801D0452002E0012028740020BDE83E
:100AF000F28F287C002843D0042300F05BF8002804
:100B0000F5D1DAF8000006BA201F84B22848C0697F
:100B1000864238BF4820EAD3A019796D884228BFA1
:100B20004920E4D24FF6035083450DD1B9F1000FAF
:100B30000AD031460220D9F80020904720B14A203F
:100B4000D5E7E01B84B2BE19002CCFD0BDF8000061
:100B50008442B4BF274607463B4600F02BF80028E6
:100B6000C5D1B9F1000FECD07A0851463046D9F81A
:100B7000043098470028E4D04B20B8E7287C08B917
:100B80004120B4E7042C18BF4C20B0D104236A687C
:100B900000F011F80028AAD14B462A4639463046C3
:100BA00001B0BDE8F04FBAE64420A0E7E320BBDE89
:100BB0000000000852462946404690E670B50446BB
:100BC0000D4616462889C10701D4802803DA4F2034
:100BD00070BDA87A78B9324629462046FFF701FF52
:100BE0000028F6D0172807D1286861688847172899
:100BF00002D1002070BD502070BD000080B53A4881
:100C0000682141610021816102218160012101602F
:100C100009210920FFF753FC04210A20BDE8044004
:100C2000FFF74DBC3249CA685207FCD508607047CF
:100C300010B5044603E014F8010BFFF7F3FF20782A
:100C40000028F8D110BD7CB500A90FF2B80218CA6F
:100C500018C1052104220A230CE080B290FBF3F4B2
:100C600003FB1405EDB2204600AC05F130060E552D
:100C700005B10A46491E49B20029EED5D2B200A8F4
:100C80001018FFF7D5FF73BD10B5044620090A28D8
:100C90002CBF37303030C0B2FFF7C4FF04F00F0074
:100CA0000A282CBF37303030C0B2BDE81040B9E759
:100CB00010B50446200AFFF7E7FFE0B2BDE8104098
:100CC000E2E70A48006810F0020018BF01207047F0
:100CD00010B50446FFF7F5FF20B105480068207005
:100CE000002010BD012010BD54C8004048C800407D
:100CF0003CC8004080B500A8FFF7EAFF0028FAD002
:100D000001BD000030303030300000002DE9F84FD8
:100D1000FFF7D1FBFFF7EEFF0020FFF79DFA0FF280
:100D20007418474D44A60FF2401B44A4DFF81491F9
:100D30000FF2141A1DE05046FFF77AFF0C27B9F89E
:100D40001A00384100F00F00FFF77DFF012FA4BF0C
:100D50002E20FFF767FF3F1FF1D52046FFF768FF02
:100D6000B9F84C00FFF76FFF5846FFF761FFFFF738
:100D7000C1FFFFF7A0FB0220FFF76EFA00A8FFF704
:100D8000A7FF0028F5D19DF80000FFF74BFF9DF865
:100D900000000A2818BF0D28CDD0312804D03228F1
:100DA0002FD0332832D0E2E70FF2F800FFF740FFF0
:100DB0000120FFF737FB07460FF2FC00FFF738FF73
:100DC000380005D10520FFF747FA0FF20010CCE7F5
:100DD0000420FFF741FA0FF20010FFF729FFB806D1
:100DE00048BF0FF2001005D478064CBF0FF20C106C
:100DF0000FF22410FFF71CFF3846FFF759FF30466B
:100E0000B3E70120FFF728FABDE8F18F002730464D
:100E1000FFF70EFF288A40F6A721884218BF4046F8
:100E2000A3D1781990F824007F1C20B1FFF7FAFEB7
:100E3000FFB2202FF5D3E2E70D0A00002062000088
:100E400000400008000000080D0A454D33353837D2
:100E50002053657269616C20426F6F746C6F6164BE
:100E600065722076000000000D0A312E2075706C2E
:100E70006F61642065626C0D0A322E2072756E0DF2
:100E80000A332E2065626C20696E666F0D0A424C33
:100E9000203E20002A2A206E6F20617070202A2AAE
:100EA0000D0A00000D0A626567696E2075706C6F2F
:100EB00061640D0A000000000D0A53657269616CDF
:100EC0002075706C6F61642000000000636F6D70AE
:100ED0006C6574650D0A000061626F727465640D63
:100EE0000A0000000D0A584D6F64656D20626C6F3A
:100EF000636B206572726F72203078000D0A646F28
:100F0000776E6C6F61642066696C65206572726FC4
:100F100072203078000000000D0A6572726F722036
:100F200030780000814212D21018401E5118491E1C
:100F300092B2002A1EBF11F8013900F80139521E81
:100F4000F6D1704711F8013B00F8013B521E92B2F6
:100F5000002AF7D1704710B500E0521E92B232B1AC
:100F600010F8013B11F8014BA342F6D001E000203C
:100F700010BD181B40B210BD0A0242EA11214840C0
:100F8000C0F30311484080EA00304101C9B20206B3
:100F9000D20E41EA0221484080B270470A0A484016
:100FA000C0B208214308C00746BF0348584018464E
:100FB000491EF7D1504070472083B8ED2748018A79
:100FC00040F6A772914202BF418A4FF47F4001422E
:100FD00004D102298041C043C00F704700207047F0
:100FE000F8B504460D461C4E01203070FFF7E6FFB1
:100FF00018B94FF40170FFF7E9F81848876A2946D5
:1010000044F48070B847002131700FF2540618B9CB
:10101000294644F40070B847805DF2BD2DE9F041E7
:10102000044688465600FFF7C9FF18B94FF401700F
:10103000FFF7CCF80948476A00233246414620466C
:10104000B8470FF21C0520B933460022414620461E
:10105000B847405DBDE8F0812C0C00200000080876
:10106000000202024B4B4647EE0800000000000160
:10107000FFFF0000FFFFFFFFFFFFFFFFFFFFFFFF7E
:10108000FFFFFFFFFFFFFFFFFFFFFFFFFFFFFFFF70
:10109000FFFFFFFFFFFFFFFFFFFFFFFFFFFFFFFF60
:1010A000FFFFFFFFFFFFFFFFFFFFFFFFFFFFFFFF50
:1010B000FFFFFFFFFFFFFFFFFFFFFFFFFFFFFFFF40
:1010C000FFFFFFFFFFFFFFFFFFFFFFFFFFFFFFFF30
:1010D000FFFFFFFFFFFFFFFFFFFFFFFFFFFFFFFF20
:1010E000FFFFFFFFFFFFFFFFFFFFFFFFFFFFFFFF10
:1010F000FFFFFFFFFFFFFFFFFFFFFFFFFFFFFFFF00
:10110000FFFFFFFFFFFFFFFFFFFFFFFFFFFFFFFFEF
:10111000FFFFFFFFFFFFFFFFFFFFFFFFFFFFFFFFDF
:10112000FFFFFFFFFFFFFFFFFFFFFFFFFFFFFFFFCF
:10113000FFFFFFFFFFFFFFFFFFFFFFFFFFFFFFFFBF
:10114000FFFFFFFFFFFFFFFFFFFFFFFFFFFFFFFFAF
:10115000FFFFFFFFFFFFFFFFFFFFFFFFFFFFFFFF9F
:10116000FFFFFFFFFFFFFFFFFFFFFFFFFFFFFFFF8F
:10117000FFFFFFFFFFFFFFFFFFFFFFFFFFFFFFFF7F
:10118000FFFFFFFFFFFFFFFFFFFFFFFFFFFFFFFF6F
:10119000FFFFFFFFFFFFFFFFFFFFFFFFFFFFFFFF5F
:1011A000FFFFFFFFFFFFFFFFFFFFFFFFFFFFFFFF4F
:1011B000FFFFFFFFFFFFFFFFFFFFFFFFFFFFFFFF3F
:1011C000FFFFFFFFFFFFFFFFFFFFFFFFFFFFFFFF2F
:1011D000FFFFFFFFFFFFFFFFFFFFFFFFFFFFFFFF1F
:1011E000FFFFFFFFFFFFFFFFFFFFFFFFFFFFFFFF0F
:1011F000FFFFFFFFFFFFFFFFFFFFFFFFFFFFFFFFFF
:10120000FFFFFFFFFFFFFFFFFFFFFFFFFFFFFFFFEE
:10121000FFFFFFFFFFFFFFFFFFFFFFFFFFFFFFFFDE
:10122000FFFFFFFFFFFFFFFFFFFFFFFFFFFFFFFFCE
:10123000FFFFFFFFFFFFFFFFFFFFFFFFFFFFFFFFBE
:10124000FFFFFFFFFFFFFFFFFFFFFFFFFFFFFFFFAE
:10125000FFFFFFFFFFFFFFFFFFFFFFFFFFFFFFFF9E
:10126000FFFFFFFFFFFFFFFFFFFFFFFFFFFFFFFF8E
:10127000FFFFFFFFFFFFFFFFFFFFFFFFFFFFFFFF7E
:10128000FFFFFFFFFFFFFFFFFFFFFFFFFFFFFFFF6E
:10129000FFFFFFFFFFFFFFFFFFFFFFFFFFFFFFFF5E
:1012A000FFFFFFFFFFFFFFFFFFFFFFFFFFFFFFFF4E
:1012B000FFFFFFFFFFFFFFFFFFFFFFFFFFFFFFFF3E
:1012C000FFFFFFFFFFFFFFFFFFFFFFFFFFFFFFFF2E
:1012D000FFFFFFFFFFFFFFFFFFFFFFFFFFFFFFFF1E
:1012E000FFFFFFFFFFFFFFFFFFFFFFFFFFFFFFFF0E
:1012F000FFFFFFFFFFFFFFFFFFFFFFFFFFFFFFFFFE
:10130000FFFFFFFFFFFFFFFFFFFFFFFFFFFFFFFFED
:10131000FFFFFFFFFFFFFFFFFFFFFFFFFFFFFFFFDD
:10132000FFFFFFFFFFFFFFFFFFFFFFFFFFFFFFFFCD
:10133000FFFFFFFFFFFFFFFFFFFFFFFFFFFFFFFFBD
:10134000FFFFFFFFFFFFFFFFFFFFFFFFFFFFFFFFAD
:10135000FFFFFFFFFFFFFFFFFFFFFFFFFFFFFFFF9D
:10136000FFFFFFFFFFFFFFFFFFFFFFFFFFFFFFFF8D
:10137000FFFFFFFFFFFFFFFFFFFFFFFFFFFFFFFF7D
:10138000FFFFFFFFFFFFFFFFFFFFFFFFFFFFFFFF6D
:10139000FFFFFFFFFFFFFFFFFFFFFFFFFFFFFFFF5D
:1013A000FFFFFFFFFFFFFFFFFFFFFFFFFFFFFFFF4D
:1013B000FFFFFFFFFFFFFFFFFFFFFFFFFFFFFFFF3D
:1013C000FFFFFFFFFFFFFFFFFFFFFFFFFFFFFFFF2D
:1013D000FFFFFFFFFFFFFFFFFFFFFFFFFFFFFFFF1D
:1013E000FFFFFFFFFFFFFFFFFFFFFFFFFFFFFFFF0D
:1013F000FFFFFFFFFFFFFFFFFFFFFFFFFFFFFFFFFD
:10140000FFFFFFFFFFFFFFFFFFFFFFFFFFFFFFFFEC
:10141000FFFFFFFFFFFFFFFFFFFFFFFFFFFFFFFFDC
:10142000FFFFFFFFFFFFFFFFFFFFFFFFFFFFFFFFCC
:10143000FFFFFFFFFFFFFFFFFFFFFFFFFFFFFFFFBC
:10144000FFFFFFFFFFFFFFFFFFFFFFFFFFFFFFFFAC
:10145000FFFFFFFFFFFFFFFFFFFFFFFFFFFFFFFF9C
:10146000FFFFFFFFFFFFFFFFFFFFFFFFFFFFFFFF8C
:10147000FFFFFFFFFFFFFFFFFFFFFFFFFFFFFFFF7C
:10148000FFFFFFFFFFFFFFFFFFFFFFFFFFFFFFFF6C
:10149000FFFFFFFFFFFFFFFFFFFFFFFFFFFFFFFF5C
:1014A000FFFFFFFFFFFFFFFFFFFFFFFFFFFFFFFF4C
:1014B000FFFFFFFFFFFFFFFFFFFFFFFFFFFFFFFF3C
:1014C000FFFFFFFFFFFFFFFFFFFFFFFFFFFFFFFF2C
:1014D000FFFFFFFFFFFFFFFFFFFFFFFFFFFFFFFF1C
:1014E000FFFFFFFFFFFFFFFFFFFFFFFFFFFFFFFF0C
:1014F000FFFFFFFFFFFFFFFFFFFFFFFFFFFFFFFFFC
:10150000FFFFFFFFFFFFFFFFFFFFFFFFFFFFFFFFEB
:10151000FFFFFFFFFFFFFFFFFFFFFFFFFFFFFFFFDB
:10152000FFFFFFFFFFFFFFFFFFFFFFFFFFFFFFFFCB
:10153000FFFFFFFFFFFFFFFFFFFFFFFFFFFFFFFFBB
:10154000FFFFFFFFFFFFFFFFFFFFFFFFFFFFFFFFAB
:10155000FFFFFFFFFFFFFFFFFFFFFFFFFFFFFFFF9B
:10156000FFFFFFFFFFFFFFFFFFFFFFFFFFFFFFFF8B
:10157000FFFFFFFFFFFFFFFFFFFFFFFFFFFFFFFF7B
:10158000FFFFFFFFFFFFFFFFFFFFFFFFFFFFFFFF6B
:10159000FFFFFFFFFFFFFFFFFFFFFFFFFFFFFFFF5B
:1015A000FFFFFFFFFFFFFFFFFFFFFFFFFFFFFFFF4B
:1015B000FFFFFFFFFFFFFFFFFFFFFFFFFFFFFFFF3B
:1015C000FFFFFFFFFFFFFFFFFFFFFFFFFFFFFFFF2B
:1015D000FFFFFFFFFFFFFFFFFFFFFFFFFFFFFFFF1B
:1015E000FFFFFFFFFFFFFFFFFFFFFFFFFFFFFFFF0B
:1015F000FFFFFFFFFFFFFFFFFFFFFFFFFFFFFFFFFB
:10160000FFFFFFFFFFFFFFFFFFFFFFFFFFFFFFFFEA
:10161000FFFFFFFFFFFFFFFFFFFFFFFFFFFFFFFFDA
:10162000FFFFFFFFFFFFFFFFFFFFFFFFFFFFFFFFCA
:10163000FFFFFFFFFFFFFFFFFFFFFFFFFFFFFFFFBA
:10164000FFFFFFFFFFFFFFFFFFFFFFFFFFFFFFFFAA
:10165000FFFFFFFFFFFFFFFFFFFFFFFFFFFFFFFF9A
:10166000FFFFFFFFFFFFFFFFFFFFFFFFFFFFFFFF8A
:10167000FFFFFFFFFFFFFFFFFFFFFFFFFFFFFFFF7A
:10168000FFFFFFFFFFFFFFFFFFFFFFFFFFFFFFFF6A
:10169000FFFFFFFFFFFFFFFFFFFFFFFFFFFFFFFF5A
:1016A000FFFFFFFFFFFFFFFFFFFFFFFFFFFFFFFF4A
:1016B000FFFFFFFFFFFFFFFFFFFFFFFFFFFFFFFF3A
:1016C000FFFFFFFFFFFFFFFFFFFFFFFFFFFFFFFF2A
:1016D000FFFFFFFFFFFFFFFFFFFFFFFFFFFFFFFF1A
:1016E000FFFFFFFFFFFFFFFFFFFFFFFFFFFFFFFF0A
:1016F000FFFFFFFFFFFFFFFFFFFFFFFFFFFFFFFFFA
:10170000FFFFFFFFFFFFFFFFFFFFFFFFFFFFFFFFE9
:10171000FFFFFFFFFFFFFFFFFFFFFFFFFFFFFFFFD9
:10172000FFFFFFFFFFFFFFFFFFFFFFFFFFFFFFFFC9
:10173000FFFFFFFFFFFFFFFFFFFFFFFFFFFFFFFFB9
:10174000FFFFFFFFFFFFFFFFFFFFFFFFFFFFFFFFA9
:10175000FFFFFFFFFFFFFFFFFFFFFFFFFFFFFFFF99
:10176000FFFFFFFFFFFFFFFFFFFFFFFFFFFFFFFF89
:10177000FFFFFFFFFFFFFFFFFFFFFFFFFFFFFFFF79
:10178000FFFFFFFFFFFFFFFFFFFFFFFFFFFFFFFF69
:10179000FFFFFFFFFFFFFFFFFFFFFFFFFFFFFFFF59
:1017A000FFFFFFFFFFFFFFFFFFFFFFFFFFFFFFFF49
:1017B000FFFFFFFFFFFFFFFFFFFFFFFFFFFFFFFF39
:1017C000FFFFFFFFFFFFFFFFFFFFFFFFFFFFFFFF29
:1017D000FFFFFFFFFFFFFFFFFFFFFFFFFFFFFFFF19
:1017E000FFFFFFFFFFFFFFFFFFFFFFFFFFFFFFFF09
:1017F000FFFFFFFFFFFFFFFFFFFFFFFFFFFFFFFFF9
:020000040801F1
:020000040802F0
:020000040803EF
:020000040804EE
:020000040805ED
:020000040806EC
:020000040807EB
:020000040808EA
:020000040808EA
:00000001FF
