:020000040800F2
:10000000000400206F00000885000008850000083B
:10001000A70B090100000000010221510040000867
:10002000040C00009F0D00087D1000082006000849
:10003000A70700082B0900088D090008150800080B
:10004000F1070008050A0008F70700085E00000035
:10005000FFFFFFFF09480068202100EA010028B1E6
:100060000748016842685FEA010D10477047FFF7D3
:10007000F1FF00F013F800F045F800002C000040FC
:100080000040000806E000005FEA000D70474448A9
:10009000008870474FF4017000F09CB838B54FF2FB
:1000A0000F04404D00F0C2F828B140F2052028802E
:1000B0006C80012032BD3C480068C00613D56888BA
:1000C000A0421CD1288840F2022188421CBF40F285
:1000D0000621884213D040F2011188421CBF40F231
:1000E000111188420BD0314C208A40F6A72188425A
:1000F00005D12068FFF7C8FF6068804700BF002077
:1001000032BD000038B5044672B629480168490876
:100110004900016000F0D0F8234800680009C107D9
:1001200054BF2449244902E0CD2201F8012B234A7F
:100130009142F9D32249234A234B03E011F8015B92
:1001400002F8015B9A42F9D32049214A002301E0D9
:1001500001F8013B9142FBD340F20521114A53883B
:100160004FF20F05AB420BD113888B4206D0C0076C
:1001700006D5180A012818BF022801D1194601E046
:1001800004B90021064801804CF23C30508000F058
:1001900019FA4FF40170BDE8324000F01BB80000BE
:1001A000B80C0020000000202C0000400040000897
:1001B000FCED00E00000002098000020000400207A
:1001C0009812000800040020080400200804002001
:1001D000BD0C00200D4930220A600D490A600D490E
:1001E0000A600D4910220A60010A08BF00020B498B
:1001F00008804FF20F004880BFF35F8F084800214E
:1002000001604160074808490160704730200040A4
:1002100030C8004030C0004010E000400000002026
:100220001C4000400CED00E00400FA05002070477F
:1002300080B500F0F9F90121062000F000FA06204F
:1002400000F02DFA0121072000F0F9F9072000F055
:1002500019FA1748016821F01001016001BD000082
:10026000052800D9704710B5DFE800F01721030F0B
:100270001C17104C2088411E2180C0B9072000F0B7
:100280001BFA42F21070208010BD072000F007FA20
:100290000620BDE8104000F00FBA0620BDE810406F
:1002A00000F0F0B90620BDE8104000F0F8B910BD2C
:1002B00000BC0040BA0C002006E05248016841F042
:1002C00001010160012141605348512101607047E3
:1002D000F8B5504C4C4D4FF6FF774D4EB088B842B4
:1002E00027D102237F224D480188301D00F0FAF902
:1002F000B088B84204BF0220B080A069800703D450
:10030000A06940F00200A06101207070B0882060F8
:100310000720286000206860A8603C484FF000710A
:100320000160A069C00732D5E06980B348F69F40FC
:100330003CE0A0698007E3D52868C00348BF00F00F
:1003400051F8707898BBA06810F00100A168B288DD
:1003500003D10F2A08D2521C06E0890704D5F17890
:1003600011B1032A28BF521EF07092B2022A38BF80
:100370000222B2802068B1888842C5D1A06900F00D
:100380000300032818BFFFF798FF0120F2BDA06902
:10039000C00701D5E06920B1A069C00704D4E069B5
:1003A00010B144F24F6001E042F227306860002053
:1003B000F2BD80B51A48017829B9C07807281CBF5A
:1003C0000928032809D01748016841F480710160A9
:1003D00003E040F2DC5000F0B9F9FFF779FF0028A4
:1003E000F7D001BD0848002141608160016821F01B
:1003F0000201016005484FF00071016004480021CE
:10040000417070471C40004010E000E004ED00E047
:1004100000040020044000400080004094120008C6
:1004200096070808384000400078704700210160B6
:100430008180C18001817047F8B504460D4616469B
:10044000002710E02068803020600020E0808020BD
:100450002081A088401CA080E088411CE180001918
:10046000807A78557F1CBFB2B7420CD2E0882189D0
:100470008842F1D3802204F10A01206800F055FA85
:100480000028DFD0F2BD0020F2BD0020704710B57B
:10049000044600F0D0F82046BDE8104000F0D9BA7C
:1004A0002DE9F043A5B000F0BBFA00F0C4F800F06D
:1004B0000FFB012100A800F013FB404C04F1800564
:1004C00000206860A86000F093F900280FBFE86082
:1004D0008168E9604088A4F8800000A800F0C4FBAF
:1004E000070046D1BDF80420BDF8060000A9401859
:1004F00000F20A065FFA82F894F8800080070FD5B0
:10050000E96869B1686808EB00024B1E22EA03073C
:1005100010B1A868B84203D2384600F073FAAF6051
:1005200042463146686800F031FA07000FD1424672
:100530002146686800F0F9F9002000E0401C4045C1
:1005400005DA015D825D9142F8D0832706E0686894
:1005500040446860002FC0D01B2FBED00420FFF79E
:100560007FFE0121384600F007FB384625B0BDE884
:10057000F083172FF0D10020F8E770B5DAB0044609
:1005800036A8FFF753FF012000904FF402630C4A96
:1005900036A901A800F003FC0FF284050FF27406DF
:1005A00000F049F8002C14BF3246002201A9284669
:1005B00000F064FD5028F3D05AB070BD280C002024
:1005C0000804002080B5FFF7F4FEFFF731FE00F0CD
:1005D000EAF818B14FF40170FFF7FCFD00F02BF8BA
:1005E000FFF755FD40F2011188421CBF40F2111186
:1005F000884207D040F2052188421CBF40F2032107
:10060000884201D1012000E0002000F057FD0020C9
:1006100002BD0000011200083D1200082904000874
:10062000390400088B0400080E48012181604EF651
:10063000BE21416000E00C4801210160704710B507
:1006400082080FF2280353F82220136800F00300F9
:1006500080000F248440A34301FA00F01843106087
:1006600010BD0000006000400860004000B0004085
:1006700004B0004000B2004004B2004000B40040AA
:1006800004B40040C108032908D2C1104902124A2B
:10069000012300F0070003FA00F050507047C10832
:1006A000032908D2C11049020C4A012300F00700B7
:1006B00003FA00F050507047C10803290BD2C11053
:1006C000074A02EB41210A68012300F0070003FA00
:1006D00000F050400860704714B0004010B0004077
:1006E0000CB0004030B583B0044610467F2808BFE8
:1006F0000020B1F5004F1AD108237F2240F61201E5
:1007000000A8FFF7EFFF08220FF2380100A800F061
:1007100032FD30B908237F2240F2A27100A8FFF712
:10072000E1FF082200A9204600F00CFD37BD1A4663
:10073000034D294300FB0311204600F003FD37BDA4
:1007400000000808FFFFFFFFFFFFFFFF0A490A68DC
:100750000A4B1B68DB0758BF4008032809D34B6DC1
:1007600043F001034B650B689B1A1B031B0B834271
:10077000F9D3704700000000382000401C400040C2
:100780009B49086048680007FCD50868704798498D
:10079000FF2008604A681207FCD54A68920748BFE4
:1007A0000868C0B2704710B5924C41F649102060FD
:1007B00091480021C1600161416010214160022126
:1007C000016044F62060FFF7C1FF606940F0080057
:1007D00060619F20FFF7D4FFFFF7D9FF216941F047
:1007E000080121611F2801D1002010BD862010BD05
:1007F0000FF2142070470020704710B500F045F844
:10080000D720FFF7BDFFFFF7C2FF216841F00801C5
:10081000216010BD80B5FFF7F0FF8028FBD301BD3C
:10082000F8B505460E461746FFF7E7FF8028FBD3CD
:1008300000F02BF8D220FFF7A3FF6802000EFFF7AD
:100840009FFF280A4006000EFFF79AFFE8B2FFF765
:1008500097FF00F018F800F016F800F014F800F018
:1008600012F805E0FFF7E7FEFFF791FF06F8010B2E
:100870003846471E80B20028F4D1206840F00800B6
:1008800020600020F2BD00207AE75C4C606840F0F8
:100890000800606070472DE9F84306468846914697
:1008A000FFF7ABFF8028FBD3300A4400F50B534F12
:1008B000B9F5807F17D2786840F00800786053203F
:1008C000FFF75EFFE8B2FFF75BFFE0B2FFF758FF0C
:1008D000F0B2FFF755FF386840F008003860FFF7C6
:1008E0008CFF8028FBD3786840F008007860822075
:1008F000FFF746FFE8B2FFF743FFE0B2FFF740FF24
:10090000F0B203E0FFF797FE18F8010BFFF738FF8E
:100910004846A0F1010980B20028F3D1386840F0C0
:10092000080038600020BDE8F2832DE9F843044652
:100930000D461646324884423ABF3119814285201D
:1009400012D240F201194FF48078200607D0200A15
:10095000000200F58070814203D3071B02E04E4580
:1009600004D237461EB90020BDE8F2834746BAB22A
:1009700029462046FFF754FF0028F5D1F61BB8B2F0
:1009800004440544B6B24E45F0D2EAE72DE9F843F7
:1009900004460D4616461A4884423ABF3119814230
:1009A000852012D240F201194FF48078200607D03A
:1009B000200A000200F58070814203D3071B02E089
:1009C0004E4504D237461EB90020BDE8F2834746A3
:1009D000BAB229462046FFF75EFF0028F5D1F61B84
:1009E000B8B204440544B6B24E45F0D2EAE700007E
:1009F0003CC0004000B0004054C0004010B0004077
:100A0000010004008820704702010000000000007F
:100A1000000100000000040088120008010000002E
:100A200080B52848682141610021816102218160EF
:100A30000121016009210920FFF701FE04210A209C
:100A4000BDE80440FFF7FBBD1F4800684006FBD52A
:100A500070471E49CA685207FCD50860704710B538
:100A6000044603E014F8010BFFF7F3FF2078002899
:100A7000F8D110BD10B5044620090A282CBF373024
:100A80003030C0B2FFF7E5FF04F00F000A282CBF9A
:100A900037303030C0B2BDE81040DAE70A480068AD
:100AA00010F0020018BF0120704710B50446FFF790
:100AB000F5FF20B1054800682070002010BD01201E
:100AC00010BD000054C8004048C800403CC8004069
:100AD00080B500A8FFF7E9FF0028FAD001BD0000AB
:100AE000017001224270827001290CBF80214021D7
:100AF00081800021C18001811D4801600E21816239
:100B0000016821F0100101600021416341627047DA
:100B1000F8B504460D46164616484FF0FF31016001
:100B2000134FFE6200207862386840F001003860A0
:100B3000FFF781FD012C19D16DB9FFF7AFFF78B92F
:100B4000786AB042F4D3002EF2D0386840084000F2
:100B500038601620F2BD2846FFF7A7FF0028EFD126
:100B600038684008400038600020F2BD0120F2BD26
:100B700000F0004000A8004038B504460D4600F0E3
:100B800009F800F007F82A4621461820BDE8384049
:100B9000FFF77DBC2A4621461820FFF778BC30B508
:100BA00083B00446002020814AF6B43200A92078A0
:100BB000FFF7AEFF08B11C203EBD9DF800000328E2
:100BC00018BF182801D118203EBD042801D11720D4
:100BD0003EBD012801D021203EBD002500E06D1C56
:100BE000EDB2A188091D8D420BDA40F2DD222819F1
:100BF00000F10A012078FFF78BFF0028EFD02620B4
:100C00003EBD0025002006E00146EDB22819007B1C
:100C100000F0C2FA6D1CA188EAB28A42F4D3A27A2B
:100C2000E37A9B18FF2B01D022203EBD0B191D7BC0
:100C3000B5EB102F01D023203EBD5B7BC0B28342B9
:100C400001D024203EBDA078824207D0401EC0B211
:100C5000824201D127203EBD25203EBD881C208137
:100C60000220E08000203EBD38B5044660780128AF
:100C700004D023D3032855D018D31FE020780128AF
:100C800011D13B254320FFF7E4FE40F2DD22002195
:100C90002078FFF73DFF30B12846451EC0B200283E
:100CA000F0D11B2032BD0220607010E0FFF710FF72
:100CB00000F03AF8A078401CA07008E0182032BD7F
:100CC0002278A078411EC9B20620FFF7E0FB20463B
:100CD000FFF765FF050018BFFFF7FAFE272DEFD0DD
:100CE000A8060BD52278A1781520FFF7D0FB002DA0
:100CF000EDD10320FFF7B4FA002032BD680603D41B
:100D0000182D18BF1C2D07D121782846FFF734FF76
:100D100004206070284632BD172DE8D100F004F899
:100D200003206070172032BD2278A1780620FFF7DB
:100D3000AEBB0000F8B504460D4616461F4607E058
:100D40003046A047294600F039FA05467F1E761C3A
:100D5000BFB2002FF4D12846F2BD38B50C46154677
:100D600005E0014614F8010B00F028FA6D1EADB243
:100D7000002DF6D132BDF8B504460D4616461F4685
:100D80003A463146286823689847040005D13A4618
:100D90003146E868FFF7E1FFE8602046F2BD10B594
:100DA000029C84720381426001604FF0FF31C16098
:100DB0000021017410BD2DE9F84F04468B461E46F4
:100DC0009BF81B70802F28BF8027D068A6498842D7
:100DD00050D1002E4CD0B06800904FF0FF384FF04B
:100DE00000090BEB490A9AF848500FE0FF2D16D086
:100DF000FFF721FC4FF40063E80240F00062414637
:100E00000098FFF797FF8046681CC5B29AF8490022
:100E1000A842EBDA09F10109B9F1060FE1DBDBF8D1
:100E200044006FEA0801884224D1A06800BA7A0819
:100E3000594673689847C8B9E06805BAA06802BA0D
:100E40003B464FF0FF31B068FFF774FFC043854267
:100E50000CD140F6A720ABF81000A06800BA012220
:100E60000BF1100110307368984708B1422002E07E
:100E7000172000E04320BDE8F28F2DE9F84F8046AF
:100E80000D469146D5F804A02889ADF8000005F17B
:100E9000140606F11007042352464046FFF76BFF85
:100EA000002824D1BAF8000040BA1FFA80FBBAF833
:100EB000020040BA84B2E00748BF462075D4B4F5BA
:100EC000026FC8BF4E2070DC002C6DD05FEA0B00B3
:100ED0000AD04FF60441BBEB010000F0AD80FF38B3
:100EE00065D0FE3863D0BDE0287C08B151205CE0BD
:100EF0008D2C28BF4F2058D22346321D00F0BBF85E
:100F0000002852D1FA7E802A28BF802202F10C00EC
:100F1000844201BFB08840BA00F47F40B0F5007F42
:100F20003ED1F08840BA4EF25031884202BF388A32
:100F300040F6A721884202BF788A00F47F40B0F5CE
:100F4000807F2DD1B06800BA4849C969884227D14D
:100F50004648008B40F2032188420BD1788AB0F5D5
:100F6000847F1DD3F86D41051AD14149081AB0F5A7
:100F7000F02F15D84FF6FF70388206F110014FF0B0
:100F8000FF30FFF7EAFEF16809BAC943884204BF9F
:100F9000387E042804D1787E0C2818BF062801D09A
:100FA000452002E0012028740020BDE8F28F287C53
:100FB000002843D0042300F05DF80028F5D1DAF8CA
:100FC000000006BA201F84B22848C069864238BF94
:100FD0004820EAD3A019796D884228BF4920E4D27D
:100FE0004FF6035083450DD1B9F1000F0AD03146B9
:100FF0000220D9F80020904720B14A20D5E7E01B15
:1010000084B2BE19002CCFD0BDF800008442B4BF1A
:10101000274607463B4600F02DF80028C5D1B9F118
:10102000000FECD07A0851463046D9F80430984782
:101030000028E4D04B20B8E7287C08B94120B4E769
:10104000042C18BF4C20B0D104236A6800F013F8B8
:101050000028AAD14B462A463946304601B0BDE8A1
:10106000F04FA8E64420A0E7E320BBDE0000000824
:1010700000E007085246294640467CE670B5044623
:101080000D4616462889C10701D4802803DA4F206F
:1010900070BDA87A78B9324629462046FFF7EDFEA2
:1010A0000028F6D0172807D12868616888471728D4
:1010B00002D1002070BD502070BD000010B5044664
:1010C0000020FFF7CDF824BB0020FFF756FA50B9F7
:1010D0000120FFF752FA30B90520FFF7C1F840F2BE
:1010E0000120FFF777F80420FFF7BAF80120FFF797
:1010F000B7F840F20320BDE81040FFF76BB80FF2DD
:101100003400FFF7ACFCFFF79FFC40F20220FFF732
:1011100061F8FFF7C5F90400F1D00FF22000FFF7E6
:101120009EFC2046FFF7A6FC01A0FFF798FCF0E725
:101130000D0A00000D0A4F6B0D0A00000D0A455202
:1011400052200000814212D21018401E5118491E30
:1011500092B2002A1EBF11F8013900F80139521E5F
:10116000F6D1704711F8013B00F8013B521E92B2D4
:10117000002AF7D1704710B500E0521E92B232B18A
:1011800010F8013B11F8014BA342F6D001E000201A
:1011900010BD181B40B210BD0A0242EA112148409E
:1011A000C0F30311484080EA00304101C9B2020691
:1011B000D20E41EA0221484080B270470A0A4840F4
:1011C000C0B208214308C00746BF0348584018462C
:1011D000491EF7D1504070472083B8ED2748018A57
:1011E00040F6A772914202BF418A4FF47F4001420C
:1011F00004D102298041C043C00F704700207047CE
:10120000F8B504460D461C4E01203070FFF7E6FF8E
:1012100018B94FF40170FEF7DDFF1848876A2946B8
:1012200044F48070B847002131700FF2540618B9A9
:10123000294644F40070B847805DF2BD2DE9F041C5
:10124000044688465600FFF7C9FF18B94FF40170ED
:10125000FEF7C0FF0948476A002332464146204650
:10126000B8470FF21C0520B93346002241462046FC
:10127000B847405DBDE8F081BC0C002000000808C4
:10128000000202024B4B464741543435444230324F
:1012900031440000EE08000000000001FFFF0000E4
:1012A000FFFFFFFFFFFFFFFFFFFFFFFFFFFFFFFF4E
:1012B000FFFFFFFFFFFFFFFFFFFFFFFFFFFFFFFF3E
:1012C000FFFFFFFFFFFFFFFFFFFFFFFFFFFFFFFF2E
:1012D000FFFFFFFFFFFFFFFFFFFFFFFFFFFFFFFF1E
:1012E000FFFFFFFFFFFFFFFFFFFFFFFFFFFFFFFF0E
:1012F000FFFFFFFFFFFFFFFFFFFFFFFFFFFFFFFFFE
:10130000FFFFFFFFFFFFFFFFFFFFFFFFFFFFFFFFED
:10131000FFFFFFFFFFFFFFFFFFFFFFFFFFFFFFFFDD
:10132000FFFFFFFFFFFFFFFFFFFFFFFFFFFFFFFFCD
:10133000FFFFFFFFFFFFFFFFFFFFFFFFFFFFFFFFBD
:10134000FFFFFFFFFFFFFFFFFFFFFFFFFFFFFFFFAD
:10135000FFFFFFFFFFFFFFFFFFFFFFFFFFFFFFFF9D
:10136000FFFFFFFFFFFFFFFFFFFFFFFFFFFFFFFF8D
:10137000FFFFFFFFFFFFFFFFFFFFFFFFFFFFFFFF7D
:10138000FFFFFFFFFFFFFFFFFFFFFFFFFFFFFFFF6D
:10139000FFFFFFFFFFFFFFFFFFFFFFFFFFFFFFFF5D
:1013A000FFFFFFFFFFFFFFFFFFFFFFFFFFFFFFFF4D
:1013B000FFFFFFFFFFFFFFFFFFFFFFFFFFFFFFFF3D
:1013C000FFFFFFFFFFFFFFFFFFFFFFFFFFFFFFFF2D
:1013D000FFFFFFFFFFFFFFFFFFFFFFFFFFFFFFFF1D
:1013E000FFFFFFFFFFFFFFFFFFFFFFFFFFFFFFFF0D
:1013F000FFFFFFFFFFFFFFFFFFFFFFFFFFFFFFFFFD
:10140000FFFFFFFFFFFFFFFFFFFFFFFFFFFFFFFFEC
:10141000FFFFFFFFFFFFFFFFFFFFFFFFFFFFFFFFDC
:10142000FFFFFFFFFFFFFFFFFFFFFFFFFFFFFFFFCC
:10143000FFFFFFFFFFFFFFFFFFFFFFFFFFFFFFFFBC
:10144000FFFFFFFFFFFFFFFFFFFFFFFFFFFFFFFFAC
:10145000FFFFFFFFFFFFFFFFFFFFFFFFFFFFFFFF9C
:10146000FFFFFFFFFFFFFFFFFFFFFFFFFFFFFFFF8C
:10147000FFFFFFFFFFFFFFFFFFFFFFFFFFFFFFFF7C
:10148000FFFFFFFFFFFFFFFFFFFFFFFFFFFFFFFF6C
:10149000FFFFFFFFFFFFFFFFFFFFFFFFFFFFFFFF5C
:1014A000FFFFFFFFFFFFFFFFFFFFFFFFFFFFFFFF4C
:1014B000FFFFFFFFFFFFFFFFFFFFFFFFFFFFFFFF3C
:1014C000FFFFFFFFFFFFFFFFFFFFFFFFFFFFFFFF2C
:1014D000FFFFFFFFFFFFFFFFFFFFFFFFFFFFFFFF1C
:1014E000FFFFFFFFFFFFFFFFFFFFFFFFFFFFFFFF0C
:1014F000FFFFFFFFFFFFFFFFFFFFFFFFFFFFFFFFFC
:10150000FFFFFFFFFFFFFFFFFFFFFFFFFFFFFFFFEB
:10151000FFFFFFFFFFFFFFFFFFFFFFFFFFFFFFFFDB
:10152000FFFFFFFFFFFFFFFFFFFFFFFFFFFFFFFFCB
:10153000FFFFFFFFFFFFFFFFFFFFFFFFFFFFFFFFBB
:10154000FFFFFFFFFFFFFFFFFFFFFFFFFFFFFFFFAB
:10155000FFFFFFFFFFFFFFFFFFFFFFFFFFFFFFFF9B
:10156000FFFFFFFFFFFFFFFFFFFFFFFFFFFFFFFF8B
:10157000FFFFFFFFFFFFFFFFFFFFFFFFFFFFFFFF7B
:10158000FFFFFFFFFFFFFFFFFFFFFFFFFFFFFFFF6B
:10159000FFFFFFFFFFFFFFFFFFFFFFFFFFFFFFFF5B
:1015A000FFFFFFFFFFFFFFFFFFFFFFFFFFFFFFFF4B
:1015B000FFFFFFFFFFFFFFFFFFFFFFFFFFFFFFFF3B
:1015C000FFFFFFFFFFFFFFFFFFFFFFFFFFFFFFFF2B
:1015D000FFFFFFFFFFFFFFFFFFFFFFFFFFFFFFFF1B
:1015E000FFFFFFFFFFFFFFFFFFFFFFFFFFFFFFFF0B
:1015F000FFFFFFFFFFFFFFFFFFFFFFFFFFFFFFFFFB
:10160000FFFFFFFFFFFFFFFFFFFFFFFFFFFFFFFFEA
:10161000FFFFFFFFFFFFFFFFFFFFFFFFFFFFFFFFDA
:10162000FFFFFFFFFFFFFFFFFFFFFFFFFFFFFFFFCA
:10163000FFFFFFFFFFFFFFFFFFFFFFFFFFFFFFFFBA
:10164000FFFFFFFFFFFFFFFFFFFFFFFFFFFFFFFFAA
:10165000FFFFFFFFFFFFFFFFFFFFFFFFFFFFFFFF9A
:10166000FFFFFFFFFFFFFFFFFFFFFFFFFFFFFFFF8A
:10167000FFFFFFFFFFFFFFFFFFFFFFFFFFFFFFFF7A
:10168000FFFFFFFFFFFFFFFFFFFFFFFFFFFFFFFF6A
:10169000FFFFFFFFFFFFFFFFFFFFFFFFFFFFFFFF5A
:1016A000FFFFFFFFFFFFFFFFFFFFFFFFFFFFFFFF4A
:1016B000FFFFFFFFFFFFFFFFFFFFFFFFFFFFFFFF3A
:1016C000FFFFFFFFFFFFFFFFFFFFFFFFFFFFFFFF2A
:1016D000FFFFFFFFFFFFFFFFFFFFFFFFFFFFFFFF1A
:1016E000FFFFFFFFFFFFFFFFFFFFFFFFFFFFFFFF0A
:1016F000FFFFFFFFFFFFFFFFFFFFFFFFFFFFFFFFFA
:10170000FFFFFFFFFFFFFFFFFFFFFFFFFFFFFFFFE9
:10171000FFFFFFFFFFFFFFFFFFFFFFFFFFFFFFFFD9
:10172000FFFFFFFFFFFFFFFFFFFFFFFFFFFFFFFFC9
:10173000FFFFFFFFFFFFFFFFFFFFFFFFFFFFFFFFB9
:10174000FFFFFFFFFFFFFFFFFFFFFFFFFFFFFFFFA9
:10175000FFFFFFFFFFFFFFFFFFFFFFFFFFFFFFFF99
:10176000FFFFFFFFFFFFFFFFFFFFFFFFFFFFFFFF89
:10177000FFFFFFFFFFFFFFFFFFFFFFFFFFFFFFFF79
:10178000FFFFFFFFFFFFFFFFFFFFFFFFFFFFFFFF69
:10179000FFFFFFFFFFFFFFFFFFFFFFFFFFFFFFFF59
:1017A000FFFFFFFFFFFFFFFFFFFFFFFFFFFFFFFF49
:1017B000FFFFFFFFFFFFFFFFFFFFFFFFFFFFFFFF39
:1017C000FFFFFFFFFFFFFFFFFFFFFFFFFFFFFFFF29
:1017D000FFFFFFFFFFFFFFFFFFFFFFFFFFFFFFFF19
:1017E000FFFFFFFFFFFFFFFFFFFFFFFFFFFFFFFF09
:1017F000FFFFFFFFFFFFFFFFFFFFFFFFFFFFFFFFF9
:020000040801F1
:020000040802F0
:020000040803EF
:020000040804EE
:020000040805ED
:020000040806EC
:020000040807EB
:020000040808EA
:020000040808EA
:00000001FF
